t,maternally-immune,susceptible,exposed,infectious,recovered,dead,r0
0,1,53,4,2,0,0,0
1,1,51,6,2,0,0,0
2,1,51,6,2,0,0,1.0
3,1,51,6,2,0,0,0.0
4,1,51,6,2,0,0,0.0
5,1,51,6,2,0,0,0.0
6,1,51,6,2,0,0,0.0
7,1,51,6,2,0,0,0.0
8,1,50,7,2,0,0,0.0
9,1,50,7,2,0,0,0.5
10,1,49,8,2,0,0,0.0
11,1,49,8,2,0,0,0.5
12,1,49,8,2,0,0,0.0
13,1,49,8,2,0,0,0.0
14,1,49,8,2,0,0,0.0
15,1,48,9,2,0,0,0.0
16,1,48,9,2,0,0,0.5
17,1,47,10,2,0,0,0.0
18,1,47,10,2,0,0,0.5
19,1,47,10,2,0,0,0.0
20,1,47,10,2,0,0,0.0
21,1,47,10,2,0,0,0.0
22,1,47,10,2,0,0,0.0
23,1,47,10,2,0,0,0.0
24,1,47,10,2,0,0,0.0
25,1,47,10,2,0,0,0.0
26,1,47,10,2,0,0,0.0
27,1,47,10,2,0,0,0.0
28,1,47,10,2,0,0,0.0
29,1,47,9,3,0,0,0.0
30,1,47,9,3,0,0,0.0
31,1,47,9,3,0,0,0.0
32,1,47,9,3,0,0,0.0
33,1,47,9,3,0,0,0.0
34,1,46,10,3,0,0,0.0
35,1,46,10,3,0,0,0.3333333333333333
36,1,46,10,3,0,0,0.0
37,1,46,10,3,0,0,0.0
38,1,46,10,3,0,0,0.0
39,1,46,10,3,0,0,0.0
40,1,46,10,3,0,0,0.0
41,1,46,10,3,0,0,0.0
42,1,46,10,3,0,0,0.0
43,1,46,10,3,0,0,0.0
44,1,46,10,3,0,0,0.0
45,1,46,10,3,0,0,0.0
46,1,46,10,3,0,0,0.0
47,1,46,10,3,0,0,0.0
48,1,46,10,3,0,0,0.0
49,1,46,10,3,0,0,0.0
50,1,46,10,3,0,0,0.0
51,1,45,11,3,0,0,0.0
52,1,45,11,3,0,0,0.3333333333333333
53,1,45,11,3,0,0,0.0
54,1,45,11,3,0,0,0.0
55,1,45,11,3,0,0,0.0
56,1,45,11,3,0,0,0.0
57,1,45,11,3,0,0,0.0
58,1,45,11,3,0,0,0.0
59,1,45,11,3,0,0,0.0
60,1,45,11,3,0,0,0.0
61,1,45,11,3,0,0,0.0
62,1,45,11,3,0,0,0.0
63,1,44,12,3,0,0,0.0
64,1,44,12,3,0,0,0.3333333333333333
65,1,44,12,3,0,0,0.0
66,1,44,12,3,0,0,0.0
67,1,44,12,3,0,0,0.0
68,1,44,12,3,0,0,0.0
69,1,44,11,4,0,0,0.0
70,1,43,12,4,0,0,0.0
71,1,43,12,4,0,0,0.25
72,1,43,12,4,0,0,0.0
73,1,43,12,4,0,0,0.0
74,1,43,12,4,0,0,0.0
75,1,43,12,4,0,0,0.0
76,1,42,12,5,0,0,0.0
77,1,40,12,7,0,0,0.2
78,1,40,12,7,0,0,0.2857142857142857
79,1,39,13,7,0,0,0.0
80,1,38,14,7,0,0,0.14285714285714285
81,1,38,14,7,0,0,0.14285714285714285
82,1,36,16,7,0,0,0.0
83,1,36,16,7,0,0,0.2857142857142857
84,1,36,16,7,0,0,0.0
85,1,36,16,7,0,0,0.0
86,1,36,16,7,0,0,0.0
87,1,36,16,7,0,0,0.0
88,1,35,17,7,0,0,0.0
89,1,35,17,7,0,0,0.14285714285714285
90,1,35,17,7,0,0,0.0
91,1,35,17,7,0,0,0.0
92,1,32,20,7,0,0,0.0
93,1,32,20,7,0,0,0.42857142857142855
94,1,32,20,7,0,0,0.0
95,1,31,21,7,0,0,0.0
96,1,31,21,7,0,0,0.14285714285714285
97,1,31,21,7,0,0,0.0
98,1,31,20,8,0,0,0.0
99,1,31,20,8,0,0,0.0
100,1,31,20,8,0,0,0.0
101,1,30,21,8,0,0,0.0
102,1,30,21,8,0,0,0.125
103,1,29,22,8,0,0,0.0
104,1,29,21,9,0,0,0.125
105,1,28,21,10,0,0,0.0
106,1,28,21,10,0,0,0.1
107,1,28,21,10,0,0,0.0
108,1,28,20,11,0,0,0.0
109,1,28,20,11,0,0,0.0
110,1,28,20,11,0,0,0.0
111,1,28,20,11,0,0,0.0
112,1,28,20,11,0,0,0.0
113,1,28,20,11,0,0,0.0
114,1,28,20,11,0,0,0.0
115,1,28,20,11,0,0,0.0
116,1,28,20,11,0,0,0.0
117,1,28,20,11,0,0,0.0
118,1,28,20,11,0,0,0.0
119,1,28,20,11,0,0,0.0
120,1,28,20,11,0,0,0.0
121,1,28,19,12,0,0,0.0
122,1,28,19,12,0,0,0.0
123,1,28,19,12,0,0,0.0
124,1,28,19,12,0,0,0.0
125,1,28,19,12,0,0,0.0
126,1,28,19,12,0,0,0.0
127,1,28,19,12,0,0,0.0
128,1,28,19,12,0,0,0.0
129,1,28,19,12,0,0,0.0
130,1,28,19,12,0,0,0.0
131,1,27,20,12,0,0,0.0
132,1,27,20,12,0,0,0.08333333333333333
133,1,27,20,12,0,0,0.0
134,1,27,20,12,0,0,0.0
135,1,27,20,12,0,0,0.0
136,1,26,19,14,0,0,0.0
137,1,26,19,14,0,0,0.07142857142857142
138,1,26,19,14,0,0,0.0
139,1,26,19,14,0,0,0.0
140,1,26,19,14,0,0,0.0
141,1,26,19,14,0,0,0.0
142,1,25,20,14,0,0,0.0
143,1,25,20,14,0,0,0.07142857142857142
144,1,25,20,14,0,0,0.0
145,1,25,20,14,0,0,0.0
146,1,25,20,14,0,0,0.0
147,1,25,20,14,0,0,0.0
148,1,25,20,14,0,0,0.0
149,1,25,20,14,0,0,0.0
150,1,25,20,14,0,0,0.0
151,1,25,20,14,0,0,0.0
152,1,25,20,14,0,0,0.0
153,1,25,20,14,0,0,0.0
154,1,25,20,14,0,0,0.0
155,1,25,20,14,0,0,0.0
156,1,25,20,14,0,0,0.0
157,1,24,20,15,0,0,0.0
158,1,22,22,15,0,0,0.06666666666666667
159,1,22,22,15,0,0,0.13333333333333333
160,1,21,22,16,0,0,0.0
161,1,16,27,16,0,0,0.0625
162,1,13,30,16,0,0,0.3125
163,1,13,30,16,0,0,0.1875
164,1,13,30,16,0,0,0.0
165,1,13,30,16,0,0,0.0
166,1,13,30,16,0,0,0.0
167,1,13,30,16,0,0,0.0
168,1,12,31,16,0,0,0.0
169,1,12,30,17,0,0,0.0625
170,1,12,30,17,0,0,0.0
171,1,12,30,17,0,0,0.0
172,1,12,30,17,0,0,0.0
173,1,12,30,17,0,0,0.0
174,1,12,30,17,0,0,0.0
175,1,12,29,18,0,0,0.0
176,1,12,29,18,0,0,0.0
177,1,12,29,18,0,0,0.0
178,1,12,29,18,0,0,0.0
179,1,12,29,18,0,0,0.0
180,1,11,30,18,0,0,0.0
181,1,11,30,18,0,0,0.05555555555555555
182,1,11,30,18,0,0,0.0
183,1,11,30,18,0,0,0.0
184,1,10,30,19,0,0,0.0
185,1,10,30,19,0,0,0.05263157894736842
186,1,10,30,19,0,0,0.0
187,1,9,31,19,0,0,0.0
188,1,9,31,19,0,0,0.05263157894736842
189,1,9,31,19,0,0,0.0
190,1,9,31,19,0,0,0.0
191,1,7,33,19,0,0,0.0
192,1,6,34,19,0,0,0.10526315789473684
193,1,6,34,19,0,0,0.05263157894736842
194,1,6,34,19,0,0,0.0
195,1,6,34,19,0,0,0.0
196,1,6,33,20,0,0,0.0
197,1,6,33,20,0,0,0.0
198,1,6,32,21,0,0,0.0
199,1,6,32,21,0,0,0.0
200,1,6,31,22,0,0,0.0
201,1,6,31,22,0,0,0.0
202,1,6,31,22,0,0,0.0
203,1,5,32,22,0,0,0.0
204,1,5,32,22,0,0,0.045454545454545456
205,1,5,32,22,0,0,0.0
206,1,5,32,22,0,0,0.0
207,1,5,31,23,0,0,0.0
208,1,5,31,23,0,0,0.0
209,1,5,31,23,0,0,0.0
210,1,5,31,23,0,0,0.0
211,1,5,31,23,0,0,0.0
212,1,4,32,23,0,0,0.0
213,1,3,32,24,0,0,0.043478260869565216
214,1,2,33,24,0,0,0.041666666666666664
215,1,2,33,24,0,0,0.041666666666666664
216,1,2,33,24,0,0,0.0
217,1,2,33,24,0,0,0.0
218,1,2,32,25,0,0,0.0
219,1,1,33,25,0,0,0.0
220,1,1,33,25,0,0,0.04
221,1,1,33,25,0,0,0.0
222,1,1,32,26,0,0,0.0
223,1,1,31,27,0,0,0.0
224,1,1,31,27,0,0,0.0
225,1,1,31,27,0,0,0.0
226,1,1,31,27,0,0,0.0
227,1,1,31,27,0,0,0.0
228,1,1,31,27,0,0,0.0
229,1,1,31,27,0,0,0.0
230,1,1,31,27,0,0,0.0
231,1,1,31,27,0,0,0.0
232,1,1,31,27,0,0,0.0
233,1,1,31,27,0,0,0.0
234,1,1,30,28,0,0,0.0
235,1,1,29,29,0,0,0.0
236,1,1,29,29,0,0,0.0
237,1,1,29,29,0,0,0.0
238,1,0,30,29,0,0,0.0
239,1,0,30,29,0,0,0.034482758620689655
240,1,0,29,30,0,0,0.0
241,1,0,29,30,0,0,0.0
242,1,0,29,30,0,0,0.0
243,1,0,29,30,0,0,0.0
244,1,0,29,30,0,0,0.0
245,1,0,29,30,0,0,0.0
246,1,0,29,30,0,0,0.0
247,1,0,29,30,0,0,0.0
248,1,0,28,31,0,0,0.0
249,1,0,27,32,0,0,0.0
250,1,0,27,32,0,0,0.0
251,1,0,27,32,0,0,0.0
252,1,0,27,32,0,0,0.0
253,1,0,27,32,0,0,0.0
254,1,0,27,32,0,0,0.0
255,1,0,27,32,0,0,0.0
256,1,0,27,32,0,0,0.0
257,1,0,27,32,0,0,0.0
258,1,0,27,32,0,0,0.0
259,1,0,27,31,1,0,0.0
260,1,0,25,33,1,0,0.0
261,1,0,25,33,1,0,0.0
262,1,0,25,33,1,0,0.0
263,1,0,25,33,1,0,0.0
264,1,0,24,34,1,0,0.0
265,1,0,23,35,1,0,0.0
266,1,0,23,35,1,0,0.0
267,1,0,23,35,1,0,0.0
268,1,0,23,35,1,0,0.0
269,1,0,23,35,1,0,0.0
270,1,0,23,35,1,0,0.0
271,1,0,22,36,1,0,0.0
272,1,0,22,36,1,0,0.0
273,1,0,22,36,1,0,0.0
274,1,0,22,36,1,0,0.0
275,1,0,22,36,1,0,0.0
276,1,0,21,37,1,0,0.0
277,1,0,21,37,1,0,0.0
278,1,0,21,37,1,0,0.0
279,1,0,21,37,1,0,0.0
280,1,0,20,38,1,0,0.0
281,1,0,20,38,1,0,0.0
282,1,0,20,38,1,0,0.0
283,1,0,20,38,1,0,0.0
284,1,0,19,39,1,0,0.0
285,1,0,19,39,1,0,0.0
286,1,0,18,40,1,0,0.0
287,1,0,18,40,1,0,0.0
288,1,0,18,40,1,0,0.0
289,1,0,18,40,1,0,0.0
290,1,0,18,40,1,0,0.0
291,1,0,18,39,2,0,0.0
292,1,0,18,39,2,0,0.0
293,1,0,18,39,2,0,0.0
294,1,0,18,39,2,0,0.0
295,1,0,17,40,2,0,0.0
296,1,0,17,40,2,0,0.0
297,1,0,17,40,2,0,0.0
298,1,0,17,40,2,0,0.0
299,1,0,17,40,2,0,0.0
300,1,0,17,40,2,0,0.0
301,1,0,17,40,2,0,0.0
302,1,0,17,40,2,0,0.0
303,1,0,17,40,2,0,0.0
304,1,0,16,41,2,0,0.0
305,1,0,16,40,3,0,0.0
306,1,0,16,40,3,0,0.0
307,1,0,16,39,3,1,0.0
308,1,0,16,39,3,1,0.0
309,1,0,16,39,3,1,0.0
310,1,0,16,38,4,1,0.0
311,1,0,16,38,4,1,0.0
312,1,0,15,39,4,1,0.0
313,1,0,15,39,4,1,0.0
314,1,0,15,39,4,1,0.0
315,1,0,15,39,4,1,0.0
316,1,0,14,40,4,1,0.0
317,1,0,14,40,4,1,0.0
318,1,0,14,40,4,1,0.0
319,1,0,14,40,4,1,0.0
320,1,0,14,40,4,1,0.0
321,1,0,14,40,4,1,0.0
322,1,0,14,40,4,1,0.0
323,1,0,13,41,4,1,0.0
324,1,0,13,41,4,1,0.0
325,1,0,13,41,4,1,0.0
326,1,0,12,42,4,1,0.0
327,1,0,12,42,4,1,0.0
328,1,0,11,43,4,1,0.0
329,1,0,11,43,4,1,0.0
330,1,0,11,43,4,1,0.0
331,1,0,11,43,4,1,0.0
332,1,0,11,43,4,1,0.0
333,1,0,11,43,4,1,0.0
334,1,0,11,43,4,1,0.0
335,1,0,10,44,4,1,0.0
336,1,0,10,44,4,1,0.0
337,1,0,10,44,4,1,0.0
338,1,0,9,45,4,1,0.0
339,1,0,9,45,4,1,0.0
340,1,0,8,46,4,1,0.0
341,1,0,8,45,5,1,0.0
342,1,0,8,45,5,1,0.0
343,1,0,8,45,5,1,0.0
344,1,0,7,46,5,1,0.0
345,1,0,7,46,5,1,0.0
346,1,0,7,46,5,1,0.0
347,1,0,7,45,6,1,0.0
348,1,0,6,46,6,1,0.0
349,1,0,5,47,6,1,0.0
350,1,0,5,47,6,1,0.0
351,1,0,5,47,6,1,0.0
352,1,0,5,47,6,1,0.0
353,1,0,5,47,6,1,0.0
354,1,0,4,48,6,1,0.0
355,1,0,4,48,6,1,0.0
356,1,0,4,48,6,1,0.0
357,1,0,4,48,6,1,0.0
358,1,0,4,48,6,1,0.0
359,1,0,4,48,6,1,0.0
360,1,0,4,48,6,1,0.0
361,1,0,4,48,6,1,0.0
362,1,0,3,49,6,1,0.0
363,1,0,3,48,7,1,0.0
364,1,0,3,48,7,1,0.0
365,1,0,3,48,7,1,0.0
366,1,0,3,48,7,1,0.0
367,1,0,2,49,7,1,0.0
368,1,0,2,49,7,1,0.0
369,1,0,2,49,7,1,0.0
370,1,0,2,49,7,1,0.0
371,1,0,2,49,7,1,0.0
372,1,0,2,49,7,1,0.0
373,1,0,2,49,7,1,0.0
374,1,0,2,49,7,1,0.0
375,1,0,2,48,7,2,0.0
376,1,0,2,48,7,2,0.0
377,1,0,2,48,7,2,0.0
378,1,0,2,48,7,2,0.0
379,1,0,2,48,7,2,0.0
380,1,0,2,48,7,2,0.0
381,1,0,2,48,7,2,0.0
382,1,0,2,48,7,2,0.0
383,1,0,2,48,7,2,0.0
384,1,0,2,48,7,2,0.0
385,1,0,2,48,7,2,0.0
386,1,0,2,48,7,2,0.0
387,1,0,2,48,7,2,0.0
388,1,0,2,48,7,2,0.0
389,1,0,2,48,7,2,0.0
390,1,0,2,48,7,2,0.0
391,1,0,2,48,7,2,0.0
392,1,0,2,48,7,2,0.0
393,1,0,2,48,7,2,0.0
394,1,0,2,48,7,2,0.0
395,1,0,2,48,7,2,0.0
396,1,0,2,47,8,2,0.0
397,1,0,2,47,8,2,0.0
398,1,0,2,47,8,2,0.0
399,1,0,2,47,8,2,0.0
400,1,0,2,47,8,2,0.0
401,1,0,2,47,8,2,0.0
402,1,0,2,47,8,2,0.0
403,1,0,2,47,8,2,0.0
404,1,0,2,47,8,2,0.0
405,1,0,2,47,8,2,0.0
406,1,0,2,47,8,2,0.0
407,1,0,2,47,8,2,0.0
408,1,0,2,47,8,2,0.0
409,1,0,2,47,8,2,0.0
410,1,0,2,47,8,2,0.0
411,1,0,2,47,8,2,0.0
412,1,0,2,47,8,2,0.0
413,1,0,2,47,8,2,0.0
414,1,0,2,47,8,2,0.0
415,1,0,2,47,8,2,0.0
416,1,0,2,47,8,2,0.0
417,1,0,2,47,8,2,0.0
418,1,0,2,47,8,2,0.0
419,1,0,2,47,8,2,0.0
420,1,0,2,47,8,2,0.0
421,1,0,2,47,8,2,0.0
422,1,0,2,46,9,2,0.0
423,1,0,2,46,9,2,0.0
424,1,0,2,46,9,2,0.0
425,1,0,1,47,9,2,0.0
426,1,0,1,47,9,2,0.0
427,1,0,1,47,9,2,0.0
428,1,0,1,47,9,2,0.0
429,1,0,1,47,9,2,0.0
430,1,0,1,47,9,2,0.0
431,1,0,1,47,9,2,0.0
432,1,0,1,47,9,2,0.0
433,1,0,1,47,9,2,0.0
434,1,0,1,46,10,2,0.0
435,1,0,1,45,11,2,0.0
436,1,0,1,45,11,2,0.0
437,1,0,1,45,11,2,0.0
438,1,0,1,45,11,2,0.0
439,1,0,1,45,11,2,0.0
440,1,0,1,45,11,2,0.0
441,1,0,1,45,11,2,0.0
442,1,0,1,45,11,2,0.0
443,1,0,1,45,11,2,0.0
444,1,0,1,45,11,2,0.0
445,1,0,1,45,11,2,0.0
446,1,0,1,45,11,2,0.0
447,1,0,1,45,11,2,0.0
448,1,0,1,45,11,2,0.0
449,1,0,0,46,11,2,0.0
450,1,0,0,46,11,2,0.0
451,1,0,0,46,11,2,0.0
452,1,0,0,46,11,2,0.0
453,1,0,0,46,11,2,0.0
454,1,0,0,46,11,2,0.0
455,1,0,0,45,11,3,0.0
456,1,0,0,45,11,3,0.0
457,1,0,0,44,12,3,0.0
458,1,0,0,43,13,3,0.0
459,1,0,0,43,13,3,0.0
460,1,0,0,43,13,3,0.0
461,1,0,0,43,13,3,0.0
462,1,0,0,43,13,3,0.0
463,1,0,0,43,13,3,0.0
464,1,0,0,42,14,3,0.0
465,1,0,0,42,14,3,0.0
466,1,0,0,42,14,3,0.0
467,1,0,0,41,15,3,0.0
468,1,0,0,41,15,3,0.0
469,1,0,0,41,15,3,0.0
470,1,0,0,41,15,3,0.0
471,1,0,0,41,15,3,0.0
472,1,0,0,41,15,3,0.0
473,1,0,0,40,16,3,0.0
474,1,0,0,40,16,3,0.0
475,1,0,0,40,16,3,0.0
476,1,0,0,40,16,3,0.0
477,1,0,0,40,16,3,0.0
478,1,0,0,40,16,3,0.0
479,1,0,0,40,16,3,0.0
480,1,0,0,39,17,3,0.0
481,1,0,0,39,17,3,0.0
482,1,0,0,39,17,3,0.0
483,1,0,0,39,17,3,0.0
484,1,0,0,39,17,3,0.0
485,1,0,0,39,17,3,0.0
486,1,0,0,39,17,3,0.0
487,1,0,0,39,17,3,0.0
488,1,0,0,39,17,3,0.0
489,1,0,0,39,17,3,0.0
490,1,0,0,39,17,3,0.0
491,1,0,0,39,17,3,0.0
492,1,0,0,39,17,3,0.0
493,1,0,0,38,18,3,0.0
494,1,0,0,38,18,3,0.0
495,1,0,0,38,18,3,0.0
496,1,0,0,38,18,3,0.0
497,1,0,0,38,18,3,0.0
498,1,0,0,38,18,3,0.0
499,1,0,0,38,18,3,0.0
500,1,0,0,38,18,3,0.0
501,1,0,0,38,18,3,0.0
502,1,0,0,37,19,3,0.0
503,1,0,0,37,19,3,0.0
504,1,0,0,36,20,3,0.0
505,1,0,0,36,20,3,0.0
506,1,0,0,36,20,3,0.0
507,1,0,0,36,20,3,0.0
508,1,0,0,36,20,3,0.0
509,1,0,0,36,20,3,0.0
510,1,0,0,36,20,3,0.0
511,1,0,0,36,20,3,0.0
512,1,0,0,34,22,3,0.0
513,1,0,0,34,22,3,0.0
514,1,0,0,34,22,3,0.0
515,1,0,0,33,23,3,0.0
516,1,0,0,32,24,3,0.0
517,1,0,0,32,24,3,0.0
518,1,0,0,32,24,3,0.0
519,1,0,0,32,24,3,0.0
520,1,0,0,32,24,3,0.0
521,1,0,0,32,24,3,0.0
522,1,0,0,32,24,3,0.0
523,1,0,0,32,24,3,0.0
524,1,0,0,32,24,3,0.0
525,1,0,0,32,24,3,0.0
526,1,0,0,32,24,3,0.0
527,1,0,0,30,25,4,0.0
528,1,0,0,30,25,4,0.0
529,1,0,0,29,26,4,0.0
530,1,0,0,29,26,4,0.0
531,1,0,0,29,26,4,0.0
532,1,0,0,29,26,4,0.0
533,1,0,0,29,26,4,0.0
534,1,0,0,29,26,4,0.0
535,1,0,0,29,26,4,0.0
536,1,0,0,29,26,4,0.0
537,1,0,0,29,26,4,0.0
538,1,0,0,29,26,4,0.0
539,1,0,0,29,26,4,0.0
540,1,0,0,29,26,4,0.0
541,1,0,0,29,26,4,0.0
542,1,0,0,28,27,4,0.0
543,1,0,0,27,28,4,0.0
544,1,0,0,27,28,4,0.0
545,1,0,0,26,28,5,0.0
546,1,0,0,25,29,5,0.0
547,1,0,0,25,29,5,0.0
548,1,0,0,25,29,5,0.0
549,1,0,0,25,29,5,0.0
550,1,0,0,25,29,5,0.0
551,1,0,0,25,29,5,0.0
552,1,0,0,25,29,5,0.0
553,1,0,0,25,29,5,0.0
554,1,0,0,25,29,5,0.0
555,1,0,0,25,29,5,0.0
556,1,0,0,25,29,5,0.0
557,1,0,0,25,29,5,0.0
558,1,0,0,25,29,5,0.0
559,1,0,0,24,29,6,0.0
560,1,0,0,23,29,7,0.0
561,1,0,0,22,30,7,0.0
562,1,0,0,22,30,7,0.0
563,1,0,0,22,30,7,0.0
564,1,0,0,22,30,7,0.0
565,1,0,0,22,30,7,0.0
566,1,0,0,21,30,8,0.0
567,1,0,0,21,30,8,0.0
568,1,0,0,21,30,8,0.0
569,1,0,0,21,30,8,0.0
570,1,0,0,21,30,8,0.0
571,1,0,0,21,30,8,0.0
572,1,0,0,20,31,8,0.0
573,1,0,0,19,32,8,0.0
574,1,0,0,19,32,8,0.0
575,1,0,0,19,32,8,0.0
576,1,0,0,19,32,8,0.0
577,1,0,0,19,32,8,0.0
578,1,0,0,19,32,8,0.0
579,1,0,0,19,32,8,0.0
580,1,0,0,18,33,8,0.0
581,1,0,0,18,33,8,0.0
582,1,0,0,18,33,8,0.0
583,1,0,0,18,33,8,0.0
584,1,0,0,18,33,8,0.0
585,1,0,0,18,33,8,0.0
586,1,0,0,17,34,8,0.0
587,1,0,0,17,34,8,0.0
588,1,0,0,17,34,8,0.0
589,1,0,0,17,34,8,0.0
590,1,0,0,17,34,8,0.0
591,1,0,0,17,34,8,0.0
592,1,0,0,17,34,8,0.0
593,1,0,0,17,34,8,0.0
594,1,0,0,17,34,8,0.0
595,1,0,0,17,34,8,0.0
596,1,0,0,16,35,8,0.0
597,1,0,0,15,36,8,0.0
598,1,0,0,15,36,8,0.0
599,1,0,0,15,36,8,0.0
600,1,0,0,15,36,8,0.0
601,1,0,0,15,36,8,0.0
602,1,0,0,14,37,8,0.0
603,1,0,0,14,37,8,0.0
604,1,0,0,14,37,8,0.0
605,1,0,0,14,37,8,0.0
606,1,0,0,14,37,8,0.0
607,1,0,0,14,37,8,0.0
608,1,0,0,14,37,8,0.0
609,1,0,0,14,37,8,0.0
610,1,0,0,13,38,8,0.0
611,1,0,0,13,38,8,0.0
612,1,0,0,13,38,8,0.0
613,1,0,0,13,38,8,0.0
614,1,0,0,13,38,8,0.0
615,1,0,0,13,38,8,0.0
616,1,0,0,13,38,8,0.0
617,1,0,0,13,38,8,0.0
618,1,0,0,13,38,8,0.0
619,1,0,0,13,38,8,0.0
620,1,0,0,13,38,8,0.0
621,1,0,0,13,38,8,0.0
622,1,0,0,13,38,8,0.0
623,1,0,0,13,38,8,0.0
624,1,0,0,12,39,8,0.0
625,1,0,0,12,39,8,0.0
626,1,0,0,12,39,8,0.0
627,1,0,0,11,40,8,0.0
628,1,0,0,11,40,8,0.0
629,1,0,0,11,40,8,0.0
630,1,0,0,11,40,8,0.0
631,1,0,0,10,40,9,0.0
632,1,0,0,10,40,9,0.0
633,1,0,0,9,41,9,0.0
634,1,0,0,8,42,9,0.0
635,1,0,0,8,42,9,0.0
636,1,0,0,8,42,9,0.0
637,1,0,0,8,42,9,0.0
638,1,0,0,8,42,9,0.0
639,1,0,0,7,43,9,0.0
640,1,0,0,7,43,9,0.0
641,1,0,0,7,43,9,0.0
642,1,0,0,7,43,9,0.0
643,1,0,0,7,43,9,0.0
644,1,0,0,7,43,9,0.0
645,1,0,0,6,43,10,0.0
646,1,0,0,6,43,10,0.0
647,1,0,0,6,43,10,0.0
648,1,0,0,6,43,10,0.0
649,1,0,0,6,43,10,0.0
650,1,0,0,6,43,10,0.0
651,1,0,0,6,43,10,0.0
652,1,0,0,6,43,10,0.0
653,1,0,0,6,43,10,0.0
654,1,0,0,6,43,10,0.0
655,1,0,0,6,43,10,0.0
656,1,0,0,6,43,10,0.0
657,1,0,0,6,43,10,0.0
658,1,0,0,6,43,10,0.0
659,1,0,0,5,44,10,0.0
660,1,0,0,5,44,10,0.0
661,1,0,0,5,44,10,0.0
662,1,0,0,5,44,10,0.0
663,1,0,0,5,44,10,0.0
664,1,0,0,5,44,10,0.0
665,1,0,0,5,44,10,0.0
666,1,0,0,4,45,10,0.0
667,1,0,0,4,45,10,0.0
668,1,0,0,4,45,10,0.0
669,1,0,0,4,45,10,0.0
670,1,0,0,4,45,10,0.0
671,1,0,0,4,45,10,0.0
672,1,0,0,4,45,10,0.0
673,1,0,0,4,45,10,0.0
674,1,0,0,4,45,10,0.0
675,1,0,0,4,45,10,0.0
676,1,0,0,4,45,10,0.0
677,1,0,0,4,45,10,0.0
678,1,0,0,4,45,10,0.0
679,1,0,0,4,45,10,0.0
680,1,0,0,4,45,10,0.0
681,1,0,0,4,45,10,0.0
682,1,0,0,4,45,10,0.0
683,1,0,0,4,45,10,0.0
684,1,0,0,4,45,10,0.0
685,1,0,0,4,45,10,0.0
686,1,0,0,3,45,11,0.0
687,1,0,0,2,46,11,0.0
688,1,0,0,2,46,11,0.0
689,1,0,0,2,46,11,0.0
690,1,0,0,2,46,11,0.0
691,1,0,0,2,46,11,0.0
692,1,0,0,2,46,11,0.0
693,1,0,0,2,46,11,0.0
694,1,0,0,2,46,11,0.0
695,1,0,0,2,46,11,0.0
696,1,0,0,2,46,11,0.0
697,1,0,0,2,46,11,0.0
698,1,0,0,2,46,11,0.0
699,1,0,0,2,46,11,0.0
700,1,0,0,2,46,11,0.0
701,1,0,0,2,46,11,0.0
702,1,0,0,2,46,11,0.0
703,1,0,0,2,46,11,0.0
704,1,0,0,2,46,11,0.0
705,1,0,0,2,46,11,0.0
706,1,0,0,2,46,11,0.0
707,1,0,0,2,46,11,0.0
708,1,0,0,2,46,11,0.0
709,1,0,0,2,46,11,0.0
710,1,0,0,2,46,11,0.0
711,1,0,0,2,46,11,0.0
712,1,0,0,2,46,11,0.0
713,1,0,0,2,46,11,0.0
714,1,0,0,2,46,11,0.0
715,1,0,0,2,46,11,0.0
716,1,0,0,2,46,11,0.0
717,1,0,0,2,46,11,0.0
718,1,0,0,2,46,11,0.0
719,1,0,0,2,46,11,0.0
720,1,0,0,2,46,11,0.0
721,1,0,0,2,46,11,0.0
722,1,0,0,2,46,11,0.0
723,1,0,0,2,46,11,0.0
724,1,0,0,2,46,11,0.0
725,1,0,0,2,46,11,0.0
726,1,0,0,2,46,11,0.0
727,1,0,0,2,46,11,0.0
728,1,0,0,2,46,11,0.0
729,1,0,0,2,46,11,0.0
730,1,0,0,2,46,11,0.0
731,1,0,0,2,46,11,0.0
732,1,0,0,2,46,11,0.0
733,1,0,0,2,46,11,0.0
734,1,0,0,2,46,11,0.0
735,1,0,0,2,46,11,0.0
736,1,0,0,2,46,11,0.0
737,1,0,0,2,46,11,0.0
738,1,0,0,2,46,11,0.0
739,1,0,0,2,46,11,0.0
740,1,0,0,2,46,11,0.0
741,1,0,0,2,46,11,0.0
742,1,0,0,2,46,11,0.0
743,1,0,0,2,46,11,0.0
744,1,0,0,2,46,11,0.0
745,1,0,0,2,46,11,0.0
746,1,0,0,2,46,11,0.0
747,1,0,0,2,46,11,0.0
748,1,0,0,2,46,11,0.0
749,1,0,0,2,46,11,0.0
750,1,0,0,2,46,11,0.0
751,1,0,0,2,46,11,0.0
752,1,0,0,2,46,11,0.0
753,1,0,0,2,46,11,0.0
754,1,0,0,2,46,11,0.0
755,1,0,0,2,46,11,0.0
756,1,0,0,2,46,11,0.0
757,1,0,0,1,47,11,0.0
758,1,0,0,1,47,11,0.0
759,1,0,0,1,47,11,0.0
760,1,0,0,1,47,11,0.0
761,1,0,0,1,47,11,0.0
762,1,0,0,1,47,11,0.0
763,1,0,0,1,47,11,0.0
764,1,0,0,1,47,11,0.0
765,1,0,0,1,47,11,0.0
766,1,0,0,1,47,11,0.0
767,1,0,0,1,47,11,0.0
768,1,0,0,1,47,11,0.0
769,1,0,0,1,47,11,0.0
770,1,0,0,1,47,11,0.0
771,1,0,0,1,47,11,0.0
772,1,0,0,1,47,11,0.0
773,1,0,0,1,47,11,0.0
774,1,0,0,1,47,11,0.0
775,1,0,0,1,47,11,0.0
776,1,0,0,1,47,11,0.0
777,1,0,0,1,47,11,0.0
778,1,0,0,1,47,11,0.0
779,1,0,0,1,47,11,0.0
780,1,0,0,1,47,11,0.0
781,1,0,0,1,47,11,0.0
782,1,0,0,1,47,11,0.0
783,1,0,0,1,47,11,0.0
784,1,0,0,1,47,11,0.0
785,1,0,0,1,47,11,0.0
786,1,0,0,1,47,11,0.0
787,1,0,0,1,47,11,0.0
788,1,0,0,1,47,11,0.0
789,1,0,0,1,47,11,0.0
790,1,0,0,1,47,11,0.0
791,1,0,0,1,47,11,0.0
792,1,0,0,1,47,11,0.0
793,1,0,0,1,47,11,0.0
794,1,0,0,1,47,11,0.0
795,1,0,0,1,47,11,0.0
796,1,0,0,1,47,11,0.0
797,1,0,0,1,47,11,0.0
798,1,0,0,1,47,11,0.0
799,1,0,0,1,47,11,0.0
800,1,0,0,1,47,11,0.0
801,1,0,0,1,47,11,0.0
802,1,0,0,1,47,11,0.0
803,1,0,0,1,47,11,0.0
804,1,0,0,1,47,11,0.0
805,1,0,0,1,47,11,0.0
806,1,0,0,1,47,11,0.0
807,1,0,0,1,47,11,0.0
808,1,0,0,1,47,11,0.0
809,1,0,0,1,47,11,0.0
810,1,0,0,1,47,11,0.0
811,1,0,0,1,47,11,0.0
812,1,0,0,1,47,11,0.0
813,1,0,0,1,47,11,0.0
814,1,0,0,1,47,11,0.0
815,1,0,0,1,47,11,0.0
816,1,0,0,1,47,11,0.0
817,1,0,0,1,47,11,0.0
818,1,0,0,1,47,11,0.0
819,1,0,0,1,47,11,0.0
820,1,0,0,1,47,11,0.0
821,1,0,0,1,47,11,0.0
822,1,0,0,1,47,11,0.0
823,1,0,0,1,47,11,0.0
824,1,0,0,1,47,11,0.0
825,1,0,0,1,47,11,0.0
826,1,0,0,1,47,11,0.0
827,1,0,0,1,47,11,0.0
828,1,0,0,1,47,11,0.0
829,1,0,0,1,47,11,0.0
830,1,0,0,1,47,11,0.0
831,1,0,0,1,47,11,0.0
832,1,0,0,1,47,11,0.0
833,1,0,0,1,47,11,0.0
834,1,0,0,1,47,11,0.0
835,1,0,0,1,47,11,0.0
836,1,0,0,1,47,11,0.0
837,1,0,0,1,47,11,0.0
838,1,0,0,1,47,11,0.0
839,1,0,0,1,47,11,0.0
840,1,0,0,1,47,11,0.0
841,1,0,0,1,47,11,0.0
842,1,0,0,1,47,11,0.0
843,1,0,0,0,48,11,0.0
844,1,0,0,0,48,11,0
845,1,0,0,0,48,11,0
846,1,0,0,0,48,11,0
847,1,0,0,0,48,11,0
848,1,0,0,0,48,11,0
849,1,0,0,0,48,11,0
850,1,0,0,0,48,11,0
851,1,0,0,0,48,11,0
852,1,0,0,0,48,11,0
