t,maternally_immune,susceptible,exposed,infectious,recovered,dead,r0
0,2,48,7,2,1,0,0
1,2,48,7,2,1,0,0
2,2,48,7,2,1,0,0.0
3,2,48,7,2,1,0,0.0
4,2,48,7,2,1,0,0.0
5,2,48,7,2,1,0,0.0
6,2,48,7,2,1,0,0.0
7,2,48,7,2,1,0,0.0
8,2,48,7,2,1,0,0.0
9,2,48,7,2,1,0,0.0
10,2,48,7,2,1,0,0.0
11,2,48,7,2,1,0,0.0
12,2,48,7,2,1,0,0.0
13,2,48,7,2,1,0,0.0
14,2,48,7,2,1,0,0.0
15,2,48,7,2,1,0,0.0
16,2,48,7,2,1,0,0.0
17,2,48,7,2,1,0,0.0
18,2,48,7,2,1,0,0.0
19,2,48,7,2,1,0,0.0
20,2,48,7,2,1,0,0.0
21,2,48,7,2,1,0,0.0
22,2,48,7,2,1,0,0.0
23,2,48,7,2,1,0,0.0
24,2,48,7,2,1,0,0.0
25,2,48,7,2,1,0,0.0
26,2,48,7,2,1,0,0.0
27,2,48,7,2,1,0,0.0
28,2,48,7,2,1,0,0.0
29,2,48,7,2,1,0,0.0
30,2,48,7,2,1,0,0.0
31,2,47,8,2,1,0,0.0
32,2,47,8,2,1,0,0.5
33,2,47,8,2,1,0,0.0
34,2,47,8,2,1,0,0.0
35,2,47,8,2,1,0,0.0
36,2,47,8,2,1,0,0.0
37,2,47,8,2,1,0,0.0
38,2,47,8,2,1,0,0.0
39,2,47,8,2,1,0,0.0
40,2,47,8,2,1,0,0.0
41,2,47,8,2,1,0,0.0
42,2,47,8,2,1,0,0.0
43,2,47,8,2,1,0,0.0
44,2,47,8,2,1,0,0.0
45,2,47,8,2,1,0,0.0
46,2,47,8,2,1,0,0.0
47,2,47,8,2,1,0,0.0
48,2,47,8,2,1,0,0.0
49,2,47,8,2,1,0,0.0
50,2,47,8,2,1,0,0.0
51,2,47,8,2,1,0,0.0
52,2,47,8,2,1,0,0.0
53,2,47,8,2,1,0,0.0
54,2,47,8,2,1,0,0.0
55,2,47,8,2,1,0,0.0
56,2,47,8,2,1,0,0.0
57,2,47,8,1,2,0,0.0
58,2,47,8,1,2,0,0.0
59,2,47,7,2,2,0,0.0
60,2,47,7,2,2,0,0.0
61,2,47,7,2,2,0,0.0
62,2,47,7,2,2,0,0.0
63,2,47,7,2,2,0,0.0
64,2,47,7,2,2,0,0.0
65,2,47,7,2,2,0,0.0
66,2,47,7,2,2,0,0.0
67,2,47,7,2,2,0,0.0
68,2,47,6,3,2,0,0.0
69,2,46,7,3,2,0,0.0
70,2,46,7,3,2,0,0.3333333333333333
71,2,46,7,3,2,0,0.0
72,2,46,7,3,2,0,0.0
73,2,46,6,4,2,0,0.0
74,2,46,6,4,2,0,0.0
75,2,46,6,4,2,0,0.0
76,2,46,5,5,2,0,0.0
77,2,46,5,5,2,0,0.0
78,2,46,5,5,2,0,0.0
79,2,45,6,5,2,0,0.0
80,2,45,6,5,2,0,0.2
81,2,45,5,6,2,0,0.0
82,2,45,4,7,2,0,0.0
83,2,44,5,7,2,0,0.0
84,2,44,5,7,2,0,0.14285714285714285
85,2,44,5,7,2,0,0.0
86,2,42,7,7,2,0,0.0
87,2,42,7,7,2,0,0.2857142857142857
88,2,41,8,7,2,0,0.0
89,2,41,8,7,2,0,0.14285714285714285
90,2,41,8,7,2,0,0.0
91,2,41,8,7,2,0,0.0
92,2,41,8,7,2,0,0.0
93,2,41,8,7,2,0,0.0
94,2,41,8,7,2,0,0.0
95,2,41,8,7,2,0,0.0
96,2,41,8,7,2,0,0.0
97,2,41,8,7,2,0,0.0
98,2,40,9,7,2,0,0.0
99,2,40,9,7,2,0,0.14285714285714285
100,2,40,9,7,2,0,0.0
101,2,40,9,7,2,0,0.0
102,2,40,9,7,2,0,0.0
103,2,40,9,6,3,0,0.0
104,2,40,9,6,3,0,0.0
105,2,40,9,6,3,0,0.0
106,2,40,9,6,3,0,0.0
107,2,40,9,6,3,0,0.0
108,2,40,9,6,3,0,0.0
109,2,40,8,7,3,0,0.0
110,2,40,8,7,3,0,0.0
111,2,40,8,7,3,0,0.0
112,2,40,8,7,3,0,0.0
113,2,40,8,7,3,0,0.0
114,2,40,8,7,3,0,0.0
115,2,40,7,8,3,0,0.0
116,2,40,7,8,3,0,0.0
117,2,39,8,8,3,0,0.0
118,2,38,9,8,3,0,0.125
119,2,38,9,8,3,0,0.125
120,2,38,9,8,3,0,0.0
121,2,38,9,8,3,0,0.0
122,2,37,10,8,3,0,0.0
123,2,37,10,8,3,0,0.125
124,2,37,10,8,3,0,0.0
125,2,37,9,8,4,0,0.0
126,2,37,9,8,4,0,0.0
127,2,37,9,8,4,0,0.0
128,2,37,8,9,4,0,0.0
129,2,37,8,9,4,0,0.0
130,2,37,8,9,4,0,0.0
131,2,37,8,9,4,0,0.0
132,2,37,8,9,4,0,0.0
133,2,37,8,9,4,0,0.0
134,2,36,9,9,4,0,0.0
135,2,36,9,9,4,0,0.1111111111111111
136,2,36,9,9,4,0,0.0
137,2,36,9,9,4,0,0.0
138,2,36,9,9,4,0,0.0
139,2,36,9,9,4,0,0.0
140,2,36,9,9,4,0,0.0
141,2,36,9,9,4,0,0.0
142,2,35,10,9,4,0,0.0
143,2,35,10,9,4,0,0.1111111111111111
144,2,35,10,9,4,0,0.0
145,2,35,10,9,4,0,0.0
146,2,35,10,9,4,0,0.0
147,2,35,9,10,4,0,0.0
148,2,35,9,10,4,0,0.0
149,2,35,9,10,4,0,0.0
150,2,35,8,11,4,0,0.0
151,2,35,8,10,5,0,0.0
152,2,35,8,10,5,0,0.0
153,2,34,9,10,5,0,0.0
154,2,34,9,10,5,0,0.1
155,2,34,9,10,5,0,0.0
156,2,34,9,10,5,0,0.0
157,2,34,9,10,5,0,0.0
158,2,34,9,9,6,0,0.0
159,2,34,9,9,6,0,0.0
160,2,33,10,9,6,0,0.0
161,2,32,11,9,6,0,0.1111111111111111
162,2,32,11,9,6,0,0.1111111111111111
163,2,32,11,9,6,0,0.0
164,2,32,11,9,6,0,0.0
165,2,31,12,9,6,0,0.0
166,2,31,12,8,7,0,0.1111111111111111
167,2,31,12,8,7,0,0.0
168,2,31,11,8,8,0,0.0
169,2,30,12,8,8,0,0.0
170,2,29,13,8,8,0,0.125
171,2,29,13,8,8,0,0.125
172,2,29,13,8,8,0,0.0
173,2,28,14,8,8,0,0.0
174,2,28,13,9,8,0,0.125
175,2,28,13,9,8,0,0.0
176,2,28,13,9,8,0,0.0
177,2,28,13,8,9,0,0.0
178,2,28,13,8,9,0,0.0
179,2,28,12,8,10,0,0.0
180,2,28,12,8,10,0,0.0
181,2,28,12,8,10,0,0.0
182,2,28,12,8,10,0,0.0
183,2,28,12,8,10,0,0.0
184,2,28,12,8,10,0,0.0
185,2,28,12,8,10,0,0.0
186,2,27,12,9,10,0,0.0
187,2,27,12,9,10,0,0.1111111111111111
188,2,27,11,10,10,0,0.0
189,2,27,11,10,10,0,0.0
190,2,27,11,9,10,1,0.0
191,2,27,11,9,10,1,0.0
192,2,27,11,9,10,1,0.0
193,2,27,11,9,10,1,0.0
194,2,27,11,9,10,1,0.0
195,2,27,11,9,10,1,0.0
196,2,27,11,9,10,1,0.0
197,2,27,11,9,10,1,0.0
198,2,27,11,9,10,1,0.0
199,2,27,11,9,10,1,0.0
200,2,27,11,9,10,1,0.0
201,2,27,11,9,10,1,0.0
202,2,26,12,9,10,1,0.0
203,2,25,12,10,10,1,0.1111111111111111
204,2,25,12,10,10,1,0.1
205,2,25,12,10,10,1,0.0
206,2,25,12,10,10,1,0.0
207,2,25,12,10,10,1,0.0
208,2,25,12,10,10,1,0.0
209,2,24,13,10,10,1,0.0
210,2,24,13,10,10,1,0.1
211,2,24,13,10,10,1,0.0
212,2,24,13,10,10,1,0.0
213,2,24,13,10,10,1,0.0
214,2,24,13,10,10,1,0.0
215,2,24,12,11,10,1,0.0
216,2,24,12,11,10,1,0.0
217,2,24,12,11,10,1,0.0
218,2,24,12,11,10,1,0.0
219,2,24,12,10,11,1,0.0
220,2,24,12,10,11,1,0.0
221,2,24,12,10,11,1,0.0
222,2,24,12,10,11,1,0.0
223,2,24,12,10,11,1,0.0
224,2,24,12,10,11,1,0.0
225,2,24,12,10,11,1,0.0
226,2,24,12,10,11,1,0.0
227,2,24,12,10,11,1,0.0
228,2,23,12,11,11,1,0.0
229,2,23,12,11,11,1,0.09090909090909091
230,2,23,12,11,11,1,0.0
231,2,23,11,12,11,1,0.0
232,2,23,11,12,11,1,0.0
233,2,23,11,12,11,1,0.0
234,2,23,10,13,11,1,0.0
235,2,23,10,13,11,1,0.0
236,2,22,10,14,11,1,0.0
237,2,22,10,14,11,1,0.07142857142857142
238,2,20,11,15,11,1,0.0
239,2,20,11,15,11,1,0.13333333333333333
240,2,20,11,15,11,1,0.0
241,2,20,11,15,11,1,0.0
242,2,20,11,15,11,1,0.0
243,2,20,10,15,12,1,0.0
244,2,20,10,15,12,1,0.0
245,2,20,10,15,12,1,0.0
246,2,20,10,15,12,1,0.0
247,2,20,10,15,12,1,0.0
248,2,20,10,15,12,1,0.0
249,2,20,10,15,12,1,0.0
250,2,20,10,15,12,1,0.0
251,2,20,9,16,12,1,0.0
252,2,20,9,16,12,1,0.0
253,2,20,9,15,12,2,0.0
254,2,20,9,15,12,2,0.0
255,2,20,9,15,12,2,0.0
256,2,20,9,15,12,2,0.0
257,2,20,9,15,12,2,0.0
258,2,20,9,15,12,2,0.0
259,2,20,9,15,12,2,0.0
260,2,20,8,16,12,2,0.0
261,2,20,8,16,12,2,0.0
262,2,20,6,18,12,2,0.0
263,2,20,6,18,12,2,0.0
264,2,20,6,18,12,2,0.0
265,2,20,6,18,12,2,0.0
266,2,20,6,18,12,2,0.0
267,2,20,6,18,12,2,0.0
268,2,20,6,18,12,2,0.0
269,2,20,6,18,12,2,0.0
270,2,20,6,18,12,2,0.0
271,2,20,6,18,12,2,0.0
272,2,20,6,18,12,2,0.0
273,2,20,6,17,13,2,0.0
274,2,20,6,16,14,2,0.0
275,2,20,6,16,14,2,0.0
276,2,20,6,16,14,2,0.0
277,2,20,6,16,14,2,0.0
278,2,20,6,16,14,2,0.0
279,2,20,6,16,14,2,0.0
280,2,20,6,16,14,2,0.0
281,2,19,7,16,14,2,0.0
282,2,19,7,15,14,3,0.0625
283,2,19,7,15,14,3,0.0
284,2,19,6,16,14,3,0.0
285,2,19,5,17,14,3,0.0
286,2,19,5,16,15,3,0.0
287,2,19,5,15,16,3,0.0
288,2,19,5,15,16,3,0.0
289,2,18,6,15,16,3,0.0
290,2,18,6,15,16,3,0.06666666666666667
291,2,18,5,16,16,3,0.0
292,2,18,5,16,16,3,0.0
293,2,18,5,16,16,3,0.0
294,2,18,5,14,17,4,0.0
295,2,18,5,14,17,4,0.0
296,2,18,5,13,18,4,0.0
297,2,18,5,13,18,4,0.0
298,2,18,5,13,18,4,0.0
299,2,18,5,13,18,4,0.0
300,2,18,5,13,18,4,0.0
301,2,18,5,13,18,4,0.0
302,2,18,5,12,19,4,0.0
303,2,18,5,11,20,4,0.0
304,2,18,5,11,20,4,0.0
305,2,18,5,11,20,4,0.0
306,2,18,5,11,20,4,0.0
307,2,18,5,11,20,4,0.0
308,2,18,5,10,20,5,0.0
309,2,18,5,10,20,5,0.0
310,2,18,5,10,20,5,0.0
311,2,18,5,10,20,5,0.0
312,2,18,4,11,20,5,0.0
313,2,18,4,11,20,5,0.0
314,2,18,4,11,20,5,0.0
315,2,18,4,11,20,5,0.0
316,2,18,4,11,20,5,0.0
317,2,18,4,11,20,5,0.0
318,2,18,4,11,20,5,0.0
319,2,18,4,11,20,5,0.0
320,2,18,4,11,20,5,0.0
321,2,18,4,11,20,5,0.0
322,2,18,4,11,20,5,0.0
323,2,18,4,11,20,5,0.0
324,2,18,3,12,20,5,0.0
325,2,18,3,12,20,5,0.0
326,2,18,3,12,20,5,0.0
327,2,18,3,12,20,5,0.0
328,2,18,3,12,20,5,0.0
329,2,18,3,12,20,5,0.0
330,2,18,3,12,20,5,0.0
331,2,18,3,12,20,5,0.0
332,2,18,3,12,20,5,0.0
333,2,18,3,12,20,5,0.0
334,2,18,3,11,21,5,0.0
335,2,18,3,11,21,5,0.0
336,2,18,3,11,21,5,0.0
337,2,18,3,11,21,5,0.0
338,2,18,3,11,21,5,0.0
339,2,18,3,11,21,5,0.0
340,2,18,2,11,22,5,0.0
341,2,18,2,11,22,5,0.0
342,2,18,2,11,22,5,0.0
343,2,18,2,11,22,5,0.0
344,2,18,2,11,22,5,0.0
345,2,18,2,11,22,5,0.0
346,2,18,2,11,22,5,0.0
347,2,18,2,11,22,5,0.0
348,2,18,2,11,22,5,0.0
349,2,18,2,11,22,5,0.0
350,2,18,2,10,23,5,0.0
351,2,18,2,10,23,5,0.0
352,2,18,2,10,23,5,0.0
353,2,18,2,10,23,5,0.0
354,2,18,2,10,23,5,0.0
355,2,18,2,10,23,5,0.0
356,2,18,2,10,23,5,0.0
357,2,18,2,9,24,5,0.0
358,2,18,2,9,24,5,0.0
359,2,18,1,10,24,5,0.0
360,2,18,1,8,24,7,0.0
361,2,18,1,8,24,7,0.0
362,2,18,1,8,24,7,0.0
363,2,18,1,8,24,7,0.0
364,2,18,1,8,24,7,0.0
365,2,18,1,8,24,7,0.0
366,2,18,1,8,24,7,0.0
367,2,18,1,8,24,7,0.0
368,2,18,1,8,24,7,0.0
369,2,18,1,8,24,7,0.0
370,2,18,1,8,24,7,0.0
371,2,18,1,8,24,7,0.0
372,2,18,1,7,25,7,0.0
373,2,18,1,7,25,7,0.0
374,2,18,1,7,25,7,0.0
375,2,18,1,7,25,7,0.0
376,2,18,1,7,25,7,0.0
377,2,18,1,7,25,7,0.0
378,2,18,1,7,25,7,0.0
379,2,18,1,7,25,7,0.0
380,2,18,1,7,25,7,0.0
381,2,18,1,7,25,7,0.0
382,2,18,1,7,25,7,0.0
383,2,18,1,7,25,7,0.0
384,2,18,1,7,25,7,0.0
385,2,18,0,8,25,7,0.0
386,2,18,0,7,26,7,0.0
387,2,18,0,7,26,7,0.0
388,2,18,0,7,26,7,0.0
389,2,18,0,6,27,7,0.0
390,2,18,0,6,27,7,0.0
391,2,18,0,6,27,7,0.0
392,2,18,0,5,27,8,0.0
393,2,18,0,5,27,8,0.0
394,2,18,0,5,27,8,0.0
395,2,18,0,5,27,8,0.0
396,2,18,0,5,27,8,0.0
397,2,18,0,5,27,8,0.0
398,2,18,0,5,27,8,0.0
399,2,18,0,5,27,8,0.0
400,2,18,0,5,27,8,0.0
401,2,17,1,5,27,8,0.0
402,2,17,1,5,27,8,0.2
403,2,17,1,5,27,8,0.0
404,2,17,1,5,27,8,0.0
405,2,17,1,5,27,8,0.0
406,2,17,1,5,27,8,0.0
407,2,17,1,5,27,8,0.0
408,2,17,1,5,27,8,0.0
409,2,17,1,5,27,8,0.0
410,2,17,1,5,27,8,0.0
411,2,17,1,5,27,8,0.0
412,2,17,1,5,27,8,0.0
413,2,17,1,5,27,8,0.0
414,2,17,1,5,27,8,0.0
415,2,17,1,5,27,8,0.0
416,2,17,1,5,27,8,0.0
417,2,17,1,5,27,8,0.0
418,2,17,1,5,27,8,0.0
419,2,17,1,5,27,8,0.0
420,2,17,1,5,27,8,0.0
421,2,17,1,5,27,8,0.0
422,2,17,1,5,27,8,0.0
423,2,17,1,5,27,8,0.0
424,2,17,1,5,27,8,0.0
425,2,17,1,4,28,8,0.0
426,2,17,1,4,28,8,0.0
427,2,17,1,4,28,8,0.0
428,2,17,1,4,28,8,0.0
429,2,17,1,4,28,8,0.0
430,2,17,1,4,28,8,0.0
431,2,17,0,5,28,8,0.0
432,2,17,0,5,28,8,0.0
433,2,17,0,5,28,8,0.0
434,2,17,0,5,28,8,0.0
435,2,17,0,5,28,8,0.0
436,2,17,0,5,28,8,0.0
437,2,17,0,5,28,8,0.0
438,2,17,0,5,28,8,0.0
439,2,17,0,4,29,8,0.0
440,2,17,0,4,29,8,0.0
441,2,17,0,4,29,8,0.0
442,2,17,0,4,29,8,0.0
443,2,17,0,4,29,8,0.0
444,2,17,0,4,29,8,0.0
445,2,17,0,4,29,8,0.0
446,2,17,0,4,29,8,0.0
447,2,17,0,4,29,8,0.0
448,2,17,0,4,29,8,0.0
449,2,17,0,4,29,8,0.0
450,2,17,0,4,29,8,0.0
451,2,17,0,4,29,8,0.0
452,2,17,0,4,29,8,0.0
453,2,17,0,4,29,8,0.0
454,2,17,0,3,30,8,0.0
455,2,17,0,3,30,8,0.0
456,2,17,0,3,30,8,0.0
457,2,17,0,3,30,8,0.0
458,2,17,0,3,30,8,0.0
459,2,17,0,3,30,8,0.0
460,2,17,0,3,30,8,0.0
461,2,17,0,3,30,8,0.0
462,2,17,0,3,30,8,0.0
463,2,17,0,3,30,8,0.0
464,2,17,0,2,31,8,0.0
465,2,17,0,2,31,8,0.0
466,2,17,0,2,31,8,0.0
467,2,17,0,2,31,8,0.0
468,2,17,0,2,31,8,0.0
469,2,17,0,1,31,9,0.0
470,2,17,0,1,31,9,0.0
471,2,17,0,1,31,9,0.0
472,2,17,0,1,31,9,0.0
473,2,17,0,1,31,9,0.0
474,2,17,0,1,31,9,0.0
475,2,17,0,1,31,9,0.0
476,2,17,0,1,31,9,0.0
477,2,17,0,1,31,9,0.0
478,2,17,0,1,31,9,0.0
479,2,17,0,1,31,9,0.0
480,2,17,0,1,31,9,0.0
481,2,17,0,1,31,9,0.0
482,2,17,0,1,31,9,0.0
483,2,17,0,1,31,9,0.0
484,2,17,0,1,31,9,0.0
485,2,17,0,1,31,9,0.0
486,2,17,0,1,31,9,0.0
487,2,17,0,1,31,9,0.0
488,2,17,0,1,31,9,0.0
489,2,17,0,1,31,9,0.0
490,2,17,0,1,31,9,0.0
491,2,17,0,1,31,9,0.0
492,2,17,0,1,31,9,0.0
493,2,17,0,1,31,9,0.0
494,2,17,0,1,31,9,0.0
495,2,17,0,1,31,9,0.0
496,2,17,0,1,31,9,0.0
497,2,17,0,1,31,9,0.0
498,2,17,0,1,31,9,0.0
499,2,17,0,1,31,9,0.0
500,2,17,0,1,31,9,0.0
501,2,17,0,1,31,9,0.0
502,2,17,0,1,31,9,0.0
503,2,17,0,1,31,9,0.0
504,2,17,0,1,31,9,0.0
505,2,17,0,1,31,9,0.0
506,2,17,0,1,31,9,0.0
507,2,17,0,1,31,9,0.0
508,2,17,0,1,31,9,0.0
509,2,17,0,1,31,9,0.0
510,2,17,0,1,31,9,0.0
511,2,17,0,1,31,9,0.0
512,2,17,0,1,31,9,0.0
513,2,17,0,1,31,9,0.0
514,2,17,0,1,31,9,0.0
515,2,17,0,1,31,9,0.0
516,2,17,0,1,31,9,0.0
517,2,17,0,1,31,9,0.0
518,2,17,0,1,31,9,0.0
519,2,17,0,1,31,9,0.0
520,2,17,0,1,31,9,0.0
521,2,17,0,1,31,9,0.0
522,2,17,0,1,31,9,0.0
523,2,17,0,1,31,9,0.0
524,2,17,0,1,31,9,0.0
525,2,17,0,1,31,9,0.0
526,2,17,0,1,31,9,0.0
527,2,17,0,1,31,9,0.0
528,2,17,0,1,31,9,0.0
529,2,17,0,1,31,9,0.0
530,2,17,0,1,31,9,0.0
531,2,17,0,1,31,9,0.0
532,2,17,0,1,31,9,0.0
533,2,17,0,1,31,9,0.0
534,2,17,0,1,31,9,0.0
535,2,17,0,1,31,9,0.0
536,2,17,0,1,31,9,0.0
537,2,17,0,1,31,9,0.0
538,2,17,0,1,31,9,0.0
539,2,17,0,1,31,9,0.0
540,2,17,0,1,31,9,0.0
541,2,17,0,1,31,9,0.0
542,2,17,0,1,31,9,0.0
543,2,17,0,1,31,9,0.0
544,2,16,1,1,31,9,0.0
545,2,16,1,1,31,9,1.0
546,2,16,1,1,31,9,0.0
547,2,16,1,1,31,9,0.0
548,2,16,1,1,31,9,0.0
549,2,16,1,0,32,9,0.0
550,2,16,1,0,32,9,0
551,2,16,1,0,32,9,0
552,2,16,1,0,32,9,0
553,2,16,1,0,32,9,0
554,2,16,1,0,32,9,0
555,2,16,1,0,32,9,0
556,2,16,1,0,32,9,0
557,2,16,1,0,32,9,0
558,2,16,1,0,32,9,0
559,2,16,1,0,32,9,0
560,2,16,1,0,32,9,0
561,2,16,1,0,32,9,0
562,2,16,1,0,32,9,0
563,2,16,1,0,32,9,0
564,2,16,1,0,32,9,0
565,2,16,1,0,32,9,0
566,2,16,1,0,32,9,0
567,2,16,1,0,32,9,0
568,2,16,1,0,32,9,0
569,2,16,1,0,32,9,0
570,2,16,1,0,32,9,0
571,2,16,1,0,32,9,0
572,2,16,1,0,32,9,0
573,2,16,1,0,32,9,0
574,2,16,1,0,32,9,0
575,2,16,1,0,32,9,0
576,2,16,1,0,32,9,0
577,2,16,1,0,32,9,0
578,2,16,1,0,32,9,0
579,2,16,1,0,32,9,0
580,2,16,1,0,32,9,0
581,2,16,1,0,32,9,0
582,2,16,1,0,32,9,0
583,2,16,1,0,32,9,0
584,2,16,1,0,32,9,0
585,2,16,1,0,32,9,0
586,2,16,1,0,32,9,0
587,2,16,1,0,32,9,0
588,2,16,1,0,32,9,0
589,2,16,1,0,32,9,0
590,2,16,1,0,32,9,0
591,2,16,1,0,32,9,0
592,2,16,1,0,32,9,0
593,2,16,1,0,32,9,0
594,2,16,1,0,32,9,0
595,2,16,1,0,32,9,0
596,2,16,1,0,32,9,0
597,2,16,1,0,32,9,0
598,2,16,1,0,32,9,0
599,2,16,1,0,32,9,0
600,2,16,1,0,32,9,0
601,2,16,1,0,32,9,0
602,2,16,1,0,32,9,0
603,2,16,1,0,32,9,0
604,2,16,1,0,32,9,0
605,2,16,1,0,32,9,0
606,2,16,1,0,32,9,0
607,2,16,1,0,32,9,0
608,2,16,1,0,32,9,0
609,2,16,1,0,32,9,0
610,2,16,1,0,32,9,0
611,2,16,1,0,32,9,0
612,2,16,1,0,32,9,0
613,2,16,1,0,32,9,0
614,2,16,1,0,32,9,0
615,2,16,1,0,32,9,0
616,2,16,1,0,32,9,0
617,2,16,1,0,32,9,0
618,2,16,1,0,32,9,0
619,2,16,1,0,32,9,0
620,2,16,1,0,32,9,0
621,2,16,1,0,32,9,0
622,2,16,1,0,32,9,0
623,2,16,1,0,32,9,0
624,2,15,1,1,32,9,0
625,2,15,1,1,32,9,1.0
626,2,14,2,1,32,9,0.0
627,2,14,2,1,32,9,1.0
628,2,14,2,1,32,9,0.0
629,2,13,3,1,32,9,0.0
630,2,13,3,1,32,9,1.0
631,2,12,4,1,32,9,0.0
632,2,12,4,1,32,9,1.0
633,2,12,4,1,32,9,0.0
634,2,12,4,1,32,9,0.0
635,2,12,4,1,32,9,0.0
636,2,11,5,1,32,9,0.0
637,2,11,5,1,32,9,1.0
638,2,11,5,1,32,9,0.0
639,2,11,5,1,32,9,0.0
640,2,11,5,1,32,9,0.0
641,2,11,5,1,32,9,0.0
642,2,11,5,1,32,9,0.0
643,2,11,5,1,32,9,0.0
644,2,11,5,1,32,9,0.0
645,2,11,5,1,32,9,0.0
646,2,11,5,1,32,9,0.0
647,2,11,5,1,32,9,0.0
648,2,11,5,1,32,9,0.0
649,2,11,5,1,32,9,0.0
650,2,10,6,1,32,9,0.0
651,2,10,6,1,32,9,1.0
652,2,10,6,1,32,9,0.0
653,2,10,6,1,32,9,0.0
654,2,10,6,1,32,9,0.0
655,2,10,6,1,32,9,0.0
656,2,10,6,1,32,9,0.0
657,2,10,6,1,32,9,0.0
658,2,10,6,1,32,9,0.0
659,2,10,6,1,32,9,0.0
660,2,10,6,1,32,9,0.0
661,2,10,6,1,32,9,0.0
662,2,10,6,1,32,9,0.0
663,2,10,6,1,32,9,0.0
664,2,10,6,1,32,9,0.0
665,2,10,6,1,32,9,0.0
666,2,10,6,1,32,9,0.0
667,2,10,6,1,32,9,0.0
668,2,10,6,1,32,9,0.0
669,2,10,6,1,32,9,0.0
670,2,10,6,1,32,9,0.0
671,2,10,6,1,32,9,0.0
672,2,10,5,2,32,9,0.0
673,2,10,5,2,32,9,0.0
674,2,10,5,2,32,9,0.0
675,2,10,5,2,32,9,0.0
676,2,10,5,2,32,9,0.0
677,2,10,5,2,32,9,0.0
678,2,10,5,2,32,9,0.0
679,2,10,5,2,32,9,0.0
680,2,10,5,2,32,9,0.0
681,2,10,5,2,32,9,0.0
682,2,10,5,2,32,9,0.0
683,2,10,5,2,32,9,0.0
684,2,10,5,2,32,9,0.0
685,2,10,5,2,32,9,0.0
686,2,10,5,2,32,9,0.0
687,2,10,5,2,32,9,0.0
688,2,10,5,2,32,9,0.0
689,2,10,5,2,32,9,0.0
690,2,10,5,2,32,9,0.0
691,2,10,5,2,32,9,0.0
692,2,10,5,2,32,9,0.0
693,2,10,5,2,32,9,0.0
694,2,10,5,2,32,9,0.0
695,2,10,5,2,32,9,0.0
696,2,10,5,2,32,9,0.0
697,2,10,5,2,32,9,0.0
698,2,10,5,2,32,9,0.0
699,2,10,5,2,32,9,0.0
700,2,10,5,2,32,9,0.0
701,2,10,5,2,32,9,0.0
702,2,10,5,2,32,9,0.0
703,2,10,5,2,32,9,0.0
704,2,10,5,2,32,9,0.0
705,2,10,5,2,32,9,0.0
706,2,10,5,2,32,9,0.0
707,2,10,4,3,32,9,0.0
708,2,10,4,3,32,9,0.0
709,2,10,4,3,32,9,0.0
710,2,10,4,3,32,9,0.0
711,2,10,4,3,32,9,0.0
712,2,10,4,3,32,9,0.0
713,2,10,4,3,32,9,0.0
714,2,10,4,3,32,9,0.0
715,2,10,4,3,32,9,0.0
716,2,10,4,3,32,9,0.0
717,2,10,4,3,32,9,0.0
718,2,10,4,3,32,9,0.0
719,2,10,4,3,32,9,0.0
720,2,10,4,3,32,9,0.0
721,2,10,4,3,32,9,0.0
722,2,10,4,3,32,9,0.0
723,2,10,4,3,32,9,0.0
724,2,10,4,3,32,9,0.0
725,2,10,4,3,32,9,0.0
726,2,10,4,3,32,9,0.0
727,2,10,3,4,32,9,0.0
728,2,10,3,4,32,9,0.0
729,2,10,3,4,32,9,0.0
730,2,10,3,4,32,9,0.0
731,2,10,3,4,32,9,0.0
732,2,10,3,4,32,9,0.0
733,2,10,3,4,32,9,0.0
734,2,10,3,4,32,9,0.0
735,2,10,2,5,32,9,0.0
736,2,10,2,5,32,9,0.0
737,2,10,2,5,32,9,0.0
738,2,10,2,5,32,9,0.0
739,2,10,2,5,32,9,0.0
740,2,10,2,5,32,9,0.0
741,2,10,2,5,32,9,0.0
742,2,10,2,5,32,9,0.0
743,2,10,2,5,32,9,0.0
744,2,10,2,4,32,10,0.0
745,2,10,2,4,32,10,0.0
746,2,10,2,4,32,10,0.0
747,2,10,2,4,32,10,0.0
748,2,10,2,4,32,10,0.0
749,2,10,2,4,32,10,0.0
750,2,10,2,4,32,10,0.0
751,2,10,2,4,32,10,0.0
752,2,10,2,4,32,10,0.0
753,2,10,1,5,32,10,0.0
754,2,10,0,6,32,10,0.0
755,2,10,0,6,32,10,0.0
756,2,10,0,6,32,10,0.0
757,2,10,0,6,32,10,0.0
758,2,10,0,6,32,10,0.0
759,2,10,0,6,32,10,0.0
760,2,10,0,6,32,10,0.0
761,2,10,0,6,32,10,0.0
762,2,10,0,6,32,10,0.0
763,2,10,0,5,32,11,0.0
764,2,10,0,5,32,11,0.0
765,2,10,0,5,32,11,0.0
766,2,10,0,5,32,11,0.0
767,2,10,0,5,32,11,0.0
768,2,10,0,5,32,11,0.0
769,2,10,0,4,33,11,0.0
770,2,10,0,4,33,11,0.0
771,2,10,0,4,33,11,0.0
772,2,10,0,4,33,11,0.0
773,2,10,0,4,33,11,0.0
774,2,10,0,4,33,11,0.0
775,2,10,0,4,33,11,0.0
776,2,10,0,4,33,11,0.0
777,2,10,0,4,33,11,0.0
778,2,10,0,4,33,11,0.0
779,2,10,0,4,33,11,0.0
780,2,10,0,4,33,11,0.0
781,2,10,0,4,33,11,0.0
782,2,10,0,4,33,11,0.0
783,2,10,0,4,33,11,0.0
784,2,9,1,4,33,11,0.0
785,2,9,1,4,33,11,0.25
786,2,9,1,4,33,11,0.0
787,2,9,1,4,33,11,0.0
788,2,9,1,4,33,11,0.0
789,2,9,1,4,33,11,0.0
790,2,9,1,4,33,11,0.0
791,2,9,1,4,33,11,0.0
792,2,9,1,4,33,11,0.0
793,2,9,1,4,33,11,0.0
794,2,9,1,4,33,11,0.0
795,2,9,1,4,33,11,0.0
796,2,9,1,4,33,11,0.0
797,2,9,1,4,33,11,0.0
798,2,9,1,4,33,11,0.0
799,2,9,1,4,33,11,0.0
800,2,9,1,4,33,11,0.0
801,2,9,1,4,33,11,0.0
802,2,9,1,4,33,11,0.0
803,2,9,1,4,33,11,0.0
804,2,9,1,4,33,11,0.0
805,2,9,1,4,33,11,0.0
806,2,9,1,4,33,11,0.0
807,2,9,1,3,34,11,0.0
808,2,9,1,3,34,11,0.0
809,2,9,1,3,34,11,0.0
810,2,9,1,3,34,11,0.0
811,2,9,1,3,34,11,0.0
812,2,9,1,3,34,11,0.0
813,2,9,1,3,34,11,0.0
814,2,9,1,3,34,11,0.0
815,2,9,1,3,34,11,0.0
816,2,9,1,3,34,11,0.0
817,2,9,1,3,34,11,0.0
818,2,9,1,3,34,11,0.0
819,2,9,1,3,34,11,0.0
820,2,9,1,3,34,11,0.0
821,2,9,1,3,34,11,0.0
822,2,9,1,3,34,11,0.0
823,2,9,1,3,34,11,0.0
824,2,8,2,3,34,11,0.0
825,2,8,2,3,34,11,0.3333333333333333
826,2,8,2,2,34,12,0.0
827,2,8,2,2,34,12,0.0
828,2,8,2,2,34,12,0.0
829,2,8,2,2,34,12,0.0
830,2,8,2,2,34,12,0.0
831,2,8,2,2,34,12,0.0
832,2,8,2,2,34,12,0.0
833,2,8,2,2,34,12,0.0
834,2,8,2,2,34,12,0.0
835,2,8,2,1,34,13,0.0
836,2,8,2,1,34,13,0.0
837,2,8,2,1,34,13,0.0
838,2,8,2,1,34,13,0.0
839,2,8,2,1,34,13,0.0
840,2,8,2,1,34,13,0.0
841,2,8,2,1,34,13,0.0
842,2,8,2,1,34,13,0.0
843,2,8,2,1,34,13,0.0
844,2,8,2,1,34,13,0.0
845,2,8,2,1,34,13,0.0
846,2,8,2,1,34,13,0.0
847,2,8,2,1,34,13,0.0
848,2,8,2,1,34,13,0.0
849,2,8,2,1,34,13,0.0
850,2,8,2,1,34,13,0.0
851,2,8,2,1,34,13,0.0
852,2,8,2,1,34,13,0.0
853,2,8,2,1,34,13,0.0
854,2,8,2,1,34,13,0.0
855,2,8,2,1,34,13,0.0
856,2,8,2,1,34,13,0.0
857,2,8,2,1,34,13,0.0
858,2,8,2,1,34,13,0.0
859,2,8,2,1,34,13,0.0
860,2,8,2,1,34,13,0.0
861,2,8,2,1,34,13,0.0
862,2,8,2,1,34,13,0.0
863,2,8,2,1,34,13,0.0
864,2,8,2,1,34,13,0.0
865,2,8,2,1,34,13,0.0
866,2,8,2,1,34,13,0.0
867,2,8,2,1,34,13,0.0
868,2,8,2,1,34,13,0.0
869,2,8,2,1,34,13,0.0
870,2,8,2,1,34,13,0.0
871,2,8,2,1,34,13,0.0
872,2,8,2,1,34,13,0.0
873,2,8,2,1,34,13,0.0
874,2,8,2,1,34,13,0.0
875,2,8,2,1,34,13,0.0
876,2,8,2,1,34,13,0.0
877,2,8,1,2,34,13,0.0
878,2,8,1,1,35,13,0.0
879,2,8,1,1,35,13,0.0
880,2,8,1,1,35,13,0.0
881,2,8,1,1,35,13,0.0
882,2,8,1,1,35,13,0.0
883,2,8,1,1,35,13,0.0
884,2,8,1,1,35,13,0.0
885,2,8,1,1,35,13,0.0
886,2,8,1,1,35,13,0.0
887,2,8,1,1,35,13,0.0
888,2,8,1,1,35,13,0.0
889,2,8,0,2,35,13,0.0
890,2,8,0,2,35,13,0.0
891,2,8,0,2,35,13,0.0
892,2,8,0,2,35,13,0.0
893,2,8,0,2,35,13,0.0
894,2,8,0,2,35,13,0.0
895,2,8,0,2,35,13,0.0
896,2,8,0,2,35,13,0.0
897,2,8,0,2,35,13,0.0
898,2,8,0,2,35,13,0.0
899,2,8,0,2,35,13,0.0
900,2,8,0,2,35,13,0.0
901,2,8,0,2,35,13,0.0
902,2,8,0,2,35,13,0.0
903,2,8,0,2,35,13,0.0
904,2,8,0,2,35,13,0.0
905,2,8,0,2,35,13,0.0
906,2,8,0,2,35,13,0.0
907,2,8,0,2,35,13,0.0
908,2,8,0,2,35,13,0.0
909,2,8,0,2,35,13,0.0
910,2,8,0,2,35,13,0.0
911,2,8,0,2,35,13,0.0
912,2,8,0,2,35,13,0.0
913,2,8,0,2,35,13,0.0
914,2,8,0,2,35,13,0.0
915,2,8,0,2,35,13,0.0
916,2,8,0,2,35,13,0.0
917,2,8,0,2,35,13,0.0
918,2,8,0,2,35,13,0.0
919,2,8,0,2,35,13,0.0
920,2,8,0,2,35,13,0.0
921,2,8,0,2,35,13,0.0
922,2,8,0,2,35,13,0.0
923,2,8,0,2,35,13,0.0
924,2,8,0,2,35,13,0.0
925,2,8,0,2,35,13,0.0
926,2,8,0,2,35,13,0.0
927,2,8,0,2,35,13,0.0
928,2,8,0,2,35,13,0.0
929,2,8,0,2,35,13,0.0
930,2,8,0,2,35,13,0.0
931,2,8,0,2,35,13,0.0
932,2,8,0,2,35,13,0.0
933,2,8,0,2,35,13,0.0
934,2,8,0,2,35,13,0.0
935,2,8,0,2,35,13,0.0
936,2,8,0,2,35,13,0.0
937,2,8,0,2,35,13,0.0
938,2,8,0,2,35,13,0.0
939,2,8,0,2,35,13,0.0
940,2,8,0,2,35,13,0.0
941,2,8,0,2,35,13,0.0
942,2,8,0,2,35,13,0.0
943,2,8,0,2,35,13,0.0
944,2,8,0,2,35,13,0.0
945,2,8,0,2,35,13,0.0
946,2,8,0,2,35,13,0.0
947,2,8,0,2,35,13,0.0
948,2,8,0,2,35,13,0.0
949,2,8,0,2,35,13,0.0
950,2,8,0,2,35,13,0.0
951,2,8,0,2,35,13,0.0
952,2,8,0,2,35,13,0.0
953,2,8,0,2,35,13,0.0
954,2,8,0,2,35,13,0.0
955,2,8,0,2,35,13,0.0
956,2,8,0,2,35,13,0.0
957,2,8,0,2,35,13,0.0
958,2,8,0,2,35,13,0.0
959,2,8,0,2,35,13,0.0
960,2,8,0,2,35,13,0.0
961,2,8,0,2,35,13,0.0
962,2,8,0,2,35,13,0.0
963,2,8,0,2,35,13,0.0
964,2,8,0,2,35,13,0.0
965,2,8,0,2,35,13,0.0
966,2,8,0,2,35,13,0.0
967,2,8,0,2,35,13,0.0
968,2,8,0,2,35,13,0.0
969,2,8,0,2,35,13,0.0
970,2,8,0,2,35,13,0.0
971,2,8,0,2,35,13,0.0
972,2,8,0,2,35,13,0.0
973,2,8,0,2,35,13,0.0
974,2,8,0,2,35,13,0.0
975,2,8,0,2,35,13,0.0
976,2,8,0,2,35,13,0.0
977,2,8,0,2,35,13,0.0
978,2,8,0,2,35,13,0.0
979,2,8,0,2,35,13,0.0
980,2,8,0,2,35,13,0.0
981,2,8,0,2,35,13,0.0
982,2,8,0,2,35,13,0.0
983,2,8,0,2,35,13,0.0
984,2,8,0,2,35,13,0.0
985,2,8,0,1,36,13,0.0
986,2,8,0,1,36,13,0.0
987,2,8,0,1,36,13,0.0
988,2,8,0,1,36,13,0.0
989,2,8,0,1,36,13,0.0
990,2,8,0,1,36,13,0.0
991,2,8,0,1,36,13,0.0
992,2,8,0,1,36,13,0.0
993,2,8,0,1,36,13,0.0
994,2,8,0,1,36,13,0.0
995,2,8,0,1,36,13,0.0
996,2,8,0,1,36,13,0.0
997,2,8,0,1,36,13,0.0
998,2,8,0,1,36,13,0.0
999,2,8,0,1,36,13,0.0
1000,2,8,0,1,36,13,0.0
1001,2,8,0,1,36,13,0.0
1002,2,8,0,1,36,13,0.0
1003,2,8,0,1,36,13,0.0
1004,2,8,0,1,36,13,0.0
1005,2,8,0,1,36,13,0.0
1006,2,8,0,1,36,13,0.0
1007,2,8,0,1,36,13,0.0
1008,2,8,0,1,36,13,0.0
1009,2,8,0,1,36,13,0.0
1010,2,8,0,1,36,13,0.0
1011,2,8,0,1,36,13,0.0
1012,2,8,0,1,36,13,0.0
1013,2,8,0,1,36,13,0.0
1014,2,8,0,1,36,13,0.0
1015,2,8,0,1,36,13,0.0
1016,2,8,0,1,36,13,0.0
1017,2,8,0,1,36,13,0.0
1018,2,8,0,1,36,13,0.0
1019,2,8,0,1,36,13,0.0
1020,2,8,0,1,36,13,0.0
1021,2,8,0,1,36,13,0.0
1022,2,8,0,1,36,13,0.0
1023,2,8,0,1,36,13,0.0
1024,2,8,0,0,37,13,0.0
1025,2,8,0,0,37,13,0
