t,maternally_immune,susceptible,exposed,infectious,recovered,dead,r0
0,2,52,4,2,0,0,0
1,2,52,4,2,0,0,0
2,2,52,4,2,0,0,0.0
3,2,52,4,2,0,0,0.0
4,2,52,4,2,0,0,0.0
5,2,52,4,2,0,0,0.0
6,2,52,4,2,0,0,0.0
7,2,52,4,2,0,0,0.0
8,2,52,4,2,0,0,0.0
9,2,52,4,2,0,0,0.0
10,2,52,4,2,0,0,0.0
11,2,52,4,2,0,0,0.0
12,2,52,4,2,0,0,0.0
13,2,52,4,2,0,0,0.0
14,2,52,4,2,0,0,0.0
15,2,52,4,2,0,0,0.0
16,2,52,4,2,0,0,0.0
17,2,52,4,2,0,0,0.0
18,2,52,4,2,0,0,0.0
19,2,52,4,2,0,0,0.0
20,2,52,4,2,0,0,0.0
21,2,52,4,2,0,0,0.0
22,2,52,4,2,0,0,0.0
23,2,52,4,2,0,0,0.0
24,2,52,4,2,0,0,0.0
25,2,52,4,2,0,0,0.0
26,2,52,4,2,0,0,0.0
27,2,52,4,2,0,0,0.0
28,2,52,4,2,0,0,0.0
29,2,52,4,2,0,0,0.0
30,2,52,4,2,0,0,0.0
31,2,52,4,2,0,0,0.0
32,2,52,4,2,0,0,0.0
33,2,52,4,2,0,0,0.0
34,2,52,4,2,0,0,0.0
35,2,52,4,2,0,0,0.0
36,2,52,4,2,0,0,0.0
37,2,52,4,2,0,0,0.0
38,2,52,4,2,0,0,0.0
39,2,52,4,2,0,0,0.0
40,2,52,4,2,0,0,0.0
41,2,52,4,2,0,0,0.0
42,2,52,4,2,0,0,0.0
43,2,52,4,2,0,0,0.0
44,2,52,4,2,0,0,0.0
45,2,52,4,2,0,0,0.0
46,2,52,4,2,0,0,0.0
47,2,52,4,2,0,0,0.0
48,2,52,4,2,0,0,0.0
49,2,52,4,2,0,0,0.0
50,2,52,4,2,0,0,0.0
51,2,52,4,2,0,0,0.0
52,2,52,4,2,0,0,0.0
53,2,52,4,2,0,0,0.0
54,2,52,4,2,0,0,0.0
55,2,52,4,1,1,0,0.0
56,2,52,4,1,1,0,0.0
57,2,52,4,1,1,0,0.0
58,2,52,4,1,1,0,0.0
59,2,52,4,1,1,0,0.0
60,2,52,4,1,1,0,0.0
61,2,52,4,1,1,0,0.0
62,2,52,4,1,1,0,0.0
63,2,52,3,2,1,0,0.0
64,2,52,3,2,1,0,0.0
65,2,52,3,2,1,0,0.0
66,2,52,3,2,1,0,0.0
67,2,52,3,2,1,0,0.0
68,2,52,3,2,1,0,0.0
69,2,52,3,2,1,0,0.0
70,2,52,3,2,1,0,0.0
71,2,52,3,2,1,0,0.0
72,2,52,3,2,1,0,0.0
73,2,52,3,2,1,0,0.0
74,2,52,3,2,1,0,0.0
75,2,52,3,2,1,0,0.0
76,2,52,3,2,1,0,0.0
77,2,52,3,2,1,0,0.0
78,2,52,3,2,1,0,0.0
79,2,52,3,2,1,0,0.0
80,2,51,4,2,1,0,0.0
81,2,51,4,2,1,0,0.5
82,2,51,3,3,1,0,0.0
83,2,51,3,3,1,0,0.0
84,2,51,3,3,1,0,0.0
85,2,50,4,3,1,0,0.0
86,2,50,4,3,1,0,0.3333333333333333
87,2,50,4,3,1,0,0.0
88,2,50,4,3,1,0,0.0
89,2,50,4,3,1,0,0.0
90,2,50,4,3,1,0,0.0
91,2,50,4,3,1,0,0.0
92,2,50,4,3,1,0,0.0
93,2,49,5,2,2,0,0.0
94,2,48,6,2,2,0,0.5
95,2,48,6,2,2,0,0.5
96,2,48,6,2,2,0,0.0
97,2,48,5,3,2,0,0.0
98,2,48,5,3,2,0,0.0
99,2,47,6,3,2,0,0.0
100,2,47,6,3,2,0,0.3333333333333333
101,2,47,6,3,2,0,0.0
102,2,47,6,3,2,0,0.0
103,2,47,6,3,2,0,0.0
104,2,46,7,3,2,0,0.0
105,2,46,7,3,2,0,0.3333333333333333
106,2,46,7,3,2,0,0.0
107,2,46,7,3,2,0,0.0
108,2,46,7,3,2,0,0.0
109,2,46,7,3,2,0,0.0
110,2,45,8,3,2,0,0.0
111,2,45,8,3,2,0,0.3333333333333333
112,2,45,8,3,2,0,0.0
113,2,45,8,3,2,0,0.0
114,2,45,8,3,2,0,0.0
115,2,45,7,4,2,0,0.0
116,2,44,8,4,2,0,0.0
117,2,44,8,4,2,0,0.25
118,2,44,8,4,2,0,0.0
119,2,44,8,4,2,0,0.0
120,2,44,8,4,2,0,0.0
121,2,44,8,4,2,0,0.0
122,2,43,9,4,2,0,0.0
123,2,43,9,4,2,0,0.25
124,2,43,9,4,2,0,0.0
125,2,43,9,4,2,0,0.0
126,2,43,9,4,2,0,0.0
127,2,43,9,4,2,0,0.0
128,2,43,9,4,2,0,0.0
129,2,42,10,4,2,0,0.0
130,2,42,10,4,2,0,0.25
131,2,41,10,5,2,0,0.0
132,2,40,10,6,2,0,0.2
133,2,40,10,6,2,0,0.16666666666666666
134,2,40,10,6,2,0,0.0
135,2,40,10,6,2,0,0.0
136,2,40,10,6,2,0,0.0
137,2,40,9,7,2,0,0.0
138,2,39,10,7,2,0,0.0
139,2,39,10,7,2,0,0.14285714285714285
140,2,39,10,7,2,0,0.0
141,2,39,10,7,2,0,0.0
142,2,39,10,7,2,0,0.0
143,2,39,10,7,2,0,0.0
144,2,39,10,7,2,0,0.0
145,2,39,10,7,2,0,0.0
146,2,39,9,8,2,0,0.0
147,2,39,9,8,2,0,0.0
148,2,39,9,8,2,0,0.0
149,2,39,8,8,3,0,0.0
150,2,39,8,8,3,0,0.0
151,2,39,7,9,3,0,0.0
152,2,39,6,10,3,0,0.0
153,2,39,6,10,3,0,0.0
154,2,39,6,10,3,0,0.0
155,2,39,6,10,3,0,0.0
156,2,39,6,10,3,0,0.0
157,2,39,6,10,3,0,0.0
158,2,39,6,10,3,0,0.0
159,2,39,6,10,3,0,0.0
160,2,39,6,10,3,0,0.0
161,2,39,5,11,3,0,0.0
162,2,39,5,11,3,0,0.0
163,2,39,5,11,3,0,0.0
164,2,39,5,11,3,0,0.0
165,2,39,5,11,3,0,0.0
166,2,39,5,11,3,0,0.0
167,2,39,5,11,3,0,0.0
168,2,39,5,11,3,0,0.0
169,2,39,5,11,3,0,0.0
170,2,39,5,11,3,0,0.0
171,2,39,5,11,3,0,0.0
172,2,39,5,11,3,0,0.0
173,2,39,5,11,3,0,0.0
174,2,39,5,11,3,0,0.0
175,2,39,5,11,3,0,0.0
176,2,39,5,11,3,0,0.0
177,2,39,5,11,3,0,0.0
178,2,39,5,11,3,0,0.0
179,2,39,5,11,3,0,0.0
180,2,39,5,10,3,1,0.0
181,2,39,5,10,3,1,0.0
182,2,39,5,10,3,1,0.0
183,2,39,5,10,3,1,0.0
184,2,39,5,10,3,1,0.0
185,2,39,5,10,3,1,0.0
186,2,39,5,10,3,1,0.0
187,2,39,5,10,3,1,0.0
188,2,39,5,10,3,1,0.0
189,2,39,4,11,3,1,0.0
190,2,39,4,11,3,1,0.0
191,2,39,4,11,3,1,0.0
192,2,39,4,11,3,1,0.0
193,2,39,4,10,4,1,0.0
194,2,39,4,10,4,1,0.0
195,2,39,4,10,4,1,0.0
196,2,39,4,10,4,1,0.0
197,2,39,4,10,4,1,0.0
198,2,39,4,10,4,1,0.0
199,2,39,4,10,4,1,0.0
200,2,39,4,10,4,1,0.0
201,2,39,4,10,4,1,0.0
202,2,39,4,10,4,1,0.0
203,2,39,4,10,4,1,0.0
204,2,39,4,10,4,1,0.0
205,2,39,4,10,4,1,0.0
206,2,39,4,10,4,1,0.0
207,2,39,4,10,4,1,0.0
208,2,39,4,9,4,2,0.0
209,2,39,4,9,4,2,0.0
210,2,39,4,9,4,2,0.0
211,2,39,4,7,5,3,0.0
212,2,39,4,6,6,3,0.0
213,2,39,4,6,6,3,0.0
214,2,39,3,7,6,3,0.0
215,2,39,3,7,6,3,0.0
216,2,39,3,7,6,3,0.0
217,2,39,3,7,6,3,0.0
218,2,39,3,7,6,3,0.0
219,2,39,3,7,6,3,0.0
220,2,39,3,7,6,3,0.0
221,2,39,3,7,6,3,0.0
222,2,39,3,7,6,3,0.0
223,2,39,3,7,6,3,0.0
224,2,39,3,7,6,3,0.0
225,2,39,3,7,6,3,0.0
226,2,39,3,7,6,3,0.0
227,2,39,1,9,6,3,0.0
228,2,38,2,9,6,3,0.0
229,2,38,2,9,6,3,0.1111111111111111
230,2,38,2,9,6,3,0.0
231,2,38,2,9,6,3,0.0
232,2,38,2,9,6,3,0.0
233,2,38,2,9,6,3,0.0
234,2,38,2,9,6,3,0.0
235,2,37,3,9,6,3,0.0
236,2,37,3,9,6,3,0.1111111111111111
237,2,37,3,9,6,3,0.0
238,2,37,3,9,6,3,0.0
239,2,37,3,9,6,3,0.0
240,2,37,3,9,6,3,0.0
241,2,37,2,10,6,3,0.0
242,2,37,2,10,6,3,0.0
243,2,37,2,10,6,3,0.0
244,2,37,2,9,7,3,0.0
245,2,37,2,9,7,3,0.0
246,2,37,2,9,7,3,0.0
247,2,37,2,8,8,3,0.0
248,2,37,2,7,9,3,0.0
249,2,37,2,7,9,3,0.0
250,2,37,2,7,9,3,0.0
251,2,37,2,6,10,3,0.0
252,2,37,2,6,10,3,0.0
253,2,37,2,6,10,3,0.0
254,2,37,2,6,10,3,0.0
255,2,37,2,6,10,3,0.0
256,2,37,2,5,10,4,0.0
257,2,37,2,5,10,4,0.0
258,2,37,2,5,10,4,0.0
259,2,37,2,4,11,4,0.0
260,2,37,2,4,11,4,0.0
261,2,37,2,4,11,4,0.0
262,2,37,2,4,11,4,0.0
263,2,37,2,4,11,4,0.0
264,2,37,2,4,11,4,0.0
265,2,37,2,4,11,4,0.0
266,2,37,2,4,11,4,0.0
267,2,37,2,4,11,4,0.0
268,2,37,2,4,11,4,0.0
269,2,37,2,4,11,4,0.0
270,2,37,2,4,11,4,0.0
271,2,37,2,4,11,4,0.0
272,2,37,2,4,11,4,0.0
273,2,37,2,4,11,4,0.0
274,2,37,2,4,11,4,0.0
275,2,37,2,4,11,4,0.0
276,2,37,2,4,11,4,0.0
277,2,37,2,4,11,4,0.0
278,2,37,2,4,11,4,0.0
279,2,37,2,4,11,4,0.0
280,2,37,2,4,11,4,0.0
281,2,37,2,4,11,4,0.0
282,2,37,2,4,11,4,0.0
283,2,37,2,4,11,4,0.0
284,2,37,2,4,11,4,0.0
285,2,37,2,4,11,4,0.0
286,2,37,2,4,11,4,0.0
287,2,37,2,4,11,4,0.0
288,2,37,2,4,11,4,0.0
289,2,37,2,4,11,4,0.0
290,2,37,2,3,11,5,0.0
291,2,37,2,3,11,5,0.0
292,2,37,2,3,11,5,0.0
293,2,37,2,3,11,5,0.0
294,2,37,2,3,11,5,0.0
295,2,37,2,3,11,5,0.0
296,2,37,2,3,11,5,0.0
297,2,37,2,3,11,5,0.0
298,2,37,2,3,11,5,0.0
299,2,37,2,3,11,5,0.0
300,2,37,2,3,11,5,0.0
301,2,37,2,3,11,5,0.0
302,2,37,2,3,11,5,0.0
303,2,37,2,3,11,5,0.0
304,2,37,2,3,11,5,0.0
305,2,37,2,2,12,5,0.0
306,2,37,2,2,12,5,0.0
307,2,37,2,2,12,5,0.0
308,2,37,2,2,12,5,0.0
309,2,37,2,2,12,5,0.0
310,2,37,2,2,12,5,0.0
311,2,37,2,2,12,5,0.0
312,2,37,2,2,12,5,0.0
313,2,37,2,2,12,5,0.0
314,2,37,2,2,12,5,0.0
315,2,37,2,2,12,5,0.0
316,2,37,2,2,12,5,0.0
317,2,37,2,2,12,5,0.0
318,2,37,2,2,12,5,0.0
319,2,37,2,2,12,5,0.0
320,2,37,2,2,12,5,0.0
321,2,37,2,2,12,5,0.0
322,2,37,2,2,12,5,0.0
323,2,36,3,2,12,5,0.0
324,2,36,3,2,12,5,0.5
325,2,36,3,2,12,5,0.0
326,2,36,3,2,12,5,0.0
327,2,35,4,2,12,5,0.0
328,2,34,5,2,12,5,0.5
329,2,34,5,2,12,5,0.5
330,2,34,5,1,12,6,0.0
331,2,34,5,1,12,6,0.0
332,2,34,5,1,12,6,0.0
333,2,34,5,1,12,6,0.0
334,2,34,4,2,12,6,0.0
335,2,34,4,2,12,6,0.0
336,2,34,4,2,12,6,0.0
337,2,34,4,2,12,6,0.0
338,2,34,4,1,13,6,0.0
339,2,34,4,1,13,6,0.0
340,2,34,4,1,13,6,0.0
341,2,34,4,1,13,6,0.0
342,2,34,4,1,13,6,0.0
343,2,34,4,1,13,6,0.0
344,2,34,4,1,13,6,0.0
345,2,34,4,1,13,6,0.0
346,2,34,3,2,13,6,0.0
347,2,34,3,2,13,6,0.0
348,2,34,3,2,13,6,0.0
349,2,34,3,2,13,6,0.0
350,2,34,3,2,13,6,0.0
351,2,34,3,2,13,6,0.0
352,2,34,3,2,13,6,0.0
353,2,34,3,2,13,6,0.0
354,2,34,3,2,13,6,0.0
355,2,34,3,2,13,6,0.0
356,2,34,3,2,13,6,0.0
357,2,34,3,2,13,6,0.0
358,2,34,3,2,13,6,0.0
359,2,34,3,2,13,6,0.0
360,2,34,3,2,13,6,0.0
361,2,34,3,2,13,6,0.0
362,2,34,3,2,13,6,0.0
363,2,34,3,2,13,6,0.0
364,2,34,3,2,13,6,0.0
365,2,34,3,2,13,6,0.0
366,2,34,3,2,13,6,0.0
367,2,34,3,2,13,6,0.0
368,2,34,3,2,13,6,0.0
369,2,34,3,2,13,6,0.0
370,2,34,3,2,13,6,0.0
371,2,34,3,2,13,6,0.0
372,2,34,3,2,13,6,0.0
373,2,34,3,2,13,6,0.0
374,2,34,3,2,13,6,0.0
375,2,34,3,2,13,6,0.0
376,2,34,3,2,13,6,0.0
377,2,34,3,2,13,6,0.0
378,2,34,3,2,13,6,0.0
379,2,34,3,2,13,6,0.0
380,2,34,3,2,13,6,0.0
381,2,34,3,2,13,6,0.0
382,2,34,3,2,13,6,0.0
383,2,34,3,2,13,6,0.0
384,2,34,3,2,13,6,0.0
385,2,34,3,2,13,6,0.0
386,2,34,3,2,13,6,0.0
387,2,34,3,2,13,6,0.0
388,2,34,3,2,13,6,0.0
389,2,34,3,2,13,6,0.0
390,2,34,3,2,13,6,0.0
391,2,34,3,2,13,6,0.0
392,2,34,2,3,13,6,0.0
393,2,34,2,3,13,6,0.0
394,2,34,1,4,13,6,0.0
395,2,34,1,4,13,6,0.0
396,2,34,1,4,13,6,0.0
397,2,34,1,4,13,6,0.0
398,2,34,1,4,13,6,0.0
399,2,34,1,4,13,6,0.0
400,2,34,1,4,13,6,0.0
401,2,34,1,4,13,6,0.0
402,2,34,1,4,13,6,0.0
403,2,34,1,3,13,7,0.0
404,2,34,1,3,13,7,0.0
405,2,34,1,3,13,7,0.0
406,2,34,1,3,13,7,0.0
407,2,34,1,3,13,7,0.0
408,2,34,1,3,13,7,0.0
409,2,34,1,3,13,7,0.0
410,2,34,1,3,13,7,0.0
411,2,34,1,3,13,7,0.0
412,2,34,1,3,13,7,0.0
413,2,34,1,3,13,7,0.0
414,2,34,1,3,13,7,0.0
415,2,34,1,3,13,7,0.0
416,2,34,1,3,13,7,0.0
417,2,34,1,3,13,7,0.0
418,2,34,1,3,13,7,0.0
419,2,34,1,3,13,7,0.0
420,2,34,1,3,13,7,0.0
421,2,34,1,3,13,7,0.0
422,2,34,1,2,13,8,0.0
423,2,34,1,2,13,8,0.0
424,2,34,1,2,13,8,0.0
425,2,34,1,2,13,8,0.0
426,2,34,1,2,13,8,0.0
427,2,34,1,2,13,8,0.0
428,2,34,1,2,13,8,0.0
429,2,34,1,2,13,8,0.0
430,2,34,1,2,13,8,0.0
431,2,34,1,2,13,8,0.0
432,2,34,1,2,13,8,0.0
433,2,34,1,2,13,8,0.0
434,2,34,1,2,13,8,0.0
435,2,34,0,3,13,8,0.0
436,2,34,0,3,13,8,0.0
437,2,34,0,3,13,8,0.0
438,2,34,0,3,13,8,0.0
439,2,34,0,3,13,8,0.0
440,2,34,0,3,13,8,0.0
441,2,34,0,3,13,8,0.0
442,2,34,0,3,13,8,0.0
443,2,34,0,3,13,8,0.0
444,2,34,0,3,13,8,0.0
445,2,34,0,3,13,8,0.0
446,2,34,0,3,13,8,0.0
447,2,34,0,3,13,8,0.0
448,2,34,0,3,13,8,0.0
449,2,34,0,3,13,8,0.0
450,2,34,0,3,13,8,0.0
451,2,34,0,3,13,8,0.0
452,2,34,0,3,13,8,0.0
453,2,34,0,3,13,8,0.0
454,2,34,0,3,13,8,0.0
455,2,34,0,3,13,8,0.0
456,2,34,0,3,13,8,0.0
457,2,34,0,3,13,8,0.0
458,2,34,0,3,13,8,0.0
459,2,34,0,3,13,8,0.0
460,2,34,0,3,13,8,0.0
461,2,34,0,3,13,8,0.0
462,2,34,0,3,13,8,0.0
463,2,33,1,3,13,8,0.0
464,2,33,1,3,13,8,0.3333333333333333
465,2,33,1,3,13,8,0.0
466,2,33,1,3,13,8,0.0
467,2,33,1,3,13,8,0.0
468,2,33,1,3,13,8,0.0
469,2,33,1,3,13,8,0.0
470,2,33,1,3,13,8,0.0
471,2,33,1,3,13,8,0.0
472,2,33,1,3,13,8,0.0
473,2,33,1,3,13,8,0.0
474,2,33,1,3,13,8,0.0
475,2,33,1,3,13,8,0.0
476,2,33,1,3,13,8,0.0
477,2,33,1,3,13,8,0.0
478,2,33,1,3,13,8,0.0
479,2,33,1,3,13,8,0.0
480,2,33,1,3,13,8,0.0
481,2,33,1,3,13,8,0.0
482,2,33,1,3,13,8,0.0
483,2,33,1,3,13,8,0.0
484,2,33,1,3,13,8,0.0
485,2,33,1,3,13,8,0.0
486,2,33,1,3,13,8,0.0
487,2,33,1,3,13,8,0.0
488,2,33,1,3,13,8,0.0
489,2,33,1,3,13,8,0.0
490,2,33,1,3,13,8,0.0
491,2,33,1,3,13,8,0.0
492,2,33,1,3,13,8,0.0
493,2,33,1,3,13,8,0.0
494,2,33,1,3,13,8,0.0
495,2,33,1,3,13,8,0.0
496,2,33,1,3,13,8,0.0
497,2,33,1,2,14,8,0.0
498,2,33,1,2,14,8,0.0
499,2,33,1,2,14,8,0.0
500,2,33,0,3,14,8,0.0
501,2,33,0,3,14,8,0.0
502,2,32,1,3,14,8,0.0
503,2,32,1,3,14,8,0.3333333333333333
504,2,32,1,3,14,8,0.0
505,2,32,1,3,14,8,0.0
506,2,32,1,3,14,8,0.0
507,2,32,1,3,14,8,0.0
508,2,32,1,3,14,8,0.0
509,2,32,1,3,14,8,0.0
510,2,32,1,3,14,8,0.0
511,2,32,1,3,14,8,0.0
512,2,32,1,3,14,8,0.0
513,2,32,1,3,14,8,0.0
514,2,32,1,3,14,8,0.0
515,2,31,2,2,15,8,0.0
516,2,31,2,2,15,8,0.5
517,2,31,2,1,16,8,0.0
518,2,31,2,1,16,8,0.0
519,2,31,2,1,16,8,0.0
520,2,31,2,1,16,8,0.0
521,2,31,2,1,16,8,0.0
522,2,31,2,1,16,8,0.0
523,2,31,2,1,16,8,0.0
524,2,31,2,1,16,8,0.0
525,2,31,2,1,16,8,0.0
526,2,31,2,1,16,8,0.0
527,2,31,2,1,16,8,0.0
528,2,31,2,1,16,8,0.0
529,2,31,2,1,16,8,0.0
530,2,31,2,1,16,8,0.0
531,2,31,2,1,16,8,0.0
532,2,31,2,1,16,8,0.0
533,2,31,2,1,16,8,0.0
534,2,31,2,1,16,8,0.0
535,2,31,2,1,16,8,0.0
536,2,31,2,1,16,8,0.0
537,2,31,2,1,16,8,0.0
538,2,31,2,1,16,8,0.0
539,2,31,2,1,16,8,0.0
540,2,31,2,1,16,8,0.0
541,2,31,2,1,16,8,0.0
542,2,31,2,1,16,8,0.0
543,2,31,2,1,16,8,0.0
544,2,31,2,1,16,8,0.0
545,2,31,2,1,16,8,0.0
546,2,31,2,1,16,8,0.0
547,2,31,2,1,16,8,0.0
548,2,31,2,1,16,8,0.0
549,2,31,2,1,16,8,0.0
550,2,31,2,1,16,8,0.0
551,2,31,2,1,16,8,0.0
552,2,31,2,1,16,8,0.0
553,2,31,2,1,16,8,0.0
554,2,31,2,1,16,8,0.0
555,2,31,2,1,16,8,0.0
556,2,31,2,1,16,8,0.0
557,2,31,2,1,16,8,0.0
558,2,31,2,1,16,8,0.0
559,2,31,2,1,16,8,0.0
560,2,31,2,1,16,8,0.0
561,2,31,2,1,16,8,0.0
562,2,31,2,1,16,8,0.0
563,2,31,2,1,16,8,0.0
564,2,31,2,1,16,8,0.0
565,2,31,2,1,16,8,0.0
566,2,31,2,1,16,8,0.0
567,2,31,2,1,16,8,0.0
568,2,31,2,1,16,8,0.0
569,2,31,2,1,16,8,0.0
570,2,31,2,1,16,8,0.0
571,2,31,2,1,16,8,0.0
572,2,31,2,1,16,8,0.0
573,2,31,2,0,16,9,0.0
574,2,31,2,0,16,9,0
575,2,31,2,0,16,9,0
576,2,31,2,0,16,9,0
577,2,31,2,0,16,9,0
578,2,31,2,0,16,9,0
579,2,31,2,0,16,9,0
580,2,31,2,0,16,9,0
581,2,31,2,0,16,9,0
582,2,31,2,0,16,9,0
583,2,31,2,0,16,9,0
584,2,31,2,0,16,9,0
585,2,31,2,0,16,9,0
586,2,31,2,0,16,9,0
587,2,31,2,0,16,9,0
588,2,31,2,0,16,9,0
589,2,31,2,0,16,9,0
590,2,31,2,0,16,9,0
591,2,31,2,0,16,9,0
592,2,31,2,0,16,9,0
593,2,31,2,0,16,9,0
594,2,31,2,0,16,9,0
595,2,31,2,0,16,9,0
596,2,31,2,0,16,9,0
597,2,31,2,0,16,9,0
598,2,31,1,1,16,9,0
599,2,31,0,2,16,9,0.0
600,2,31,0,2,16,9,0.0
601,2,31,0,2,16,9,0.0
602,2,30,1,2,16,9,0.0
603,2,30,1,2,16,9,0.5
604,2,30,1,2,16,9,0.0
605,2,30,1,2,16,9,0.0
606,2,30,1,2,16,9,0.0
607,2,30,1,2,16,9,0.0
608,2,30,1,2,16,9,0.0
609,2,30,1,2,16,9,0.0
610,2,30,1,2,16,9,0.0
611,2,30,1,2,16,9,0.0
612,2,29,2,2,16,9,0.0
613,2,29,2,2,16,9,0.5
614,2,29,2,2,16,9,0.0
615,2,29,2,2,16,9,0.0
616,2,29,2,2,16,9,0.0
617,2,29,2,2,16,9,0.0
618,2,29,2,2,16,9,0.0
619,2,29,2,2,16,9,0.0
620,2,29,2,2,16,9,0.0
621,2,29,2,2,16,9,0.0
622,2,29,2,2,16,9,0.0
623,2,29,2,2,16,9,0.0
624,2,29,2,2,16,9,0.0
625,2,29,2,2,16,9,0.0
626,2,29,2,2,16,9,0.0
627,2,29,2,2,16,9,0.0
628,2,29,2,2,16,9,0.0
629,2,29,2,2,16,9,0.0
630,2,29,2,2,16,9,0.0
631,2,29,2,2,16,9,0.0
632,2,29,2,2,16,9,0.0
633,2,29,2,2,16,9,0.0
634,2,29,2,2,16,9,0.0
635,2,29,2,2,16,9,0.0
636,2,29,2,2,16,9,0.0
637,2,29,2,2,16,9,0.0
638,2,29,2,2,16,9,0.0
639,2,29,2,2,16,9,0.0
640,2,29,2,2,16,9,0.0
641,2,29,2,2,16,9,0.0
642,2,29,2,2,16,9,0.0
643,2,29,2,2,16,9,0.0
644,2,29,2,2,16,9,0.0
645,2,29,2,2,16,9,0.0
646,2,29,2,2,16,9,0.0
647,2,29,2,2,16,9,0.0
648,2,29,2,2,16,9,0.0
649,2,29,2,2,16,9,0.0
650,2,29,2,2,16,9,0.0
651,2,29,2,2,16,9,0.0
652,2,29,2,2,16,9,0.0
653,2,29,2,2,16,9,0.0
654,2,29,2,2,16,9,0.0
655,2,29,2,2,16,9,0.0
656,2,29,2,2,16,9,0.0
657,2,29,2,2,16,9,0.0
658,2,29,2,2,16,9,0.0
659,2,29,2,2,16,9,0.0
660,2,29,2,2,16,9,0.0
661,2,29,2,2,16,9,0.0
662,2,29,2,2,16,9,0.0
663,2,29,2,2,16,9,0.0
664,2,29,2,2,16,9,0.0
665,2,29,2,2,16,9,0.0
666,2,29,2,2,16,9,0.0
667,2,29,2,2,16,9,0.0
668,2,29,2,2,16,9,0.0
669,2,29,2,2,16,9,0.0
670,2,29,2,2,16,9,0.0
671,2,29,2,1,17,9,0.0
672,2,28,3,1,17,9,0.0
673,2,28,2,2,17,9,1.0
674,2,28,2,2,17,9,0.0
675,2,28,2,2,17,9,0.0
676,2,28,2,2,17,9,0.0
677,2,28,2,2,17,9,0.0
678,2,28,2,2,17,9,0.0
679,2,28,2,2,17,9,0.0
680,2,28,2,2,17,9,0.0
681,2,28,2,2,17,9,0.0
682,2,28,2,2,17,9,0.0
683,2,28,2,2,17,9,0.0
684,2,28,2,2,17,9,0.0
685,2,28,2,2,17,9,0.0
686,2,28,2,2,17,9,0.0
687,2,28,2,2,17,9,0.0
688,2,28,2,2,17,9,0.0
689,2,28,2,2,17,9,0.0
690,2,28,2,2,17,9,0.0
691,2,28,2,2,17,9,0.0
692,2,28,2,2,17,9,0.0
693,2,28,2,2,17,9,0.0
694,2,28,2,2,17,9,0.0
695,2,28,2,2,17,9,0.0
696,2,28,2,2,17,9,0.0
697,2,28,2,2,17,9,0.0
698,2,28,2,2,17,9,0.0
699,2,28,1,3,17,9,0.0
700,2,28,1,3,17,9,0.0
701,2,28,1,3,17,9,0.0
702,2,28,1,3,17,9,0.0
703,2,28,1,3,17,9,0.0
704,2,28,1,3,17,9,0.0
705,2,28,1,3,17,9,0.0
706,2,28,1,3,17,9,0.0
707,2,28,1,3,17,9,0.0
708,2,28,1,3,17,9,0.0
709,2,28,1,3,17,9,0.0
710,2,28,1,3,17,9,0.0
711,2,27,2,2,17,10,0.0
712,2,27,2,2,17,10,0.5
713,2,27,2,2,17,10,0.0
714,2,27,2,2,17,10,0.0
715,2,27,2,2,17,10,0.0
716,2,27,2,2,17,10,0.0
717,2,27,2,2,17,10,0.0
718,2,27,2,2,17,10,0.0
719,2,27,2,2,17,10,0.0
720,2,27,2,2,17,10,0.0
721,2,27,2,2,17,10,0.0
722,2,27,2,2,17,10,0.0
723,2,27,2,2,17,10,0.0
724,2,27,2,2,17,10,0.0
725,2,27,2,2,17,10,0.0
726,2,27,2,2,17,10,0.0
727,2,27,2,2,17,10,0.0
728,2,27,2,2,17,10,0.0
729,2,27,2,2,17,10,0.0
730,2,27,2,2,17,10,0.0
731,2,27,2,2,17,10,0.0
732,2,27,2,2,17,10,0.0
733,2,27,2,2,17,10,0.0
734,2,27,2,2,17,10,0.0
735,2,27,2,2,17,10,0.0
736,2,27,2,2,17,10,0.0
737,2,27,2,2,17,10,0.0
738,2,27,2,2,17,10,0.0
739,2,27,2,2,17,10,0.0
740,2,27,2,2,17,10,0.0
741,2,27,2,2,17,10,0.0
742,2,27,2,2,17,10,0.0
743,2,27,2,2,17,10,0.0
744,2,27,2,2,17,10,0.0
745,2,27,2,2,17,10,0.0
746,2,27,2,2,17,10,0.0
747,2,27,2,2,17,10,0.0
748,2,27,2,2,17,10,0.0
749,2,27,2,2,17,10,0.0
750,2,27,2,2,17,10,0.0
751,2,27,2,2,17,10,0.0
752,2,27,2,2,17,10,0.0
753,2,27,2,2,17,10,0.0
754,2,27,2,2,17,10,0.0
755,2,27,1,3,17,10,0.0
756,2,24,4,3,17,10,0.0
757,2,24,4,3,17,10,1.0
758,2,24,4,3,17,10,0.0
759,2,24,4,3,17,10,0.0
760,2,24,4,3,17,10,0.0
761,2,24,4,3,17,10,0.0
762,2,24,4,2,18,10,0.0
763,2,24,4,2,18,10,0.0
764,2,24,4,2,18,10,0.0
765,2,24,4,2,18,10,0.0
766,2,24,4,2,18,10,0.0
767,2,24,4,2,18,10,0.0
768,2,24,4,2,18,10,0.0
769,2,24,4,2,18,10,0.0
770,2,24,4,2,18,10,0.0
771,2,24,4,2,18,10,0.0
772,2,24,4,2,18,10,0.0
773,2,24,4,2,18,10,0.0
774,2,24,4,2,18,10,0.0
775,2,24,4,2,18,10,0.0
776,2,24,4,2,18,10,0.0
777,2,24,4,2,18,10,0.0
778,2,24,4,2,18,10,0.0
779,2,24,4,2,18,10,0.0
780,2,24,4,2,18,10,0.0
781,2,24,4,2,18,10,0.0
782,2,24,4,2,18,10,0.0
783,2,24,3,3,18,10,0.0
784,2,24,3,3,18,10,0.0
785,2,24,3,3,18,10,0.0
786,2,24,3,3,18,10,0.0
787,2,24,2,4,18,10,0.0
788,2,24,2,4,18,10,0.0
789,2,24,2,4,18,10,0.0
790,2,24,2,4,18,10,0.0
791,2,24,2,4,18,10,0.0
792,2,24,2,4,18,10,0.0
793,2,24,2,4,18,10,0.0
794,2,24,2,4,18,10,0.0
795,2,23,3,4,18,10,0.0
796,2,23,3,4,18,10,0.25
797,2,23,3,4,18,10,0.0
798,2,23,3,4,18,10,0.0
799,2,22,4,4,18,10,0.0
800,2,22,4,4,18,10,0.25
801,2,22,4,4,18,10,0.0
802,2,22,4,4,18,10,0.0
803,2,22,4,4,18,10,0.0
804,2,22,4,4,18,10,0.0
805,2,22,4,4,18,10,0.0
806,2,22,4,4,18,10,0.0
807,2,22,4,4,18,10,0.0
808,2,22,4,4,18,10,0.0
809,2,22,4,4,18,10,0.0
810,2,22,4,4,18,10,0.0
811,2,22,4,4,18,10,0.0
812,2,22,4,4,18,10,0.0
813,2,22,4,4,18,10,0.0
814,2,22,4,4,18,10,0.0
815,2,22,4,4,18,10,0.0
816,2,22,4,4,18,10,0.0
817,2,22,4,4,18,10,0.0
818,2,22,4,4,18,10,0.0
819,2,22,4,4,18,10,0.0
820,2,22,4,4,18,10,0.0
821,2,22,4,4,18,10,0.0
822,2,22,4,4,18,10,0.0
823,2,22,4,4,18,10,0.0
824,2,22,4,4,18,10,0.0
825,2,22,4,4,18,10,0.0
826,2,22,4,4,18,10,0.0
827,2,22,4,4,18,10,0.0
828,2,22,4,4,18,10,0.0
829,2,22,4,4,18,10,0.0
830,2,22,4,3,19,10,0.0
831,2,22,3,4,19,10,0.0
832,2,22,3,4,19,10,0.0
833,2,22,3,4,19,10,0.0
834,2,22,3,4,19,10,0.0
835,2,22,3,4,19,10,0.0
836,2,22,3,4,19,10,0.0
837,2,22,3,4,19,10,0.0
838,2,22,3,4,19,10,0.0
839,2,22,3,4,19,10,0.0
840,2,22,3,4,19,10,0.0
841,2,22,3,4,19,10,0.0
842,2,22,3,4,19,10,0.0
843,2,22,3,3,20,10,0.0
844,2,22,2,3,20,11,0.0
845,2,22,2,3,20,11,0.0
846,2,22,2,3,20,11,0.0
847,2,22,2,3,20,11,0.0
848,2,22,2,3,20,11,0.0
849,2,22,2,3,20,11,0.0
850,2,22,2,3,20,11,0.0
851,2,22,2,3,20,11,0.0
852,2,22,2,3,20,11,0.0
853,2,22,2,3,20,11,0.0
854,2,22,2,3,20,11,0.0
855,2,22,2,3,20,11,0.0
856,2,22,2,3,20,11,0.0
857,2,22,2,3,20,11,0.0
858,2,22,2,3,20,11,0.0
859,2,22,2,3,20,11,0.0
860,2,22,2,3,20,11,0.0
861,2,22,2,3,20,11,0.0
862,2,22,2,3,20,11,0.0
863,2,22,2,2,21,11,0.0
864,2,22,1,3,21,11,0.0
865,2,22,1,3,21,11,0.0
866,2,22,1,3,21,11,0.0
867,2,22,1,3,21,11,0.0
868,2,22,1,3,21,11,0.0
869,2,22,1,3,21,11,0.0
870,2,22,1,3,21,11,0.0
871,2,22,1,3,21,11,0.0
872,2,22,1,3,21,11,0.0
873,2,22,0,4,21,11,0.0
874,2,22,0,4,21,11,0.0
875,2,22,0,4,21,11,0.0
876,2,22,0,4,21,11,0.0
877,2,22,0,4,21,11,0.0
878,2,22,0,4,21,11,0.0
879,2,22,0,4,21,11,0.0
880,2,22,0,4,21,11,0.0
881,2,22,0,4,21,11,0.0
882,2,22,0,4,21,11,0.0
883,2,22,0,4,21,11,0.0
884,2,22,0,4,21,11,0.0
885,2,22,0,4,21,11,0.0
886,2,22,0,4,21,11,0.0
887,2,22,0,4,21,11,0.0
888,2,22,0,4,21,11,0.0
889,2,22,0,4,21,11,0.0
890,2,22,0,4,21,11,0.0
891,2,22,0,4,21,11,0.0
892,2,22,0,4,21,11,0.0
893,2,22,0,4,21,11,0.0
894,2,22,0,4,21,11,0.0
895,2,22,0,4,21,11,0.0
896,2,22,0,4,21,11,0.0
897,2,22,0,4,21,11,0.0
898,2,22,0,4,21,11,0.0
899,2,22,0,4,21,11,0.0
900,2,22,0,4,21,11,0.0
901,2,22,0,4,21,11,0.0
902,2,22,0,4,21,11,0.0
903,2,22,0,4,21,11,0.0
904,2,22,0,4,21,11,0.0
905,2,22,0,3,22,11,0.0
906,2,22,0,3,22,11,0.0
907,2,22,0,3,22,11,0.0
908,2,22,0,3,22,11,0.0
909,2,22,0,3,22,11,0.0
910,2,22,0,3,22,11,0.0
911,2,22,0,3,22,11,0.0
912,2,22,0,3,22,11,0.0
913,2,22,0,3,22,11,0.0
914,2,22,0,3,22,11,0.0
915,2,22,0,3,22,11,0.0
916,2,22,0,3,22,11,0.0
917,2,22,0,3,22,11,0.0
918,2,22,0,3,22,11,0.0
919,2,22,0,3,22,11,0.0
920,2,22,0,3,22,11,0.0
921,2,22,0,3,22,11,0.0
922,2,22,0,3,22,11,0.0
923,2,22,0,3,22,11,0.0
924,2,22,0,3,22,11,0.0
925,2,22,0,3,22,11,0.0
926,2,22,0,3,22,11,0.0
927,2,22,0,3,22,11,0.0
928,2,22,0,3,22,11,0.0
929,2,22,0,3,22,11,0.0
930,2,22,0,3,22,11,0.0
931,2,22,0,3,22,11,0.0
932,2,22,0,3,22,11,0.0
933,2,22,0,3,22,11,0.0
934,2,22,0,3,22,11,0.0
935,2,22,0,3,22,11,0.0
936,2,22,0,3,22,11,0.0
937,2,22,0,3,22,11,0.0
938,2,22,0,3,22,11,0.0
939,2,22,0,3,22,11,0.0
940,2,22,0,3,22,11,0.0
941,2,22,0,3,22,11,0.0
942,2,22,0,3,22,11,0.0
943,2,22,0,3,22,11,0.0
944,2,22,0,3,22,11,0.0
945,2,22,0,3,22,11,0.0
946,2,22,0,3,22,11,0.0
947,2,22,0,3,22,11,0.0
948,2,22,0,3,22,11,0.0
949,2,22,0,3,22,11,0.0
950,2,22,0,3,22,11,0.0
951,2,22,0,3,22,11,0.0
952,2,22,0,3,22,11,0.0
953,2,22,0,3,22,11,0.0
954,2,22,0,3,22,11,0.0
955,2,22,0,3,22,11,0.0
956,2,22,0,3,22,11,0.0
957,2,22,0,3,22,11,0.0
958,2,22,0,3,22,11,0.0
959,2,22,0,2,23,11,0.0
960,2,22,0,2,23,11,0.0
961,2,22,0,2,23,11,0.0
962,2,22,0,2,23,11,0.0
963,2,22,0,2,23,11,0.0
964,2,22,0,2,23,11,0.0
965,2,22,0,2,23,11,0.0
966,2,22,0,2,23,11,0.0
967,2,22,0,2,23,11,0.0
968,2,22,0,2,23,11,0.0
969,2,22,0,2,23,11,0.0
970,2,22,0,2,23,11,0.0
971,2,22,0,2,23,11,0.0
972,2,22,0,2,23,11,0.0
973,2,22,0,2,23,11,0.0
974,2,22,0,2,23,11,0.0
975,2,22,0,2,23,11,0.0
976,2,22,0,2,23,11,0.0
977,2,22,0,2,23,11,0.0
978,2,22,0,2,23,11,0.0
979,2,22,0,2,23,11,0.0
980,2,22,0,2,23,11,0.0
981,2,22,0,2,23,11,0.0
982,2,22,0,2,23,11,0.0
983,2,22,0,2,23,11,0.0
984,2,22,0,1,24,11,0.0
985,2,22,0,1,24,11,0.0
986,2,22,0,1,24,11,0.0
987,2,22,0,1,24,11,0.0
988,2,22,0,1,24,11,0.0
989,2,22,0,1,24,11,0.0
990,2,22,0,1,24,11,0.0
991,2,22,0,1,24,11,0.0
992,2,22,0,1,24,11,0.0
993,2,22,0,1,24,11,0.0
994,2,22,0,0,24,12,0.0
995,2,22,0,0,24,12,0
