t,maternally_immune,susceptible,exposed,infectious,recovered,dead,r0
0,0,41,11,7,1,0,0
1,0,41,11,7,1,0,0
2,0,41,11,7,1,0,0.0
3,0,41,11,7,1,0,0.0
4,0,41,11,7,1,0,0.0
5,0,41,11,7,1,0,0.0
6,0,41,11,7,1,0,0.0
7,0,41,11,7,1,0,0.0
8,0,41,11,7,1,0,0.0
9,0,41,11,7,1,0,0.0
10,0,41,11,7,1,0,0.0
11,0,41,11,7,1,0,0.0
12,0,41,11,7,1,0,0.0
13,0,41,11,7,1,0,0.0
14,0,40,12,7,1,0,0.0
15,0,40,11,8,1,0,0.14285714285714285
16,0,40,11,8,1,0,0.0
17,0,40,11,8,1,0,0.0
18,0,40,10,9,1,0,0.0
19,0,40,10,9,1,0,0.0
20,0,40,10,9,1,0,0.0
21,0,40,10,9,1,0,0.0
22,0,40,10,9,1,0,0.0
23,0,40,10,9,1,0,0.0
24,0,40,10,9,1,0,0.0
25,0,40,10,9,1,0,0.0
26,0,40,10,9,1,0,0.0
27,0,40,10,9,1,0,0.0
28,0,40,10,9,1,0,0.0
29,0,40,10,9,1,0,0.0
30,0,40,10,9,1,0,0.0
31,0,40,10,9,1,0,0.0
32,0,40,9,10,1,0,0.0
33,0,40,9,10,1,0,0.0
34,0,40,9,10,1,0,0.0
35,0,40,9,10,1,0,0.0
36,0,40,9,10,1,0,0.0
37,0,40,9,10,1,0,0.0
38,0,40,9,10,1,0,0.0
39,0,40,9,10,1,0,0.0
40,0,40,9,10,1,0,0.0
41,0,40,9,10,1,0,0.0
42,0,39,10,10,1,0,0.0
43,0,39,10,10,1,0,0.1
44,0,39,10,10,1,0,0.0
45,0,39,10,10,1,0,0.0
46,0,39,10,10,1,0,0.0
47,0,39,10,10,1,0,0.0
48,0,39,10,10,1,0,0.0
49,0,39,10,10,1,0,0.0
50,0,39,10,10,1,0,0.0
51,0,39,10,10,1,0,0.0
52,0,39,10,10,1,0,0.0
53,0,39,10,10,1,0,0.0
54,0,39,10,10,1,0,0.0
55,0,39,10,10,1,0,0.0
56,0,39,10,10,1,0,0.0
57,0,39,10,10,1,0,0.0
58,0,39,10,10,1,0,0.0
59,0,39,10,10,1,0,0.0
60,0,39,10,10,1,0,0.0
61,0,39,9,10,2,0,0.0
62,0,39,9,10,2,0,0.0
63,0,39,8,11,2,0,0.0
64,0,39,8,11,2,0,0.0
65,0,38,9,10,3,0,0.0
66,0,38,9,10,3,0,0.1
67,0,38,9,10,3,0,0.0
68,0,38,9,10,3,0,0.0
69,0,38,9,10,3,0,0.0
70,0,38,9,10,3,0,0.0
71,0,38,8,11,3,0,0.0
72,0,38,7,12,3,0,0.0
73,0,38,7,12,3,0,0.0
74,0,38,7,12,3,0,0.0
75,0,38,7,12,3,0,0.0
76,0,38,7,12,3,0,0.0
77,0,38,7,12,3,0,0.0
78,0,38,7,12,3,0,0.0
79,0,38,7,11,4,0,0.0
80,0,38,7,11,4,0,0.0
81,0,38,7,11,4,0,0.0
82,0,38,6,12,4,0,0.0
83,0,38,6,12,4,0,0.0
84,0,38,6,12,4,0,0.0
85,0,38,5,13,4,0,0.0
86,0,38,4,14,4,0,0.0
87,0,38,4,14,4,0,0.0
88,0,38,4,14,4,0,0.0
89,0,38,4,14,4,0,0.0
90,0,38,4,14,4,0,0.0
91,0,38,4,14,4,0,0.0
92,0,37,5,14,4,0,0.0
93,0,36,6,14,4,0,0.07142857142857142
94,0,35,7,14,4,0,0.07142857142857142
95,0,35,7,14,4,0,0.07142857142857142
96,0,35,7,14,4,0,0.0
97,0,35,7,14,4,0,0.0
98,0,35,7,14,4,0,0.0
99,0,35,6,15,4,0,0.0
100,0,34,7,15,4,0,0.0
101,0,34,7,13,6,0,0.06666666666666667
102,0,34,7,12,7,0,0.0
103,0,34,7,12,7,0,0.0
104,0,34,7,11,7,1,0.0
105,0,34,7,11,7,1,0.0
106,0,33,7,12,7,1,0.0
107,0,33,6,13,7,1,0.08333333333333333
108,0,33,6,13,7,1,0.0
109,0,33,6,13,7,1,0.0
110,0,33,6,13,7,1,0.0
111,0,33,6,13,7,1,0.0
112,0,33,6,12,8,1,0.0
113,0,33,6,12,8,1,0.0
114,0,33,6,11,9,1,0.0
115,0,33,6,11,9,1,0.0
116,0,33,6,11,9,1,0.0
117,0,32,7,11,9,1,0.0
118,0,32,7,11,9,1,0.09090909090909091
119,0,32,7,11,9,1,0.0
120,0,32,7,11,9,1,0.0
121,0,32,7,10,10,1,0.0
122,0,32,7,10,10,1,0.0
123,0,32,7,10,10,1,0.0
124,0,32,7,10,10,1,0.0
125,0,32,7,10,10,1,0.0
126,0,31,7,11,10,1,0.0
127,0,31,7,10,11,1,0.09090909090909091
128,0,30,8,10,11,1,0.0
129,0,30,8,10,11,1,0.1
130,0,30,7,11,11,1,0.0
131,0,30,7,11,11,1,0.0
132,0,30,7,11,11,1,0.0
133,0,30,7,10,11,2,0.0
134,0,30,7,10,11,2,0.0
135,0,30,7,10,11,2,0.0
136,0,30,7,9,12,2,0.0
137,0,28,9,9,12,2,0.0
138,0,28,9,9,12,2,0.2222222222222222
139,0,28,9,8,13,2,0.0
140,0,28,9,8,13,2,0.0
141,0,28,9,8,13,2,0.0
142,0,28,9,8,13,2,0.0
143,0,28,9,8,13,2,0.0
144,0,28,8,9,13,2,0.0
145,0,28,8,9,13,2,0.0
146,0,28,8,9,13,2,0.0
147,0,28,8,9,13,2,0.0
148,0,28,8,9,13,2,0.0
149,0,28,8,9,13,2,0.0
150,0,26,10,9,13,2,0.0
151,0,26,9,10,13,2,0.2222222222222222
152,0,26,9,10,13,2,0.0
153,0,26,8,11,13,2,0.0
154,0,25,9,11,13,2,0.0
155,0,25,9,11,13,2,0.09090909090909091
156,0,25,9,10,14,2,0.0
157,0,25,9,10,14,2,0.0
158,0,25,9,10,14,2,0.0
159,0,25,9,10,14,2,0.0
160,0,25,9,10,14,2,0.0
161,0,24,10,9,15,2,0.0
162,0,24,10,9,15,2,0.1111111111111111
163,0,24,10,9,15,2,0.0
164,0,24,10,9,15,2,0.0
165,0,23,10,10,15,2,0.0
166,0,23,10,10,15,2,0.1
167,0,23,10,10,15,2,0.0
168,0,22,10,11,15,2,0.0
169,0,22,10,11,15,2,0.09090909090909091
170,0,22,10,11,15,2,0.0
171,0,22,10,11,15,2,0.0
172,0,22,10,10,16,2,0.0
173,0,22,10,10,16,2,0.0
174,0,22,10,10,16,2,0.0
175,0,22,10,10,16,2,0.0
176,0,22,9,11,16,2,0.0
177,0,22,9,11,16,2,0.0
178,0,21,10,11,16,2,0.0
179,0,21,10,11,16,2,0.09090909090909091
180,0,21,10,11,16,2,0.0
181,0,21,10,11,16,2,0.0
182,0,21,10,11,16,2,0.0
183,0,21,10,11,16,2,0.0
184,0,21,10,11,16,2,0.0
185,0,21,10,11,16,2,0.0
186,0,21,10,11,16,2,0.0
187,0,20,11,11,16,2,0.0
188,0,18,13,11,16,2,0.09090909090909091
189,0,18,13,11,16,2,0.18181818181818182
190,0,18,13,11,16,2,0.0
191,0,18,13,11,16,2,0.0
192,0,18,12,12,16,2,0.0
193,0,17,12,13,16,2,0.0
194,0,16,12,13,17,2,0.07692307692307693
195,0,16,12,13,17,2,0.07692307692307693
196,0,16,11,14,17,2,0.0
197,0,16,11,14,17,2,0.0
198,0,16,10,15,17,2,0.0
199,0,15,11,15,17,2,0.0
200,0,15,11,15,17,2,0.06666666666666667
201,0,15,11,15,17,2,0.0
202,0,15,11,15,17,2,0.0
203,0,15,11,15,17,2,0.0
204,0,15,11,15,17,2,0.0
205,0,15,11,15,17,2,0.0
206,0,15,11,15,17,2,0.0
207,0,15,11,15,17,2,0.0
208,0,15,11,15,17,2,0.0
209,0,15,11,15,17,2,0.0
210,0,15,11,15,17,2,0.0
211,0,15,11,15,17,2,0.0
212,0,14,12,15,17,2,0.0
213,0,14,12,15,17,2,0.06666666666666667
214,0,13,13,15,17,2,0.0
215,0,13,13,14,18,2,0.06666666666666667
216,0,13,12,15,18,2,0.0
217,0,13,12,15,18,2,0.0
218,0,13,12,15,18,2,0.0
219,0,13,11,16,18,2,0.0
220,0,13,10,16,19,2,0.0
221,0,13,10,15,20,2,0.0
222,0,13,10,15,20,2,0.0
223,0,13,10,15,20,2,0.0
224,0,13,10,14,21,2,0.0
225,0,13,10,14,21,2,0.0
226,0,13,10,14,21,2,0.0
227,0,13,10,14,21,2,0.0
228,0,13,10,13,22,2,0.0
229,0,13,10,13,22,2,0.0
230,0,13,10,13,22,2,0.0
231,0,13,10,13,22,2,0.0
232,0,13,10,13,22,2,0.0
233,0,13,10,12,22,3,0.0
234,0,13,10,12,22,3,0.0
235,0,13,10,12,22,3,0.0
236,0,13,10,12,22,3,0.0
237,0,13,10,12,22,3,0.0
238,0,12,11,12,22,3,0.0
239,0,11,12,12,22,3,0.08333333333333333
240,0,11,11,13,22,3,0.08333333333333333
241,0,11,11,13,22,3,0.0
242,0,11,11,13,22,3,0.0
243,0,10,12,13,22,3,0.0
244,0,10,11,14,22,3,0.07692307692307693
245,0,10,11,14,22,3,0.0
246,0,10,11,14,22,3,0.0
247,0,10,10,15,22,3,0.0
248,0,10,10,14,23,3,0.0
249,0,9,11,14,23,3,0.0
250,0,9,11,14,23,3,0.07142857142857142
251,0,8,12,14,23,3,0.0
252,0,8,12,14,23,3,0.07142857142857142
253,0,7,13,14,23,3,0.0
254,0,7,13,14,23,3,0.07142857142857142
255,0,6,14,14,23,3,0.0
256,0,6,14,14,23,3,0.07142857142857142
257,0,6,14,14,23,3,0.0
258,0,6,14,13,24,3,0.0
259,0,6,14,12,25,3,0.0
260,0,6,14,12,25,3,0.0
261,0,6,14,12,25,3,0.0
262,0,6,14,12,25,3,0.0
263,0,6,14,12,25,3,0.0
264,0,6,14,12,25,3,0.0
265,0,6,14,12,25,3,0.0
266,0,6,14,12,25,3,0.0
267,0,6,13,13,25,3,0.0
268,0,6,12,14,25,3,0.0
269,0,6,12,14,25,3,0.0
270,0,6,12,14,25,3,0.0
271,0,6,12,14,25,3,0.0
272,0,6,12,14,25,3,0.0
273,0,6,12,14,25,3,0.0
274,0,6,12,14,25,3,0.0
275,0,6,12,14,25,3,0.0
276,0,6,11,14,26,3,0.0
277,0,6,11,14,26,3,0.0
278,0,6,10,15,26,3,0.0
279,0,6,10,15,26,3,0.0
280,0,6,10,15,26,3,0.0
281,0,6,10,15,26,3,0.0
282,0,6,9,16,26,3,0.0
283,0,6,9,16,26,3,0.0
284,0,6,9,14,27,4,0.0
285,0,6,8,15,27,4,0.0
286,0,6,8,15,27,4,0.0
287,0,6,8,15,27,4,0.0
288,0,6,8,15,27,4,0.0
289,0,6,8,15,27,4,0.0
290,0,6,8,15,27,4,0.0
291,0,6,8,15,27,4,0.0
292,0,6,8,15,27,4,0.0
293,0,6,8,14,28,4,0.0
294,0,6,8,14,28,4,0.0
295,0,6,8,14,28,4,0.0
296,0,6,8,13,28,5,0.0
297,0,6,7,14,28,5,0.0
298,0,6,7,14,28,5,0.0
299,0,6,7,13,28,6,0.0
300,0,6,7,13,28,6,0.0
301,0,6,7,12,29,6,0.0
302,0,6,7,12,29,6,0.0
303,0,6,7,12,29,6,0.0
304,0,6,6,12,30,6,0.0
305,0,6,6,12,30,6,0.0
306,0,6,6,11,31,6,0.0
307,0,6,5,12,31,6,0.0
308,0,6,5,12,31,6,0.0
309,0,6,4,13,31,6,0.0
310,0,6,4,13,31,6,0.0
311,0,6,4,13,31,6,0.0
312,0,6,4,13,31,6,0.0
313,0,6,4,12,32,6,0.0
314,0,5,5,12,32,6,0.0
315,0,5,5,12,32,6,0.08333333333333333
316,0,5,4,13,32,6,0.0
317,0,5,4,13,32,6,0.0
318,0,5,4,13,32,6,0.0
319,0,5,4,13,32,6,0.0
320,0,5,4,13,32,6,0.0
321,0,5,3,14,32,6,0.0
322,0,5,3,14,32,6,0.0
323,0,5,3,14,32,6,0.0
324,0,5,3,14,32,6,0.0
325,0,5,3,14,32,6,0.0
326,0,5,3,14,32,6,0.0
327,0,5,3,14,32,6,0.0
328,0,5,2,15,32,6,0.0
329,0,5,2,15,32,6,0.0
330,0,5,2,15,32,6,0.0
331,0,5,2,15,32,6,0.0
332,0,5,2,15,32,6,0.0
333,0,5,2,15,32,6,0.0
334,0,5,2,15,32,6,0.0
335,0,5,2,15,32,6,0.0
336,0,5,2,15,32,6,0.0
337,0,5,1,16,32,6,0.0
338,0,5,1,16,32,6,0.0
339,0,5,1,16,32,6,0.0
340,0,4,2,15,33,6,0.0
341,0,4,2,15,33,6,0.06666666666666667
342,0,4,2,15,33,6,0.0
343,0,4,2,15,33,6,0.0
344,0,4,2,15,33,6,0.0
345,0,4,2,15,33,6,0.0
346,0,4,2,15,33,6,0.0
347,0,3,3,15,33,6,0.0
348,0,3,3,14,34,6,0.06666666666666667
349,0,3,3,14,34,6,0.0
350,0,3,3,14,34,6,0.0
351,0,3,3,13,35,6,0.0
352,0,3,3,13,35,6,0.0
353,0,2,4,13,35,6,0.0
354,0,2,4,13,35,6,0.07692307692307693
355,0,2,4,13,35,6,0.0
356,0,2,4,13,35,6,0.0
357,0,2,4,13,35,6,0.0
358,0,2,4,13,35,6,0.0
359,0,2,4,13,35,6,0.0
360,0,2,4,13,35,6,0.0
361,0,2,4,12,36,6,0.0
362,0,2,4,12,36,6,0.0
363,0,2,4,12,36,6,0.0
364,0,2,4,12,36,6,0.0
365,0,2,4,10,37,7,0.0
366,0,2,4,10,37,7,0.0
367,0,2,4,10,37,7,0.0
368,0,2,4,10,37,7,0.0
369,0,2,4,10,37,7,0.0
370,0,2,4,9,37,8,0.0
371,0,2,4,9,37,8,0.0
372,0,2,4,9,37,8,0.0
373,0,2,4,9,37,8,0.0
374,0,2,4,9,37,8,0.0
375,0,2,4,9,37,8,0.0
376,0,2,4,9,37,8,0.0
377,0,2,4,9,37,8,0.0
378,0,2,3,10,37,8,0.0
379,0,2,3,10,37,8,0.0
380,0,2,3,10,37,8,0.0
381,0,2,3,10,37,8,0.0
382,0,2,3,9,37,9,0.0
383,0,2,3,9,37,9,0.0
384,0,2,3,9,37,9,0.0
385,0,2,3,9,37,9,0.0
386,0,2,3,9,37,9,0.0
387,0,2,3,9,37,9,0.0
388,0,2,3,8,38,9,0.0
389,0,2,3,8,38,9,0.0
390,0,2,3,8,38,9,0.0
391,0,2,3,8,38,9,0.0
392,0,2,3,7,39,9,0.0
393,0,2,3,7,39,9,0.0
394,0,2,3,7,39,9,0.0
395,0,2,3,7,39,9,0.0
396,0,2,3,7,39,9,0.0
397,0,2,3,6,40,9,0.0
398,0,2,3,6,40,9,0.0
399,0,2,3,6,40,9,0.0
400,0,2,3,6,40,9,0.0
401,0,2,3,6,40,9,0.0
402,0,2,3,6,40,9,0.0
403,0,2,3,6,40,9,0.0
404,0,2,3,6,40,9,0.0
405,0,2,3,6,40,9,0.0
406,0,2,3,6,40,9,0.0
407,0,2,3,6,40,9,0.0
408,0,2,3,6,40,9,0.0
409,0,2,3,6,40,9,0.0
410,0,2,3,6,40,9,0.0
411,0,2,3,6,40,9,0.0
412,0,2,3,6,40,9,0.0
413,0,2,2,5,42,9,0.0
414,0,2,1,6,42,9,0.0
415,0,2,1,6,42,9,0.0
416,0,2,1,6,42,9,0.0
417,0,2,1,5,42,10,0.0
418,0,2,1,5,42,10,0.0
419,0,2,1,5,42,10,0.0
420,0,2,1,5,42,10,0.0
421,0,2,1,5,42,10,0.0
422,0,2,1,5,42,10,0.0
423,0,2,1,5,42,10,0.0
424,0,2,1,5,42,10,0.0
425,0,2,1,5,42,10,0.0
426,0,2,1,5,42,10,0.0
427,0,2,1,5,42,10,0.0
428,0,2,1,5,42,10,0.0
429,0,2,1,5,42,10,0.0
430,0,2,1,5,42,10,0.0
431,0,2,1,4,43,10,0.0
432,0,2,1,4,43,10,0.0
433,0,2,0,4,44,10,0.0
434,0,2,0,4,44,10,0.0
435,0,2,0,4,44,10,0.0
436,0,2,0,4,44,10,0.0
437,0,2,0,4,44,10,0.0
438,0,2,0,4,44,10,0.0
439,0,2,0,4,44,10,0.0
440,0,2,0,4,44,10,0.0
441,0,2,0,4,44,10,0.0
442,0,2,0,4,44,10,0.0
443,0,2,0,4,44,10,0.0
444,0,2,0,4,44,10,0.0
445,0,2,0,4,44,10,0.0
446,0,2,0,4,44,10,0.0
447,0,2,0,4,44,10,0.0
448,0,2,0,4,44,10,0.0
449,0,2,0,4,44,10,0.0
450,0,2,0,4,44,10,0.0
451,0,2,0,4,44,10,0.0
452,0,2,0,4,44,10,0.0
453,0,2,0,4,44,10,0.0
454,0,2,0,4,44,10,0.0
455,0,2,0,4,44,10,0.0
456,0,2,0,4,44,10,0.0
457,0,2,0,4,44,10,0.0
458,0,2,0,4,44,10,0.0
459,0,2,0,4,44,10,0.0
460,0,2,0,4,44,10,0.0
461,0,2,0,4,44,10,0.0
462,0,2,0,4,44,10,0.0
463,0,2,0,4,44,10,0.0
464,0,2,0,4,44,10,0.0
465,0,2,0,4,44,10,0.0
466,0,2,0,4,44,10,0.0
467,0,2,0,4,44,10,0.0
468,0,2,0,4,44,10,0.0
469,0,2,0,4,44,10,0.0
470,0,2,0,4,44,10,0.0
471,0,2,0,4,44,10,0.0
472,0,2,0,4,44,10,0.0
473,0,2,0,4,44,10,0.0
474,0,2,0,4,44,10,0.0
475,0,2,0,4,44,10,0.0
476,0,2,0,4,44,10,0.0
477,0,2,0,4,44,10,0.0
478,0,2,0,4,44,10,0.0
479,0,2,0,4,44,10,0.0
480,0,2,0,4,44,10,0.0
481,0,2,0,4,44,10,0.0
482,0,2,0,4,44,10,0.0
483,0,2,0,4,44,10,0.0
484,0,2,0,4,44,10,0.0
485,0,2,0,4,44,10,0.0
486,0,2,0,4,44,10,0.0
487,0,2,0,4,44,10,0.0
488,0,2,0,4,44,10,0.0
489,0,2,0,4,44,10,0.0
490,0,2,0,4,44,10,0.0
491,0,2,0,4,44,10,0.0
492,0,2,0,4,44,10,0.0
493,0,2,0,4,44,10,0.0
494,0,2,0,4,44,10,0.0
495,0,2,0,4,44,10,0.0
496,0,2,0,4,44,10,0.0
497,0,2,0,4,44,10,0.0
498,0,2,0,4,44,10,0.0
499,0,2,0,4,44,10,0.0
500,0,2,0,3,45,10,0.0
501,0,2,0,3,45,10,0.0
502,0,2,0,2,46,10,0.0
503,0,2,0,2,46,10,0.0
504,0,2,0,2,46,10,0.0
505,0,2,0,2,46,10,0.0
506,0,2,0,2,46,10,0.0
507,0,2,0,2,46,10,0.0
508,0,2,0,2,46,10,0.0
509,0,2,0,2,46,10,0.0
510,0,2,0,2,46,10,0.0
511,0,2,0,2,46,10,0.0
512,0,2,0,2,46,10,0.0
513,0,2,0,2,46,10,0.0
514,0,2,0,2,46,10,0.0
515,0,2,0,2,46,10,0.0
516,0,2,0,2,46,10,0.0
517,0,2,0,2,46,10,0.0
518,0,2,0,2,46,10,0.0
519,0,2,0,2,46,10,0.0
520,0,2,0,2,46,10,0.0
521,0,2,0,2,46,10,0.0
522,0,2,0,2,46,10,0.0
523,0,2,0,2,46,10,0.0
524,0,2,0,2,46,10,0.0
525,0,2,0,2,46,10,0.0
526,0,2,0,2,46,10,0.0
527,0,2,0,2,46,10,0.0
528,0,2,0,2,46,10,0.0
529,0,2,0,1,47,10,0.0
530,0,2,0,1,47,10,0.0
531,0,2,0,1,47,10,0.0
532,0,2,0,1,47,10,0.0
533,0,2,0,0,48,10,0.0
534,0,2,0,0,48,10,0
