outbreak_duration,max_r0,remaining_susc_boids,nr_deaths,INITIAL_STATE_DISTRIBUTION,NR_BOIDS,INFECTION_PROBABILITY_FACTOR,AVG_INCUBATION_TIME,AVG_INFECTIOUS_PERIOD,LIKELIHOOD_SYMPTOMATIC,AVG_IMMUNITY_PERIOD,AVG_MATERNAL_IMMUNE_PROTECTION_PERIOD,SOCIAL_DISTANCE
425,1.0,36,1.0,"[0.01, 0.8, 0.1, 0.08, 0.01]",60,0.2,3,0,0.75,25000,120,20
606,1.0,37,6.0,"[0.01, 0.8, 0.1, 0.08, 0.01]",60,0.2,3,0,0.75,25000,120,20
425,1.0,42,4.0,"[0.01, 0.8, 0.1, 0.08, 0.01]",60,0.2,3,0,0.75,25000,120,20
454,1.0,38,3.0,"[0.01, 0.8, 0.1, 0.08, 0.01]",60,0.2,3,0,0.75,25000,120,20
509,1.0,17,11.0,"[0.01, 0.8, 0.1, 0.08, 0.01]",60,0.2,3,0,0.75,25000,120,20
2nd value
670,1.0,23,5.0,"[0.01, 0.8, 0.1, 0.08, 0.01]",60,0.2,3,2,0.75,25000,120,20
656,1.0,19,12.0,"[0.01, 0.8, 0.1, 0.08, 0.01]",60,0.2,3,2,0.75,25000,120,20
479,0.3333333333333333,20,10.0,"[0.01, 0.8, 0.1, 0.08, 0.01]",60,0.2,3,2,0.75,25000,120,20
660,1.0,40,4.0,"[0.01, 0.8, 0.1, 0.08, 0.01]",60,0.2,3,2,0.75,25000,120,20
448,0.3333333333333333,21,5.0,"[0.01, 0.8, 0.1, 0.08, 0.01]",60,0.2,3,2,0.75,25000,120,20
3rd value
550,0.14285714285714285,10,7.0,"[0.01, 0.8, 0.1, 0.08, 0.01]",60,0.2,3,4,0.75,25000,120,20
614,0.25,4,12.0,"[0.01, 0.8, 0.1, 0.08, 0.01]",60,0.2,3,4,0.75,25000,120,20
552,0.25,20,4.0,"[0.01, 0.8, 0.1, 0.08, 0.01]",60,0.2,3,4,0.75,25000,120,20
447,0.16666666666666666,3,18.0,"[0.01, 0.8, 0.1, 0.08, 0.01]",60,0.2,3,4,0.75,25000,120,20
922,1.0,9,10.0,"[0.01, 0.8, 0.1, 0.08, 0.01]",60,0.2,3,4,0.75,25000,120,20
4th value
748,0.2,2,11.0,"[0.01, 0.8, 0.1, 0.08, 0.01]",60,0.2,3,6,0.75,25000,120,20
865,0.16666666666666666,4,9.0,"[0.01, 0.8, 0.1, 0.08, 0.01]",60,0.2,3,6,0.75,25000,120,20
853,0.2857142857142857,19,7.0,"[0.01, 0.8, 0.1, 0.08, 0.01]",60,0.2,3,6,0.75,25000,120,20
761,0.16666666666666666,10,12.0,"[0.01, 0.8, 0.1, 0.08, 0.01]",60,0.2,3,6,0.75,25000,120,20
1355,1.0,12,6.0,"[0.01, 0.8, 0.1, 0.08, 0.01]",60,0.2,3,6,0.75,25000,120,20
5th value
1051,0.2,6,15.0,"[0.01, 0.8, 0.1, 0.08, 0.01]",60,0.2,3,8,0.75,25000,120,20
993,0.2,7,14.0,"[0.01, 0.8, 0.1, 0.08, 0.01]",60,0.2,3,8,0.75,25000,120,20
983,0.5,11,5.0,"[0.01, 0.8, 0.1, 0.08, 0.01]",60,0.2,3,8,0.75,25000,120,20
1253,0.5,10,9.0,"[0.01, 0.8, 0.1, 0.08, 0.01]",60,0.2,3,8,0.75,25000,120,20
973,0.3333333333333333,21,7.0,"[0.01, 0.8, 0.1, 0.08, 0.01]",60,0.2,3,8,0.75,25000,120,20
6th value
906,0.25,9,12.0,"[0.01, 0.8, 0.1, 0.08, 0.01]",60,0.2,3,10,0.75,25000,120,20
1259,0.14285714285714285,5,9.0,"[0.01, 0.8, 0.1, 0.08, 0.01]",60,0.2,3,10,0.75,25000,120,20
893,0.25,13,10.0,"[0.01, 0.8, 0.1, 0.08, 0.01]",60,0.2,3,10,0.75,25000,120,20
697,0.2,0,9.0,"[0.01, 0.8, 0.1, 0.08, 0.01]",60,0.2,3,10,0.75,25000,120,20
1058,0.3333333333333333,0,11.0,"[0.01, 0.8, 0.1, 0.08, 0.01]",60,0.2,3,10,0.75,25000,120,20
