t,maternally_immune,susceptible,exposed,infectious,recovered,dead,r0
0,0,47,6,5,2,0,0
1,0,47,6,5,2,0,0
2,0,47,6,5,2,0,0.0
3,0,47,6,5,2,0,0.0
4,0,47,6,5,2,0,0.0
5,0,47,6,5,2,0,0.0
6,0,47,6,5,2,0,0.0
7,0,47,6,5,2,0,0.0
8,0,47,6,5,2,0,0.0
9,0,47,5,6,2,0,0.0
10,0,47,5,6,2,0,0.0
11,0,47,5,6,2,0,0.0
12,0,47,5,6,2,0,0.0
13,0,47,5,6,2,0,0.0
14,0,47,5,6,2,0,0.0
15,0,47,5,6,2,0,0.0
16,0,47,5,6,2,0,0.0
17,0,47,5,6,2,0,0.0
18,0,47,5,6,2,0,0.0
19,0,47,5,6,2,0,0.0
20,0,47,5,6,2,0,0.0
21,0,47,5,6,2,0,0.0
22,0,47,5,6,2,0,0.0
23,0,47,5,6,2,0,0.0
24,0,47,5,6,2,0,0.0
25,0,47,5,6,2,0,0.0
26,0,47,5,6,2,0,0.0
27,0,47,5,6,2,0,0.0
28,0,47,5,6,2,0,0.0
29,0,47,4,7,2,0,0.0
30,0,47,4,7,2,0,0.0
31,0,47,4,7,2,0,0.0
32,0,47,4,7,2,0,0.0
33,0,47,4,7,2,0,0.0
34,0,47,4,7,2,0,0.0
35,0,47,4,7,2,0,0.0
36,0,47,4,7,2,0,0.0
37,0,47,4,7,2,0,0.0
38,0,47,4,7,2,0,0.0
39,0,47,4,7,2,0,0.0
40,0,47,4,7,2,0,0.0
41,0,47,4,7,2,0,0.0
42,0,47,4,7,2,0,0.0
43,0,47,3,8,2,0,0.0
44,0,47,3,8,2,0,0.0
45,0,46,4,8,2,0,0.0
46,0,46,4,7,3,0,0.125
47,0,46,4,7,3,0,0.0
48,0,46,4,7,3,0,0.0
49,0,46,4,7,3,0,0.0
50,0,46,3,8,3,0,0.0
51,0,46,3,8,3,0,0.0
52,0,46,3,8,3,0,0.0
53,0,46,3,8,3,0,0.0
54,0,46,3,8,3,0,0.0
55,0,46,3,8,3,0,0.0
56,0,46,3,8,3,0,0.0
57,0,46,3,8,3,0,0.0
58,0,46,3,8,3,0,0.0
59,0,46,3,8,3,0,0.0
60,0,46,3,8,3,0,0.0
61,0,46,2,9,3,0,0.0
62,0,46,2,9,3,0,0.0
63,0,46,2,9,3,0,0.0
64,0,46,2,9,3,0,0.0
65,0,46,2,9,3,0,0.0
66,0,46,2,9,3,0,0.0
67,0,46,2,9,3,0,0.0
68,0,46,2,9,3,0,0.0
69,0,46,2,9,3,0,0.0
70,0,46,2,9,3,0,0.0
71,0,46,2,9,3,0,0.0
72,0,46,2,8,4,0,0.0
73,0,46,2,7,5,0,0.0
74,0,46,2,7,5,0,0.0
75,0,46,2,7,5,0,0.0
76,0,46,2,7,5,0,0.0
77,0,46,2,6,6,0,0.0
78,0,46,2,6,6,0,0.0
79,0,45,3,5,7,0,0.0
80,0,45,3,5,7,0,0.2
81,0,45,3,5,7,0,0.0
82,0,45,3,5,7,0,0.0
83,0,45,3,5,7,0,0.0
84,0,45,3,5,7,0,0.0
85,0,45,3,5,7,0,0.0
86,0,45,3,4,8,0,0.0
87,0,45,3,4,8,0,0.0
88,0,45,2,5,8,0,0.0
89,0,45,2,5,8,0,0.0
90,0,45,2,5,8,0,0.0
91,0,45,2,5,8,0,0.0
92,0,45,2,5,8,0,0.0
93,0,45,2,5,8,0,0.0
94,0,45,2,5,8,0,0.0
95,0,45,2,5,8,0,0.0
96,0,45,2,5,8,0,0.0
97,0,45,2,5,8,0,0.0
98,0,45,2,4,8,1,0.0
99,0,45,2,4,8,1,0.0
100,0,45,2,4,8,1,0.0
101,0,45,2,4,8,1,0.0
102,0,45,2,4,8,1,0.0
103,0,45,2,4,8,1,0.0
104,0,45,2,4,8,1,0.0
105,0,45,2,4,8,1,0.0
106,0,45,2,4,8,1,0.0
107,0,45,2,4,8,1,0.0
108,0,45,2,4,8,1,0.0
109,0,45,2,4,8,1,0.0
110,0,45,2,4,8,1,0.0
111,0,45,2,3,9,1,0.0
112,0,45,2,3,9,1,0.0
113,0,45,2,3,9,1,0.0
114,0,45,2,3,9,1,0.0
115,0,44,3,3,9,1,0.0
116,0,44,3,3,9,1,0.3333333333333333
117,0,44,3,3,9,1,0.0
118,0,44,3,3,9,1,0.0
119,0,44,3,3,9,1,0.0
120,0,44,3,3,9,1,0.0
121,0,44,3,3,9,1,0.0
122,0,44,3,3,9,1,0.0
123,0,44,3,3,9,1,0.0
124,0,44,3,3,9,1,0.0
125,0,44,3,3,9,1,0.0
126,0,44,3,3,9,1,0.0
127,0,44,3,3,9,1,0.0
128,0,44,3,3,9,1,0.0
129,0,44,3,3,9,1,0.0
130,0,44,3,3,9,1,0.0
131,0,44,3,3,9,1,0.0
132,0,44,3,2,10,1,0.0
133,0,44,3,2,10,1,0.0
134,0,44,3,2,10,1,0.0
135,0,44,3,2,10,1,0.0
136,0,44,2,3,10,1,0.0
137,0,44,2,3,10,1,0.0
138,0,44,2,3,10,1,0.0
139,0,44,2,3,10,1,0.0
140,0,44,2,3,10,1,0.0
141,0,44,2,3,10,1,0.0
142,0,44,2,3,10,1,0.0
143,0,44,2,3,10,1,0.0
144,0,44,2,3,10,1,0.0
145,0,44,2,3,10,1,0.0
146,0,44,2,3,10,1,0.0
147,0,44,2,3,10,1,0.0
148,0,44,2,3,10,1,0.0
149,0,44,2,3,10,1,0.0
150,0,44,2,3,10,1,0.0
151,0,44,2,3,10,1,0.0
152,0,44,2,3,10,1,0.0
153,0,44,2,3,10,1,0.0
154,0,44,2,3,10,1,0.0
155,0,44,2,3,10,1,0.0
156,0,44,2,3,10,1,0.0
157,0,44,2,3,10,1,0.0
158,0,44,2,3,10,1,0.0
159,0,44,1,4,10,1,0.0
160,0,44,1,4,10,1,0.0
161,0,44,1,3,11,1,0.0
162,0,44,1,3,11,1,0.0
163,0,44,1,3,11,1,0.0
164,0,44,1,3,11,1,0.0
165,0,44,1,3,11,1,0.0
166,0,44,1,3,11,1,0.0
167,0,44,1,3,11,1,0.0
168,0,44,1,3,11,1,0.0
169,0,44,1,3,11,1,0.0
170,0,44,1,3,11,1,0.0
171,0,44,1,3,11,1,0.0
172,0,44,1,3,11,1,0.0
173,0,44,1,2,12,1,0.0
174,0,44,1,2,12,1,0.0
175,0,44,1,2,12,1,0.0
176,0,44,1,2,12,1,0.0
177,0,44,1,2,12,1,0.0
178,0,44,1,1,13,1,0.0
179,0,44,1,1,13,1,0.0
180,0,44,1,1,13,1,0.0
181,0,44,0,2,13,1,0.0
182,0,44,0,2,13,1,0.0
183,0,44,0,2,13,1,0.0
184,0,44,0,2,13,1,0.0
185,0,44,0,2,13,1,0.0
186,0,44,0,2,13,1,0.0
187,0,43,1,2,13,1,0.0
188,0,43,1,2,13,1,0.5
189,0,43,1,2,13,1,0.0
190,0,42,2,2,13,1,0.0
191,0,42,2,2,13,1,0.5
192,0,42,2,2,13,1,0.0
193,0,42,2,2,13,1,0.0
194,0,42,2,2,13,1,0.0
195,0,42,2,2,13,1,0.0
196,0,42,2,1,14,1,0.0
197,0,42,2,1,14,1,0.0
198,0,42,2,1,14,1,0.0
199,0,42,2,1,14,1,0.0
200,0,42,2,1,14,1,0.0
201,0,42,2,1,14,1,0.0
202,0,42,2,1,14,1,0.0
203,0,42,2,1,14,1,0.0
204,0,42,2,1,14,1,0.0
205,0,42,2,1,14,1,0.0
206,0,42,2,1,14,1,0.0
207,0,42,2,1,14,1,0.0
208,0,42,2,1,14,1,0.0
209,0,42,2,1,14,1,0.0
210,0,42,2,1,14,1,0.0
211,0,42,2,1,14,1,0.0
212,0,42,2,1,14,1,0.0
213,0,42,2,1,14,1,0.0
214,0,42,2,1,14,1,0.0
215,0,42,2,1,14,1,0.0
216,0,42,2,1,14,1,0.0
217,0,42,2,1,14,1,0.0
218,0,42,2,1,14,1,0.0
219,0,42,2,1,14,1,0.0
220,0,42,2,1,14,1,0.0
221,0,42,2,1,14,1,0.0
222,0,42,2,1,14,1,0.0
223,0,42,2,1,14,1,0.0
224,0,42,2,1,14,1,0.0
225,0,42,2,1,14,1,0.0
226,0,42,2,1,14,1,0.0
227,0,42,2,1,14,1,0.0
228,0,42,2,1,14,1,0.0
229,0,42,2,1,14,1,0.0
230,0,42,2,1,14,1,0.0
231,0,42,2,1,14,1,0.0
232,0,42,2,1,14,1,0.0
233,0,42,2,1,14,1,0.0
234,0,42,2,1,14,1,0.0
235,0,42,2,1,14,1,0.0
236,0,42,2,1,14,1,0.0
237,0,42,2,1,14,1,0.0
238,0,42,2,1,14,1,0.0
239,0,42,2,1,14,1,0.0
240,0,42,2,1,14,1,0.0
241,0,42,2,1,14,1,0.0
242,0,42,2,1,14,1,0.0
243,0,42,2,1,14,1,0.0
244,0,42,2,1,14,1,0.0
245,0,42,2,1,14,1,0.0
246,0,42,2,1,14,1,0.0
247,0,42,2,1,14,1,0.0
248,0,42,2,1,14,1,0.0
249,0,42,2,1,14,1,0.0
250,0,42,2,1,14,1,0.0
251,0,42,2,1,14,1,0.0
252,0,42,2,1,14,1,0.0
253,0,42,2,1,14,1,0.0
254,0,42,2,1,14,1,0.0
255,0,42,2,1,14,1,0.0
256,0,42,2,1,14,1,0.0
257,0,42,2,1,14,1,0.0
258,0,42,2,1,14,1,0.0
259,0,42,2,1,14,1,0.0
260,0,42,2,1,14,1,0.0
261,0,42,2,1,14,1,0.0
262,0,42,2,1,14,1,0.0
263,0,42,2,1,14,1,0.0
264,0,42,2,1,14,1,0.0
265,0,42,2,1,14,1,0.0
266,0,42,2,1,14,1,0.0
267,0,42,2,1,14,1,0.0
268,0,42,2,1,14,1,0.0
269,0,42,2,1,14,1,0.0
270,0,42,2,1,14,1,0.0
271,0,42,2,1,14,1,0.0
272,0,42,2,1,14,1,0.0
273,0,42,2,1,14,1,0.0
274,0,42,2,1,14,1,0.0
275,0,42,2,1,14,1,0.0
276,0,42,2,1,14,1,0.0
277,0,42,2,1,14,1,0.0
278,0,42,2,1,14,1,0.0
279,0,42,2,1,14,1,0.0
280,0,42,2,1,14,1,0.0
281,0,42,2,1,14,1,0.0
282,0,42,2,1,14,1,0.0
283,0,42,2,1,14,1,0.0
284,0,42,2,1,14,1,0.0
285,0,42,2,1,14,1,0.0
286,0,42,2,1,14,1,0.0
287,0,42,2,1,14,1,0.0
288,0,41,2,2,14,1,0.0
289,0,41,2,2,14,1,0.5
290,0,41,2,2,14,1,0.0
291,0,41,2,2,14,1,0.0
292,0,41,2,2,14,1,0.0
293,0,41,2,2,14,1,0.0
294,0,41,2,2,14,1,0.0
295,0,41,2,2,14,1,0.0
296,0,41,2,2,14,1,0.0
297,0,41,1,3,14,1,0.0
298,0,41,1,3,14,1,0.0
299,0,41,1,2,14,2,0.0
300,0,41,1,2,14,2,0.0
301,0,41,1,2,14,2,0.0
302,0,41,1,2,14,2,0.0
303,0,41,1,2,14,2,0.0
304,0,41,1,2,14,2,0.0
305,0,41,1,2,14,2,0.0
306,0,41,1,2,14,2,0.0
307,0,41,1,2,14,2,0.0
308,0,41,1,2,14,2,0.0
309,0,41,1,2,14,2,0.0
310,0,41,1,2,14,2,0.0
311,0,41,1,2,14,2,0.0
312,0,41,1,2,14,2,0.0
313,0,41,1,2,14,2,0.0
314,0,41,1,2,14,2,0.0
315,0,41,1,2,14,2,0.0
316,0,41,1,2,14,2,0.0
317,0,41,1,2,14,2,0.0
318,0,41,1,2,14,2,0.0
319,0,41,1,2,14,2,0.0
320,0,41,1,2,14,2,0.0
321,0,41,1,2,14,2,0.0
322,0,41,1,2,14,2,0.0
323,0,41,1,2,14,2,0.0
324,0,41,1,2,14,2,0.0
325,0,41,1,2,14,2,0.0
326,0,41,1,2,14,2,0.0
327,0,41,1,2,14,2,0.0
328,0,41,1,2,14,2,0.0
329,0,41,1,2,14,2,0.0
330,0,41,1,2,14,2,0.0
331,0,41,1,2,14,2,0.0
332,0,41,1,2,14,2,0.0
333,0,41,1,2,14,2,0.0
334,0,41,1,2,14,2,0.0
335,0,41,1,2,14,2,0.0
336,0,41,1,2,14,2,0.0
337,0,41,1,2,14,2,0.0
338,0,41,1,2,14,2,0.0
339,0,41,1,2,14,2,0.0
340,0,41,1,2,14,2,0.0
341,0,41,1,2,14,2,0.0
342,0,41,1,2,14,2,0.0
343,0,41,1,2,14,2,0.0
344,0,41,1,2,14,2,0.0
345,0,41,1,2,14,2,0.0
346,0,41,1,2,14,2,0.0
347,0,41,1,2,14,2,0.0
348,0,41,1,2,14,2,0.0
349,0,41,1,2,14,2,0.0
350,0,41,1,2,14,2,0.0
351,0,41,1,2,14,2,0.0
352,0,41,1,2,14,2,0.0
353,0,41,1,2,14,2,0.0
354,0,41,1,2,14,2,0.0
355,0,41,1,2,14,2,0.0
356,0,41,1,2,14,2,0.0
357,0,41,1,2,14,2,0.0
358,0,41,1,2,14,2,0.0
359,0,41,1,2,14,2,0.0
360,0,41,1,2,14,2,0.0
361,0,41,0,3,14,2,0.0
362,0,41,0,3,14,2,0.0
363,0,41,0,3,14,2,0.0
364,0,41,0,3,14,2,0.0
365,0,41,0,3,14,2,0.0
366,0,41,0,3,14,2,0.0
367,0,41,0,3,14,2,0.0
368,0,41,0,3,14,2,0.0
369,0,41,0,2,14,3,0.0
370,0,41,0,2,14,3,0.0
371,0,41,0,2,14,3,0.0
372,0,41,0,2,14,3,0.0
373,0,41,0,2,14,3,0.0
374,0,41,0,2,14,3,0.0
375,0,41,0,2,14,3,0.0
376,0,41,0,2,14,3,0.0
377,0,41,0,2,14,3,0.0
378,0,41,0,2,14,3,0.0
379,0,41,0,1,15,3,0.0
380,0,41,0,1,15,3,0.0
381,0,41,0,1,15,3,0.0
382,0,41,0,1,15,3,0.0
383,0,41,0,1,15,3,0.0
384,0,41,0,1,15,3,0.0
385,0,41,0,1,15,3,0.0
386,0,41,0,1,15,3,0.0
387,0,41,0,1,15,3,0.0
388,0,41,0,1,15,3,0.0
389,0,41,0,1,15,3,0.0
390,0,41,0,1,15,3,0.0
391,0,41,0,1,15,3,0.0
392,0,40,1,1,15,3,0.0
393,0,40,1,1,15,3,1.0
394,0,40,1,1,15,3,0.0
395,0,40,1,1,15,3,0.0
396,0,40,1,1,15,3,0.0
397,0,40,1,1,15,3,0.0
398,0,40,1,1,15,3,0.0
399,0,40,1,1,15,3,0.0
400,0,40,1,1,15,3,0.0
401,0,40,1,1,15,3,0.0
402,0,40,1,1,15,3,0.0
403,0,40,1,1,15,3,0.0
404,0,40,1,1,15,3,0.0
405,0,40,1,1,15,3,0.0
406,0,40,1,1,15,3,0.0
407,0,40,1,1,15,3,0.0
408,0,40,1,1,15,3,0.0
409,0,40,1,1,15,3,0.0
410,0,40,1,1,15,3,0.0
411,0,40,1,1,15,3,0.0
412,0,40,1,1,15,3,0.0
413,0,40,1,1,15,3,0.0
414,0,40,1,1,15,3,0.0
415,0,40,1,1,15,3,0.0
416,0,40,1,1,15,3,0.0
417,0,40,1,1,15,3,0.0
418,0,40,1,1,15,3,0.0
419,0,40,1,1,15,3,0.0
420,0,40,1,1,15,3,0.0
421,0,40,1,1,15,3,0.0
422,0,40,1,1,15,3,0.0
423,0,40,1,1,15,3,0.0
424,0,40,1,1,15,3,0.0
425,0,40,1,1,15,3,0.0
426,0,40,1,1,15,3,0.0
427,0,40,1,1,15,3,0.0
428,0,40,1,1,15,3,0.0
429,0,40,1,1,15,3,0.0
430,0,40,1,1,15,3,0.0
431,0,40,1,1,15,3,0.0
432,0,40,1,1,15,3,0.0
433,0,40,1,1,15,3,0.0
434,0,40,1,1,15,3,0.0
435,0,40,1,0,16,3,0.0
436,0,40,1,0,16,3,0
437,0,40,1,0,16,3,0
438,0,40,1,0,16,3,0
439,0,40,1,0,16,3,0
440,0,40,1,0,16,3,0
441,0,40,1,0,16,3,0
442,0,40,1,0,16,3,0
443,0,40,1,0,16,3,0
444,0,40,1,0,16,3,0
445,0,40,1,0,16,3,0
446,0,40,1,0,16,3,0
447,0,40,1,0,16,3,0
448,0,40,1,0,16,3,0
449,0,40,1,0,16,3,0
450,0,40,1,0,16,3,0
451,0,40,1,0,16,3,0
452,0,40,1,0,16,3,0
453,0,40,1,0,16,3,0
454,0,40,1,0,16,3,0
455,0,40,1,0,16,3,0
456,0,40,1,0,16,3,0
457,0,40,1,0,16,3,0
458,0,40,1,0,16,3,0
459,0,40,1,0,16,3,0
460,0,40,1,0,16,3,0
461,0,40,1,0,16,3,0
462,0,40,1,0,16,3,0
463,0,40,1,0,16,3,0
464,0,40,1,0,16,3,0
465,0,40,1,0,16,3,0
466,0,40,1,0,16,3,0
467,0,40,1,0,16,3,0
468,0,40,1,0,16,3,0
469,0,40,1,0,16,3,0
470,0,40,1,0,16,3,0
471,0,40,1,0,16,3,0
472,0,40,1,0,16,3,0
473,0,40,1,0,16,3,0
474,0,40,1,0,16,3,0
475,0,40,1,0,16,3,0
476,0,40,1,0,16,3,0
477,0,40,1,0,16,3,0
478,0,40,1,0,16,3,0
479,0,40,1,0,16,3,0
480,0,40,1,0,16,3,0
481,0,40,1,0,16,3,0
482,0,40,1,0,16,3,0
483,0,40,1,0,16,3,0
484,0,40,1,0,16,3,0
485,0,40,1,0,16,3,0
486,0,40,1,0,16,3,0
487,0,40,1,0,16,3,0
488,0,40,1,0,16,3,0
489,0,40,1,0,16,3,0
490,0,40,1,0,16,3,0
491,0,40,1,0,16,3,0
492,0,40,1,0,16,3,0
493,0,40,1,0,16,3,0
494,0,40,1,0,16,3,0
495,0,40,1,0,16,3,0
496,0,40,1,0,16,3,0
497,0,40,1,0,16,3,0
498,0,40,1,0,16,3,0
499,0,40,1,0,16,3,0
500,0,40,1,0,16,3,0
501,0,40,1,0,16,3,0
502,0,40,1,0,16,3,0
503,0,40,0,1,16,3,0
504,0,40,0,1,16,3,0.0
505,0,40,0,1,16,3,0.0
506,0,40,0,1,16,3,0.0
507,0,40,0,1,16,3,0.0
508,0,40,0,1,16,3,0.0
509,0,40,0,1,16,3,0.0
510,0,40,0,1,16,3,0.0
511,0,40,0,1,16,3,0.0
512,0,40,0,1,16,3,0.0
513,0,40,0,1,16,3,0.0
514,0,40,0,1,16,3,0.0
515,0,40,0,1,16,3,0.0
516,0,40,0,1,16,3,0.0
517,0,40,0,1,16,3,0.0
518,0,40,0,1,16,3,0.0
519,0,40,0,1,16,3,0.0
520,0,40,0,1,16,3,0.0
521,0,40,0,1,16,3,0.0
522,0,40,0,1,16,3,0.0
523,0,40,0,1,16,3,0.0
524,0,40,0,1,16,3,0.0
525,0,40,0,1,16,3,0.0
526,0,40,0,1,16,3,0.0
527,0,40,0,1,16,3,0.0
528,0,40,0,1,16,3,0.0
529,0,40,0,1,16,3,0.0
530,0,40,0,1,16,3,0.0
531,0,40,0,1,16,3,0.0
532,0,40,0,1,16,3,0.0
533,0,40,0,1,16,3,0.0
534,0,40,0,1,16,3,0.0
535,0,40,0,1,16,3,0.0
536,0,40,0,1,16,3,0.0
537,0,40,0,1,16,3,0.0
538,0,40,0,1,16,3,0.0
539,0,40,0,1,16,3,0.0
540,0,40,0,1,16,3,0.0
541,0,40,0,1,16,3,0.0
542,0,40,0,1,16,3,0.0
543,0,40,0,1,16,3,0.0
544,0,40,0,1,16,3,0.0
545,0,40,0,1,16,3,0.0
546,0,40,0,1,16,3,0.0
547,0,40,0,1,16,3,0.0
548,0,40,0,1,16,3,0.0
549,0,40,0,1,16,3,0.0
550,0,40,0,1,16,3,0.0
551,0,40,0,1,16,3,0.0
552,0,40,0,1,16,3,0.0
553,0,40,0,1,16,3,0.0
554,0,40,0,1,16,3,0.0
555,0,40,0,1,16,3,0.0
556,0,40,0,1,16,3,0.0
557,0,40,0,1,16,3,0.0
558,0,40,0,1,16,3,0.0
559,0,40,0,1,16,3,0.0
560,0,40,0,1,16,3,0.0
561,0,40,0,1,16,3,0.0
562,0,40,0,1,16,3,0.0
563,0,40,0,1,16,3,0.0
564,0,40,0,1,16,3,0.0
565,0,40,0,1,16,3,0.0
566,0,40,0,1,16,3,0.0
567,0,40,0,1,16,3,0.0
568,0,40,0,1,16,3,0.0
569,0,40,0,1,16,3,0.0
570,0,40,0,1,16,3,0.0
571,0,40,0,1,16,3,0.0
572,0,40,0,1,16,3,0.0
573,0,40,0,1,16,3,0.0
574,0,40,0,1,16,3,0.0
575,0,40,0,1,16,3,0.0
576,0,40,0,1,16,3,0.0
577,0,40,0,1,16,3,0.0
578,0,40,0,0,16,4,0.0
579,0,40,0,0,16,4,0
