t,maternally_immune,susceptible,exposed,infectious,recovered,dead,r0
0,0,47,6,7,0,0,0
1,0,47,6,7,0,0,0
2,0,47,6,7,0,0,0.0
3,0,47,6,7,0,0,0.0
4,0,47,6,7,0,0,0.0
5,0,47,6,7,0,0,0.0
6,0,47,6,7,0,0,0.0
7,0,47,6,7,0,0,0.0
8,0,47,6,7,0,0,0.0
9,0,47,6,7,0,0,0.0
10,0,46,7,7,0,0,0.0
11,0,46,7,7,0,0,0.14285714285714285
12,0,46,7,7,0,0,0.0
13,0,46,7,7,0,0,0.0
14,0,46,7,7,0,0,0.0
15,0,46,7,7,0,0,0.0
16,0,45,8,7,0,0,0.0
17,0,45,8,7,0,0,0.14285714285714285
18,0,45,8,7,0,0,0.0
19,0,45,8,7,0,0,0.0
20,0,45,8,7,0,0,0.0
21,0,45,8,7,0,0,0.0
22,0,45,8,7,0,0,0.0
23,0,44,9,7,0,0,0.0
24,0,44,9,7,0,0,0.14285714285714285
25,0,43,10,7,0,0,0.0
26,0,43,10,7,0,0,0.14285714285714285
27,0,43,10,7,0,0,0.0
28,0,43,10,7,0,0,0.0
29,0,43,10,7,0,0,0.0
30,0,43,10,7,0,0,0.0
31,0,43,10,7,0,0,0.0
32,0,43,10,7,0,0,0.0
33,0,43,10,7,0,0,0.0
34,0,43,9,8,0,0,0.0
35,0,42,10,8,0,0,0.0
36,0,42,10,8,0,0,0.125
37,0,42,10,8,0,0,0.0
38,0,42,10,8,0,0,0.0
39,0,42,10,8,0,0,0.0
40,0,42,10,8,0,0,0.0
41,0,42,10,8,0,0,0.0
42,0,42,10,8,0,0,0.0
43,0,42,10,8,0,0,0.0
44,0,42,10,8,0,0,0.0
45,0,42,10,8,0,0,0.0
46,0,41,11,8,0,0,0.0
47,0,41,11,8,0,0,0.125
48,0,41,10,8,1,0,0.0
49,0,41,10,8,1,0,0.0
50,0,41,10,8,1,0,0.0
51,0,41,10,8,1,0,0.0
52,0,41,10,8,1,0,0.0
53,0,41,10,8,1,0,0.0
54,0,41,10,8,1,0,0.0
55,0,41,10,8,1,0,0.0
56,0,41,10,8,1,0,0.0
57,0,41,10,8,1,0,0.0
58,0,41,10,8,1,0,0.0
59,0,41,10,8,1,0,0.0
60,0,41,10,8,1,0,0.0
61,0,41,10,8,1,0,0.0
62,0,41,10,8,1,0,0.0
63,0,40,11,8,1,0,0.0
64,0,40,11,8,1,0,0.125
65,0,40,10,9,1,0,0.0
66,0,40,10,9,1,0,0.0
67,0,40,10,9,1,0,0.0
68,0,40,10,9,1,0,0.0
69,0,40,10,9,1,0,0.0
70,0,40,10,9,1,0,0.0
71,0,40,10,9,1,0,0.0
72,0,40,8,10,2,0,0.0
73,0,40,8,10,2,0,0.0
74,0,39,9,10,2,0,0.0
75,0,39,9,10,2,0,0.1
76,0,39,8,11,2,0,0.0
77,0,39,8,11,2,0,0.0
78,0,39,7,12,2,0,0.0
79,0,39,7,12,2,0,0.0
80,0,39,7,12,2,0,0.0
81,0,39,7,12,2,0,0.0
82,0,39,7,12,2,0,0.0
83,0,38,8,12,2,0,0.0
84,0,38,7,13,2,0,0.08333333333333333
85,0,38,7,13,2,0,0.0
86,0,38,7,13,2,0,0.0
87,0,38,7,13,2,0,0.0
88,0,38,7,13,2,0,0.0
89,0,38,7,13,2,0,0.0
90,0,38,7,13,2,0,0.0
91,0,37,8,13,2,0,0.0
92,0,36,9,13,2,0,0.07692307692307693
93,0,36,9,13,2,0,0.07692307692307693
94,0,36,9,13,2,0,0.0
95,0,36,8,14,2,0,0.0
96,0,36,8,14,2,0,0.0
97,0,36,8,14,2,0,0.0
98,0,36,8,14,2,0,0.0
99,0,36,8,14,2,0,0.0
100,0,35,9,14,2,0,0.0
101,0,35,9,14,2,0,0.07142857142857142
102,0,34,10,14,2,0,0.0
103,0,34,10,13,3,0,0.07142857142857142
104,0,33,11,13,3,0,0.0
105,0,33,11,13,3,0,0.07692307692307693
106,0,33,11,13,3,0,0.0
107,0,33,11,13,3,0,0.0
108,0,33,10,14,3,0,0.0
109,0,33,10,13,4,0,0.0
110,0,33,10,13,4,0,0.0
111,0,33,10,12,5,0,0.0
112,0,33,10,12,5,0,0.0
113,0,33,9,12,6,0,0.0
114,0,33,9,12,6,0,0.0
115,0,33,9,12,6,0,0.0
116,0,32,10,12,6,0,0.0
117,0,32,10,12,6,0,0.08333333333333333
118,0,32,10,12,6,0,0.0
119,0,32,10,10,8,0,0.0
120,0,32,10,10,8,0,0.0
121,0,32,10,9,9,0,0.0
122,0,32,10,9,9,0,0.0
123,0,32,10,9,9,0,0.0
124,0,32,10,8,10,0,0.0
125,0,32,10,8,10,0,0.0
126,0,32,10,8,10,0,0.0
127,0,32,10,8,10,0,0.0
128,0,32,10,8,10,0,0.0
129,0,32,10,8,10,0,0.0
130,0,32,10,8,10,0,0.0
131,0,31,11,8,10,0,0.0
132,0,31,11,8,10,0,0.125
133,0,30,11,9,10,0,0.0
134,0,29,12,9,10,0,0.1111111111111111
135,0,29,12,9,10,0,0.1111111111111111
136,0,29,12,9,10,0,0.0
137,0,29,12,9,10,0,0.0
138,0,29,12,9,10,0,0.0
139,0,29,12,9,10,0,0.0
140,0,29,12,9,10,0,0.0
141,0,29,12,9,10,0,0.0
142,0,29,12,9,10,0,0.0
143,0,29,12,9,10,0,0.0
144,0,28,13,9,10,0,0.0
145,0,28,13,8,10,1,0.1111111111111111
146,0,28,12,9,10,1,0.0
147,0,28,12,9,10,1,0.0
148,0,28,12,9,10,1,0.0
149,0,28,12,9,10,1,0.0
150,0,28,12,9,10,1,0.0
151,0,28,12,9,10,1,0.0
152,0,27,13,9,10,1,0.0
153,0,27,13,8,10,2,0.1111111111111111
154,0,27,13,8,10,2,0.0
155,0,27,13,8,10,2,0.0
156,0,27,13,8,10,2,0.0
157,0,27,13,7,11,2,0.0
158,0,27,13,7,11,2,0.0
159,0,27,12,8,11,2,0.0
160,0,27,11,9,11,2,0.0
161,0,27,11,9,11,2,0.0
162,0,27,10,10,11,2,0.0
163,0,26,11,10,11,2,0.0
164,0,26,11,10,11,2,0.1
165,0,26,11,10,11,2,0.0
166,0,26,11,10,11,2,0.0
167,0,26,11,10,11,2,0.0
168,0,26,11,10,11,2,0.0
169,0,26,11,10,11,2,0.0
170,0,26,11,10,11,2,0.0
171,0,26,10,11,11,2,0.0
172,0,26,10,11,11,2,0.0
173,0,26,10,9,13,2,0.0
174,0,26,10,9,13,2,0.0
175,0,26,10,9,13,2,0.0
176,0,26,10,8,14,2,0.0
177,0,26,10,8,14,2,0.0
178,0,26,10,7,15,2,0.0
179,0,25,11,7,15,2,0.0
180,0,25,11,7,15,2,0.14285714285714285
181,0,25,11,7,15,2,0.0
182,0,25,11,7,15,2,0.0
183,0,25,11,7,15,2,0.0
184,0,25,11,7,15,2,0.0
185,0,25,11,7,15,2,0.0
186,0,25,11,7,15,2,0.0
187,0,25,11,7,15,2,0.0
188,0,25,11,7,15,2,0.0
189,0,25,10,8,15,2,0.0
190,0,25,9,9,15,2,0.0
191,0,25,8,10,15,2,0.0
192,0,24,9,10,15,2,0.0
193,0,23,10,9,16,2,0.1
194,0,23,10,9,16,2,0.1111111111111111
195,0,23,9,10,16,2,0.0
196,0,23,9,10,16,2,0.0
197,0,23,9,9,17,2,0.0
198,0,23,9,9,17,2,0.0
199,0,23,9,9,17,2,0.0
200,0,23,8,10,17,2,0.0
201,0,23,8,10,17,2,0.0
202,0,23,8,10,17,2,0.0
203,0,23,7,11,17,2,0.0
204,0,23,7,11,17,2,0.0
205,0,23,7,11,17,2,0.0
206,0,23,7,11,17,2,0.0
207,0,23,7,11,17,2,0.0
208,0,23,7,11,17,2,0.0
209,0,23,7,11,17,2,0.0
210,0,23,7,11,17,2,0.0
211,0,23,7,11,17,2,0.0
212,0,23,7,11,17,2,0.0
213,0,23,7,11,17,2,0.0
214,0,23,7,11,17,2,0.0
215,0,23,6,12,17,2,0.0
216,0,23,6,12,17,2,0.0
217,0,23,6,12,17,2,0.0
218,0,22,7,12,17,2,0.0
219,0,22,7,12,17,2,0.08333333333333333
220,0,22,6,13,17,2,0.0
221,0,22,6,13,17,2,0.0
222,0,22,6,13,17,2,0.0
223,0,22,6,13,17,2,0.0
224,0,22,6,13,17,2,0.0
225,0,22,6,12,18,2,0.0
226,0,22,6,12,18,2,0.0
227,0,22,6,12,18,2,0.0
228,0,22,6,12,18,2,0.0
229,0,22,6,12,18,2,0.0
230,0,22,6,12,18,2,0.0
231,0,22,6,12,18,2,0.0
232,0,22,5,13,18,2,0.0
233,0,22,4,14,18,2,0.0
234,0,21,5,14,18,2,0.0
235,0,21,5,13,19,2,0.07142857142857142
236,0,21,5,13,19,2,0.0
237,0,20,5,14,19,2,0.0
238,0,20,5,14,19,2,0.07142857142857142
239,0,18,7,14,19,2,0.0
240,0,18,7,14,19,2,0.14285714285714285
241,0,18,7,13,19,3,0.0
242,0,18,7,13,19,3,0.0
243,0,18,7,13,19,3,0.0
244,0,18,7,13,19,3,0.0
245,0,18,7,13,19,3,0.0
246,0,18,7,13,19,3,0.0
247,0,18,7,13,19,3,0.0
248,0,18,7,13,19,3,0.0
249,0,18,7,13,19,3,0.0
250,0,18,6,14,19,3,0.0
251,0,18,6,14,19,3,0.0
252,0,18,6,14,19,3,0.0
253,0,18,6,14,19,3,0.0
254,0,18,6,14,19,3,0.0
255,0,18,6,13,20,3,0.0
256,0,18,6,13,20,3,0.0
257,0,18,6,12,21,3,0.0
258,0,18,6,12,21,3,0.0
259,0,18,6,11,22,3,0.0
260,0,18,5,12,22,3,0.0
261,0,18,5,12,22,3,0.0
262,0,18,5,12,22,3,0.0
263,0,18,5,12,22,3,0.0
264,0,18,5,12,22,3,0.0
265,0,18,5,12,22,3,0.0
266,0,18,5,12,22,3,0.0
267,0,18,5,12,22,3,0.0
268,0,18,4,13,22,3,0.0
269,0,18,4,13,22,3,0.0
270,0,18,4,13,22,3,0.0
271,0,18,3,14,22,3,0.0
272,0,18,3,13,23,3,0.0
273,0,17,4,13,23,3,0.0
274,0,17,3,14,23,3,0.07692307692307693
275,0,17,3,14,23,3,0.0
276,0,17,3,14,23,3,0.0
277,0,17,3,14,23,3,0.0
278,0,17,3,14,23,3,0.0
279,0,17,3,14,23,3,0.0
280,0,16,4,14,23,3,0.0
281,0,16,4,14,23,3,0.07142857142857142
282,0,16,4,14,23,3,0.0
283,0,16,4,14,23,3,0.0
284,0,16,4,14,23,3,0.0
285,0,16,4,14,23,3,0.0
286,0,16,3,15,23,3,0.0
287,0,16,3,15,23,3,0.0
288,0,16,3,14,24,3,0.0
289,0,16,3,14,24,3,0.0
290,0,16,3,14,24,3,0.0
291,0,16,3,14,24,3,0.0
292,0,16,3,14,24,3,0.0
293,0,16,3,14,24,3,0.0
294,0,16,3,14,24,3,0.0
295,0,16,3,14,24,3,0.0
296,0,15,4,14,24,3,0.0
297,0,15,4,14,24,3,0.07142857142857142
298,0,15,4,14,24,3,0.0
299,0,15,4,14,24,3,0.0
300,0,15,4,14,24,3,0.0
301,0,15,4,14,24,3,0.0
302,0,15,4,14,24,3,0.0
303,0,15,4,13,25,3,0.0
304,0,15,3,14,25,3,0.0
305,0,15,3,14,25,3,0.0
306,0,15,3,14,25,3,0.0
307,0,15,3,13,26,3,0.0
308,0,15,3,12,26,4,0.0
309,0,15,3,12,26,4,0.0
310,0,15,3,12,26,4,0.0
311,0,15,3,12,26,4,0.0
312,0,15,3,12,26,4,0.0
313,0,15,3,11,27,4,0.0
314,0,15,2,12,27,4,0.0
315,0,15,2,12,27,4,0.0
316,0,14,3,12,27,4,0.0
317,0,14,3,12,27,4,0.08333333333333333
318,0,14,3,12,27,4,0.0
319,0,14,3,12,27,4,0.0
320,0,14,3,12,27,4,0.0
321,0,14,3,11,28,4,0.0
322,0,14,3,11,28,4,0.0
323,0,14,3,10,29,4,0.0
324,0,14,3,10,29,4,0.0
325,0,14,3,10,29,4,0.0
326,0,14,3,10,29,4,0.0
327,0,14,3,10,29,4,0.0
328,0,14,3,10,29,4,0.0
329,0,14,3,10,29,4,0.0
330,0,14,3,10,29,4,0.0
331,0,14,3,10,29,4,0.0
332,0,14,3,10,29,4,0.0
333,0,14,3,10,29,4,0.0
334,0,14,3,10,29,4,0.0
335,0,14,2,11,29,4,0.0
336,0,14,2,10,30,4,0.0
337,0,14,2,10,30,4,0.0
338,0,14,2,10,30,4,0.0
339,0,14,2,10,30,4,0.0
340,0,14,2,9,30,5,0.0
341,0,14,2,9,30,5,0.0
342,0,14,2,9,30,5,0.0
343,0,14,2,9,30,5,0.0
344,0,14,2,9,30,5,0.0
345,0,14,2,8,31,5,0.0
346,0,14,2,8,31,5,0.0
347,0,14,2,8,31,5,0.0
348,0,14,2,8,31,5,0.0
349,0,14,2,8,31,5,0.0
350,0,14,2,8,31,5,0.0
351,0,14,2,7,32,5,0.0
352,0,14,2,6,32,6,0.0
353,0,14,2,6,32,6,0.0
354,0,14,2,6,32,6,0.0
355,0,14,2,6,32,6,0.0
356,0,14,2,6,32,6,0.0
357,0,14,2,6,32,6,0.0
358,0,14,2,6,32,6,0.0
359,0,14,2,6,32,6,0.0
360,0,14,2,6,32,6,0.0
361,0,14,2,5,33,6,0.0
362,0,14,2,5,33,6,0.0
363,0,14,2,5,33,6,0.0
364,0,14,2,5,33,6,0.0
365,0,14,2,5,33,6,0.0
366,0,14,2,5,33,6,0.0
367,0,14,2,5,33,6,0.0
368,0,14,2,5,33,6,0.0
369,0,14,2,4,34,6,0.0
370,0,14,2,4,34,6,0.0
371,0,14,2,4,34,6,0.0
372,0,14,2,4,34,6,0.0
373,0,14,2,3,35,6,0.0
374,0,14,2,2,36,6,0.0
375,0,14,1,3,36,6,0.0
376,0,14,1,3,36,6,0.0
377,0,14,1,3,36,6,0.0
378,0,14,1,3,36,6,0.0
379,0,14,1,3,36,6,0.0
380,0,14,1,3,36,6,0.0
381,0,14,1,3,36,6,0.0
382,0,14,1,3,36,6,0.0
383,0,14,1,3,36,6,0.0
384,0,14,1,3,36,6,0.0
385,0,14,1,3,36,6,0.0
386,0,14,1,3,36,6,0.0
387,0,14,1,3,36,6,0.0
388,0,14,1,3,36,6,0.0
389,0,14,1,3,36,6,0.0
390,0,14,1,2,37,6,0.0
391,0,14,1,2,37,6,0.0
392,0,14,1,2,37,6,0.0
393,0,14,1,2,37,6,0.0
394,0,14,1,2,37,6,0.0
395,0,14,1,2,37,6,0.0
396,0,14,1,2,37,6,0.0
397,0,14,1,1,37,7,0.0
398,0,14,1,1,37,7,0.0
399,0,14,1,1,37,7,0.0
400,0,14,1,1,37,7,0.0
401,0,14,1,1,37,7,0.0
402,0,14,1,1,37,7,0.0
403,0,14,1,1,37,7,0.0
404,0,14,1,1,37,7,0.0
405,0,14,1,1,37,7,0.0
406,0,14,1,1,37,7,0.0
407,0,14,1,1,37,7,0.0
408,0,14,1,1,37,7,0.0
409,0,14,1,1,37,7,0.0
410,0,14,1,1,37,7,0.0
411,0,14,1,1,37,7,0.0
412,0,14,1,1,37,7,0.0
413,0,14,0,2,37,7,0.0
414,0,14,0,2,37,7,0.0
415,0,14,0,2,37,7,0.0
416,0,14,0,2,37,7,0.0
417,0,14,0,2,37,7,0.0
418,0,14,0,2,37,7,0.0
419,0,14,0,2,37,7,0.0
420,0,14,0,2,37,7,0.0
421,0,14,0,2,37,7,0.0
422,0,14,0,2,37,7,0.0
423,0,14,0,2,37,7,0.0
424,0,14,0,2,37,7,0.0
425,0,14,0,2,37,7,0.0
426,0,14,0,2,37,7,0.0
427,0,14,0,2,37,7,0.0
428,0,14,0,2,37,7,0.0
429,0,14,0,2,37,7,0.0
430,0,14,0,2,37,7,0.0
431,0,14,0,2,37,7,0.0
432,0,14,0,2,37,7,0.0
433,0,14,0,2,37,7,0.0
434,0,14,0,2,37,7,0.0
435,0,14,0,2,37,7,0.0
436,0,14,0,2,37,7,0.0
437,0,14,0,2,37,7,0.0
438,0,13,1,2,37,7,0.0
439,0,13,1,2,37,7,0.5
440,0,13,1,2,37,7,0.0
441,0,13,1,2,37,7,0.0
442,0,13,1,2,37,7,0.0
443,0,13,1,2,37,7,0.0
444,0,13,1,2,37,7,0.0
445,0,13,1,2,37,7,0.0
446,0,13,1,2,37,7,0.0
447,0,13,1,2,37,7,0.0
448,0,13,1,2,37,7,0.0
449,0,13,1,2,37,7,0.0
450,0,13,1,2,37,7,0.0
451,0,13,1,2,37,7,0.0
452,0,13,1,2,37,7,0.0
453,0,13,1,2,37,7,0.0
454,0,13,1,2,37,7,0.0
455,0,13,1,2,37,7,0.0
456,0,13,1,2,37,7,0.0
457,0,13,1,2,37,7,0.0
458,0,13,1,2,37,7,0.0
459,0,13,1,2,37,7,0.0
460,0,13,1,2,37,7,0.0
461,0,13,1,2,37,7,0.0
462,0,13,1,2,37,7,0.0
463,0,13,1,2,37,7,0.0
464,0,13,1,2,37,7,0.0
465,0,13,1,2,37,7,0.0
466,0,13,1,2,37,7,0.0
467,0,13,1,2,37,7,0.0
468,0,13,1,2,37,7,0.0
469,0,13,1,2,37,7,0.0
470,0,13,1,2,37,7,0.0
471,0,13,1,2,37,7,0.0
472,0,13,1,2,37,7,0.0
473,0,13,1,2,37,7,0.0
474,0,13,1,2,37,7,0.0
475,0,13,1,2,37,7,0.0
476,0,13,1,2,37,7,0.0
477,0,13,1,1,38,7,0.0
478,0,13,1,1,38,7,0.0
479,0,13,1,1,38,7,0.0
480,0,13,1,1,38,7,0.0
481,0,13,1,1,38,7,0.0
482,0,13,1,1,38,7,0.0
483,0,13,1,1,38,7,0.0
484,0,13,1,1,38,7,0.0
485,0,13,1,1,38,7,0.0
486,0,13,1,1,38,7,0.0
487,0,13,1,1,38,7,0.0
488,0,13,1,1,38,7,0.0
489,0,13,1,1,38,7,0.0
490,0,13,1,1,38,7,0.0
491,0,13,1,1,38,7,0.0
492,0,13,1,1,38,7,0.0
493,0,13,1,1,38,7,0.0
494,0,13,1,1,38,7,0.0
495,0,13,1,1,38,7,0.0
496,0,13,1,0,38,8,0.0
497,0,13,1,0,38,8,0
498,0,13,1,0,38,8,0
499,0,13,1,0,38,8,0
500,0,13,1,0,38,8,0
501,0,13,1,0,38,8,0
502,0,13,1,0,38,8,0
503,0,13,1,0,38,8,0
504,0,13,1,0,38,8,0
505,0,13,1,0,38,8,0
506,0,13,1,0,38,8,0
507,0,13,1,0,38,8,0
508,0,13,1,0,38,8,0
509,0,13,1,0,38,8,0
510,0,13,1,0,38,8,0
511,0,13,1,0,38,8,0
512,0,13,1,0,38,8,0
513,0,13,1,0,38,8,0
514,0,13,1,0,38,8,0
515,0,13,1,0,38,8,0
516,0,13,1,0,38,8,0
517,0,13,1,0,38,8,0
518,0,13,1,0,38,8,0
519,0,13,1,0,38,8,0
520,0,13,1,0,38,8,0
521,0,13,1,0,38,8,0
522,0,13,1,0,38,8,0
523,0,13,1,0,38,8,0
524,0,13,1,0,38,8,0
525,0,13,1,0,38,8,0
526,0,13,1,0,38,8,0
527,0,13,1,0,38,8,0
528,0,13,1,0,38,8,0
529,0,13,1,0,38,8,0
530,0,13,1,0,38,8,0
531,0,13,1,0,38,8,0
532,0,13,1,0,38,8,0
533,0,13,1,0,38,8,0
534,0,13,1,0,38,8,0
535,0,13,1,0,38,8,0
536,0,13,1,0,38,8,0
537,0,13,1,0,38,8,0
538,0,13,1,0,38,8,0
539,0,13,1,0,38,8,0
540,0,13,1,0,38,8,0
541,0,13,1,0,38,8,0
542,0,13,1,0,38,8,0
543,0,13,1,0,38,8,0
544,0,13,1,0,38,8,0
545,0,13,1,0,38,8,0
546,0,13,1,0,38,8,0
547,0,13,1,0,38,8,0
548,0,13,1,0,38,8,0
549,0,13,0,1,38,8,0
550,0,13,0,1,38,8,0.0
551,0,13,0,1,38,8,0.0
552,0,13,0,1,38,8,0.0
553,0,13,0,1,38,8,0.0
554,0,13,0,1,38,8,0.0
555,0,12,1,1,38,8,0.0
556,0,12,1,1,38,8,1.0
557,0,12,1,1,38,8,0.0
558,0,12,1,1,38,8,0.0
559,0,12,1,1,38,8,0.0
560,0,12,1,1,38,8,0.0
561,0,12,1,1,38,8,0.0
562,0,12,1,1,38,8,0.0
563,0,12,0,2,38,8,0.0
564,0,12,0,2,38,8,0.0
565,0,12,0,2,38,8,0.0
566,0,12,0,2,38,8,0.0
567,0,12,0,2,38,8,0.0
568,0,12,0,2,38,8,0.0
569,0,12,0,2,38,8,0.0
570,0,12,0,2,38,8,0.0
571,0,12,0,2,38,8,0.0
572,0,12,0,2,38,8,0.0
573,0,12,0,2,38,8,0.0
574,0,12,0,2,38,8,0.0
575,0,12,0,2,38,8,0.0
576,0,12,0,2,38,8,0.0
577,0,12,0,2,38,8,0.0
578,0,12,0,2,38,8,0.0
579,0,12,0,2,38,8,0.0
580,0,12,0,2,38,8,0.0
581,0,12,0,2,38,8,0.0
582,0,12,0,2,38,8,0.0
583,0,12,0,2,38,8,0.0
584,0,12,0,2,38,8,0.0
585,0,12,0,2,38,8,0.0
586,0,12,0,2,38,8,0.0
587,0,12,0,2,38,8,0.0
588,0,12,0,2,38,8,0.0
589,0,12,0,2,38,8,0.0
590,0,12,0,2,38,8,0.0
591,0,12,0,2,38,8,0.0
592,0,12,0,2,38,8,0.0
593,0,12,0,2,38,8,0.0
594,0,12,0,2,38,8,0.0
595,0,12,0,2,38,8,0.0
596,0,12,0,2,38,8,0.0
597,0,12,0,2,38,8,0.0
598,0,12,0,2,38,8,0.0
599,0,12,0,2,38,8,0.0
600,0,12,0,2,38,8,0.0
601,0,12,0,2,38,8,0.0
602,0,12,0,2,38,8,0.0
603,0,12,0,2,38,8,0.0
604,0,12,0,2,38,8,0.0
605,0,12,0,2,38,8,0.0
606,0,12,0,2,38,8,0.0
607,0,12,0,2,38,8,0.0
608,0,12,0,2,38,8,0.0
609,0,12,0,2,38,8,0.0
610,0,12,0,2,38,8,0.0
611,0,12,0,2,38,8,0.0
612,0,12,0,2,38,8,0.0
613,0,12,0,2,38,8,0.0
614,0,12,0,1,39,8,0.0
615,0,12,0,1,39,8,0.0
616,0,12,0,1,39,8,0.0
617,0,12,0,1,39,8,0.0
618,0,12,0,1,39,8,0.0
619,0,12,0,1,39,8,0.0
620,0,12,0,1,39,8,0.0
621,0,12,0,1,39,8,0.0
622,0,12,0,1,39,8,0.0
623,0,12,0,1,39,8,0.0
624,0,12,0,1,39,8,0.0
625,0,12,0,1,39,8,0.0
626,0,12,0,1,39,8,0.0
627,0,12,0,1,39,8,0.0
628,0,12,0,1,39,8,0.0
629,0,12,0,1,39,8,0.0
630,0,12,0,1,39,8,0.0
631,0,12,0,1,39,8,0.0
632,0,12,0,1,39,8,0.0
633,0,12,0,1,39,8,0.0
634,0,12,0,1,39,8,0.0
635,0,12,0,1,39,8,0.0
636,0,12,0,1,39,8,0.0
637,0,12,0,1,39,8,0.0
638,0,12,0,1,39,8,0.0
639,0,12,0,1,39,8,0.0
640,0,12,0,1,39,8,0.0
641,0,12,0,1,39,8,0.0
642,0,12,0,1,39,8,0.0
643,0,12,0,1,39,8,0.0
644,0,12,0,1,39,8,0.0
645,0,12,0,1,39,8,0.0
646,0,12,0,1,39,8,0.0
647,0,12,0,1,39,8,0.0
648,0,12,0,1,39,8,0.0
649,0,12,0,1,39,8,0.0
650,0,12,0,1,39,8,0.0
651,0,12,0,1,39,8,0.0
652,0,12,0,1,39,8,0.0
653,0,12,0,1,39,8,0.0
654,0,12,0,1,39,8,0.0
655,0,12,0,1,39,8,0.0
656,0,12,0,1,39,8,0.0
657,0,12,0,1,39,8,0.0
658,0,12,0,1,39,8,0.0
659,0,12,0,1,39,8,0.0
660,0,12,0,1,39,8,0.0
661,0,12,0,1,39,8,0.0
662,0,12,0,0,39,9,0.0
663,0,12,0,0,39,9,0
