t,maternally_immune,susceptible,exposed,infectious,recovered,dead,r0
0,0,50,2,5,3,0,0
1,0,50,2,5,3,0,0
2,0,50,2,5,3,0,0.0
3,0,50,2,5,3,0,0.0
4,0,50,2,5,3,0,0.0
5,0,50,2,5,3,0,0.0
6,0,50,2,5,3,0,0.0
7,0,50,2,5,3,0,0.0
8,0,50,2,5,3,0,0.0
9,0,49,3,5,3,0,0.0
10,0,49,3,5,3,0,0.2
11,0,49,3,5,3,0,0.0
12,0,49,3,5,3,0,0.0
13,0,49,3,5,3,0,0.0
14,0,49,3,5,3,0,0.0
15,0,49,3,5,3,0,0.0
16,0,49,3,5,3,0,0.0
17,0,49,3,5,3,0,0.0
18,0,49,3,5,3,0,0.0
19,0,49,3,5,3,0,0.0
20,0,49,3,5,3,0,0.0
21,0,48,4,5,3,0,0.0
22,0,48,4,5,3,0,0.2
23,0,48,4,5,3,0,0.0
24,0,48,4,5,3,0,0.0
25,0,48,4,5,3,0,0.0
26,0,48,4,5,3,0,0.0
27,0,48,4,5,3,0,0.0
28,0,48,4,5,3,0,0.0
29,0,48,3,6,3,0,0.0
30,0,48,2,7,3,0,0.0
31,0,48,2,7,3,0,0.0
32,0,48,2,7,3,0,0.0
33,0,48,2,7,3,0,0.0
34,0,48,2,7,3,0,0.0
35,0,48,2,7,3,0,0.0
36,0,48,2,7,3,0,0.0
37,0,48,2,7,3,0,0.0
38,0,48,2,7,3,0,0.0
39,0,47,3,7,3,0,0.0
40,0,47,3,7,3,0,0.14285714285714285
41,0,47,3,7,3,0,0.0
42,0,47,3,7,3,0,0.0
43,0,47,2,8,3,0,0.0
44,0,47,2,8,3,0,0.0
45,0,47,2,8,3,0,0.0
46,0,47,2,8,3,0,0.0
47,0,46,3,8,3,0,0.0
48,0,46,3,8,3,0,0.125
49,0,46,2,9,3,0,0.0
50,0,46,2,9,3,0,0.0
51,0,46,2,9,3,0,0.0
52,0,46,2,9,3,0,0.0
53,0,46,2,9,3,0,0.0
54,0,46,2,9,3,0,0.0
55,0,45,3,9,3,0,0.0
56,0,45,3,9,3,0,0.1111111111111111
57,0,45,3,9,3,0,0.0
58,0,45,3,9,3,0,0.0
59,0,45,3,9,3,0,0.0
60,0,45,3,9,3,0,0.0
61,0,45,3,9,3,0,0.0
62,0,45,3,9,3,0,0.0
63,0,45,3,9,3,0,0.0
64,0,45,3,9,3,0,0.0
65,0,45,3,9,3,0,0.0
66,0,45,3,9,3,0,0.0
67,0,45,3,9,3,0,0.0
68,0,45,3,9,3,0,0.0
69,0,45,3,9,3,0,0.0
70,0,45,3,9,3,0,0.0
71,0,45,3,9,3,0,0.0
72,0,45,3,9,3,0,0.0
73,0,45,3,8,4,0,0.0
74,0,45,3,8,4,0,0.0
75,0,45,3,8,4,0,0.0
76,0,45,3,7,5,0,0.0
77,0,45,3,7,5,0,0.0
78,0,45,3,7,5,0,0.0
79,0,45,3,7,5,0,0.0
80,0,45,3,7,5,0,0.0
81,0,45,3,7,5,0,0.0
82,0,45,3,6,6,0,0.0
83,0,45,3,6,6,0,0.0
84,0,45,3,6,6,0,0.0
85,0,45,3,6,6,0,0.0
86,0,45,3,6,6,0,0.0
87,0,45,3,6,6,0,0.0
88,0,45,3,6,6,0,0.0
89,0,45,3,6,6,0,0.0
90,0,45,3,6,6,0,0.0
91,0,45,3,6,6,0,0.0
92,0,45,3,6,6,0,0.0
93,0,45,3,6,6,0,0.0
94,0,45,3,6,6,0,0.0
95,0,45,3,6,6,0,0.0
96,0,45,3,6,6,0,0.0
97,0,45,3,6,6,0,0.0
98,0,45,3,6,6,0,0.0
99,0,45,3,5,6,1,0.0
100,0,45,2,5,7,1,0.0
101,0,45,2,4,8,1,0.0
102,0,45,2,4,8,1,0.0
103,0,45,2,4,8,1,0.0
104,0,45,2,4,8,1,0.0
105,0,45,2,3,9,1,0.0
106,0,45,2,2,10,1,0.0
107,0,45,2,2,10,1,0.0
108,0,45,2,2,10,1,0.0
109,0,45,2,2,10,1,0.0
110,0,45,2,2,10,1,0.0
111,0,45,2,2,10,1,0.0
112,0,45,2,2,10,1,0.0
113,0,45,2,2,10,1,0.0
114,0,45,2,2,10,1,0.0
115,0,45,2,2,10,1,0.0
116,0,45,2,2,10,1,0.0
117,0,45,2,2,10,1,0.0
118,0,45,2,2,10,1,0.0
119,0,45,2,2,10,1,0.0
120,0,45,2,2,10,1,0.0
121,0,45,2,2,10,1,0.0
122,0,45,2,2,10,1,0.0
123,0,45,2,2,10,1,0.0
124,0,45,2,2,10,1,0.0
125,0,45,2,2,10,1,0.0
126,0,45,2,2,10,1,0.0
127,0,45,2,2,10,1,0.0
128,0,45,1,3,10,1,0.0
129,0,45,1,3,10,1,0.0
130,0,45,1,3,10,1,0.0
131,0,45,1,3,10,1,0.0
132,0,45,1,3,10,1,0.0
133,0,45,1,3,10,1,0.0
134,0,45,1,3,10,1,0.0
135,0,45,1,3,10,1,0.0
136,0,45,1,3,10,1,0.0
137,0,45,1,3,10,1,0.0
138,0,45,1,3,10,1,0.0
139,0,45,1,3,10,1,0.0
140,0,45,1,3,10,1,0.0
141,0,45,0,4,10,1,0.0
142,0,45,0,4,10,1,0.0
143,0,45,0,4,10,1,0.0
144,0,45,0,4,10,1,0.0
145,0,43,2,4,10,1,0.0
146,0,43,2,4,10,1,0.5
147,0,43,2,4,10,1,0.0
148,0,43,2,4,10,1,0.0
149,0,43,2,4,10,1,0.0
150,0,43,2,4,10,1,0.0
151,0,43,2,4,10,1,0.0
152,0,43,2,4,10,1,0.0
153,0,43,2,4,10,1,0.0
154,0,43,2,4,10,1,0.0
155,0,42,3,4,10,1,0.0
156,0,42,3,4,10,1,0.25
157,0,42,3,4,10,1,0.0
158,0,42,3,4,10,1,0.0
159,0,42,3,4,10,1,0.0
160,0,42,3,4,10,1,0.0
161,0,42,3,4,10,1,0.0
162,0,42,3,4,10,1,0.0
163,0,42,3,4,10,1,0.0
164,0,42,3,4,10,1,0.0
165,0,42,3,4,10,1,0.0
166,0,42,3,4,10,1,0.0
167,0,42,3,3,11,1,0.0
168,0,42,3,3,11,1,0.0
169,0,42,3,3,11,1,0.0
170,0,42,3,3,11,1,0.0
171,0,42,3,3,11,1,0.0
172,0,42,3,3,11,1,0.0
173,0,42,3,3,11,1,0.0
174,0,42,3,3,11,1,0.0
175,0,42,3,3,11,1,0.0
176,0,42,3,3,11,1,0.0
177,0,42,3,3,11,1,0.0
178,0,42,3,3,11,1,0.0
179,0,42,3,3,11,1,0.0
180,0,42,2,4,11,1,0.0
181,0,42,2,4,11,1,0.0
182,0,42,2,4,11,1,0.0
183,0,42,2,4,11,1,0.0
184,0,42,2,4,11,1,0.0
185,0,42,2,3,12,1,0.0
186,0,42,2,3,12,1,0.0
187,0,42,2,3,12,1,0.0
188,0,42,2,3,12,1,0.0
189,0,42,2,3,12,1,0.0
190,0,42,2,3,12,1,0.0
191,0,42,2,3,12,1,0.0
192,0,42,2,3,12,1,0.0
193,0,42,2,3,12,1,0.0
194,0,42,2,3,12,1,0.0
195,0,42,2,2,13,1,0.0
196,0,42,2,2,13,1,0.0
197,0,42,2,2,13,1,0.0
198,0,42,2,2,13,1,0.0
199,0,42,1,3,13,1,0.0
200,0,42,1,3,13,1,0.0
201,0,42,1,3,13,1,0.0
202,0,42,1,3,13,1,0.0
203,0,42,1,3,13,1,0.0
204,0,42,1,3,13,1,0.0
205,0,42,1,3,13,1,0.0
206,0,42,1,3,13,1,0.0
207,0,42,1,3,13,1,0.0
208,0,42,1,3,13,1,0.0
209,0,42,1,3,13,1,0.0
210,0,42,1,3,13,1,0.0
211,0,42,1,3,13,1,0.0
212,0,42,1,3,13,1,0.0
213,0,42,1,3,13,1,0.0
214,0,42,1,3,13,1,0.0
215,0,42,1,3,13,1,0.0
216,0,42,1,3,13,1,0.0
217,0,42,1,2,14,1,0.0
218,0,42,1,2,14,1,0.0
219,0,42,1,2,14,1,0.0
220,0,42,1,2,14,1,0.0
221,0,42,1,2,14,1,0.0
222,0,42,1,2,14,1,0.0
223,0,42,1,2,14,1,0.0
224,0,42,1,2,14,1,0.0
225,0,42,1,2,14,1,0.0
226,0,42,1,2,14,1,0.0
227,0,41,2,2,14,1,0.0
228,0,41,2,2,14,1,0.5
229,0,41,2,2,14,1,0.0
230,0,41,2,2,14,1,0.0
231,0,41,2,2,14,1,0.0
232,0,41,2,2,14,1,0.0
233,0,41,2,2,14,1,0.0
234,0,41,2,2,14,1,0.0
235,0,41,2,2,14,1,0.0
236,0,41,2,2,14,1,0.0
237,0,41,2,2,14,1,0.0
238,0,41,2,2,14,1,0.0
239,0,41,2,2,14,1,0.0
240,0,41,2,2,14,1,0.0
241,0,41,2,2,14,1,0.0
242,0,41,2,2,14,1,0.0
243,0,41,2,2,14,1,0.0
244,0,41,2,2,14,1,0.0
245,0,41,2,2,14,1,0.0
246,0,41,2,2,14,1,0.0
247,0,41,2,2,14,1,0.0
248,0,41,2,2,14,1,0.0
249,0,41,2,2,14,1,0.0
250,0,41,2,2,14,1,0.0
251,0,41,2,2,14,1,0.0
252,0,41,2,2,14,1,0.0
253,0,41,2,2,14,1,0.0
254,0,41,2,2,14,1,0.0
255,0,41,2,2,14,1,0.0
256,0,41,2,2,14,1,0.0
257,0,41,1,3,14,1,0.0
258,0,41,1,3,14,1,0.0
259,0,41,1,3,14,1,0.0
260,0,41,1,3,14,1,0.0
261,0,41,1,3,14,1,0.0
262,0,41,1,3,14,1,0.0
263,0,41,1,3,14,1,0.0
264,0,41,1,3,14,1,0.0
265,0,41,1,3,14,1,0.0
266,0,41,1,3,14,1,0.0
267,0,41,1,3,14,1,0.0
268,0,41,1,3,14,1,0.0
269,0,41,1,3,14,1,0.0
270,0,41,1,3,14,1,0.0
271,0,41,1,3,14,1,0.0
272,0,41,1,3,14,1,0.0
273,0,41,1,3,14,1,0.0
274,0,41,1,3,14,1,0.0
275,0,41,1,3,14,1,0.0
276,0,41,1,3,14,1,0.0
277,0,41,1,3,14,1,0.0
278,0,41,1,3,14,1,0.0
279,0,41,1,3,14,1,0.0
280,0,41,1,3,14,1,0.0
281,0,41,1,3,14,1,0.0
282,0,41,1,3,14,1,0.0
283,0,41,1,3,14,1,0.0
284,0,41,1,3,14,1,0.0
285,0,41,1,3,14,1,0.0
286,0,41,1,3,14,1,0.0
287,0,41,1,3,14,1,0.0
288,0,41,1,3,14,1,0.0
289,0,41,1,3,14,1,0.0
290,0,41,0,4,14,1,0.0
291,0,41,0,4,14,1,0.0
292,0,41,0,4,14,1,0.0
293,0,41,0,4,14,1,0.0
294,0,41,0,4,14,1,0.0
295,0,41,0,4,14,1,0.0
296,0,41,0,4,14,1,0.0
297,0,41,0,4,14,1,0.0
298,0,41,0,4,14,1,0.0
299,0,41,0,4,14,1,0.0
300,0,41,0,4,14,1,0.0
301,0,41,0,4,14,1,0.0
302,0,41,0,4,14,1,0.0
303,0,41,0,4,14,1,0.0
304,0,41,0,4,14,1,0.0
305,0,41,0,4,14,1,0.0
306,0,41,0,4,14,1,0.0
307,0,41,0,4,14,1,0.0
308,0,41,0,4,14,1,0.0
309,0,41,0,4,14,1,0.0
310,0,41,0,4,14,1,0.0
311,0,41,0,4,14,1,0.0
312,0,41,0,3,15,1,0.0
313,0,41,0,3,15,1,0.0
314,0,41,0,3,15,1,0.0
315,0,41,0,3,15,1,0.0
316,0,41,0,3,15,1,0.0
317,0,41,0,3,15,1,0.0
318,0,41,0,3,15,1,0.0
319,0,41,0,3,15,1,0.0
320,0,41,0,2,16,1,0.0
321,0,41,0,2,16,1,0.0
322,0,41,0,2,16,1,0.0
323,0,41,0,2,16,1,0.0
324,0,41,0,2,16,1,0.0
325,0,41,0,2,16,1,0.0
326,0,41,0,2,16,1,0.0
327,0,41,0,2,16,1,0.0
328,0,41,0,2,16,1,0.0
329,0,41,0,2,16,1,0.0
330,0,41,0,2,16,1,0.0
331,0,41,0,2,16,1,0.0
332,0,41,0,2,16,1,0.0
333,0,41,0,2,16,1,0.0
334,0,40,1,2,16,1,0.0
335,0,40,1,2,16,1,0.5
336,0,40,1,2,16,1,0.0
337,0,40,1,2,16,1,0.0
338,0,40,1,2,16,1,0.0
339,0,40,1,2,16,1,0.0
340,0,40,1,2,16,1,0.0
341,0,40,1,2,16,1,0.0
342,0,40,1,2,16,1,0.0
343,0,40,1,2,16,1,0.0
344,0,40,1,1,17,1,0.0
345,0,40,1,1,17,1,0.0
346,0,40,1,1,17,1,0.0
347,0,40,1,1,17,1,0.0
348,0,40,1,1,17,1,0.0
349,0,40,1,1,17,1,0.0
350,0,40,1,1,17,1,0.0
351,0,40,1,1,17,1,0.0
352,0,40,1,1,17,1,0.0
353,0,40,1,1,17,1,0.0
354,0,40,1,1,17,1,0.0
355,0,40,1,1,17,1,0.0
356,0,40,1,1,17,1,0.0
357,0,40,1,1,17,1,0.0
358,0,40,1,1,17,1,0.0
359,0,40,1,1,17,1,0.0
360,0,40,1,1,17,1,0.0
361,0,40,1,1,17,1,0.0
362,0,40,1,1,17,1,0.0
363,0,40,1,1,17,1,0.0
364,0,40,1,1,17,1,0.0
365,0,40,1,1,17,1,0.0
366,0,40,1,1,17,1,0.0
367,0,40,1,1,17,1,0.0
368,0,40,1,1,17,1,0.0
369,0,40,1,1,17,1,0.0
370,0,40,1,1,17,1,0.0
371,0,40,1,1,17,1,0.0
372,0,40,1,1,17,1,0.0
373,0,40,1,1,17,1,0.0
374,0,40,1,1,17,1,0.0
375,0,40,1,1,17,1,0.0
376,0,40,1,1,17,1,0.0
377,0,40,1,1,17,1,0.0
378,0,40,1,1,17,1,0.0
379,0,40,1,1,17,1,0.0
380,0,40,1,1,17,1,0.0
381,0,40,1,1,17,1,0.0
382,0,40,1,1,17,1,0.0
383,0,40,1,1,17,1,0.0
384,0,40,1,1,17,1,0.0
385,0,40,1,1,17,1,0.0
386,0,40,1,1,17,1,0.0
387,0,40,1,1,17,1,0.0
388,0,40,1,1,17,1,0.0
389,0,40,1,1,17,1,0.0
390,0,40,1,1,17,1,0.0
391,0,40,1,1,17,1,0.0
392,0,40,1,1,17,1,0.0
393,0,40,1,1,17,1,0.0
394,0,40,1,1,17,1,0.0
395,0,40,1,1,17,1,0.0
396,0,40,1,1,17,1,0.0
397,0,40,1,1,17,1,0.0
398,0,40,1,1,17,1,0.0
399,0,40,1,1,17,1,0.0
400,0,40,1,1,17,1,0.0
401,0,40,1,1,17,1,0.0
402,0,40,1,1,17,1,0.0
403,0,40,1,1,17,1,0.0
404,0,40,1,1,17,1,0.0
405,0,40,1,1,17,1,0.0
406,0,40,1,1,17,1,0.0
407,0,40,1,1,17,1,0.0
408,0,40,1,1,17,1,0.0
409,0,40,1,1,17,1,0.0
410,0,40,1,0,18,1,0.0
411,0,40,1,0,18,1,0
412,0,40,1,0,18,1,0
413,0,40,1,0,18,1,0
414,0,40,1,0,18,1,0
415,0,40,1,0,18,1,0
416,0,40,1,0,18,1,0
417,0,40,1,0,18,1,0
418,0,40,1,0,18,1,0
419,0,40,1,0,18,1,0
420,0,40,1,0,18,1,0
421,0,40,1,0,18,1,0
422,0,40,1,0,18,1,0
423,0,40,1,0,18,1,0
424,0,40,1,0,18,1,0
425,0,40,1,0,18,1,0
426,0,40,1,0,18,1,0
427,0,40,1,0,18,1,0
428,0,40,1,0,18,1,0
429,0,40,0,1,18,1,0
430,0,40,0,1,18,1,0.0
431,0,40,0,1,18,1,0.0
432,0,40,0,1,18,1,0.0
433,0,40,0,1,18,1,0.0
434,0,40,0,1,18,1,0.0
435,0,40,0,1,18,1,0.0
436,0,40,0,1,18,1,0.0
437,0,40,0,1,18,1,0.0
438,0,40,0,1,18,1,0.0
439,0,40,0,1,18,1,0.0
440,0,40,0,1,18,1,0.0
441,0,40,0,1,18,1,0.0
442,0,40,0,1,18,1,0.0
443,0,40,0,1,18,1,0.0
444,0,40,0,1,18,1,0.0
445,0,40,0,1,18,1,0.0
446,0,40,0,1,18,1,0.0
447,0,40,0,1,18,1,0.0
448,0,40,0,1,18,1,0.0
449,0,40,0,1,18,1,0.0
450,0,40,0,1,18,1,0.0
451,0,40,0,1,18,1,0.0
452,0,40,0,1,18,1,0.0
453,0,40,0,1,18,1,0.0
454,0,40,0,1,18,1,0.0
455,0,40,0,1,18,1,0.0
456,0,40,0,1,18,1,0.0
457,0,40,0,1,18,1,0.0
458,0,40,0,1,18,1,0.0
459,0,40,0,1,18,1,0.0
460,0,40,0,1,18,1,0.0
461,0,40,0,1,18,1,0.0
462,0,40,0,1,18,1,0.0
463,0,40,0,1,18,1,0.0
464,0,40,0,1,18,1,0.0
465,0,40,0,1,18,1,0.0
466,0,40,0,1,18,1,0.0
467,0,40,0,1,18,1,0.0
468,0,40,0,1,18,1,0.0
469,0,40,0,1,18,1,0.0
470,0,40,0,1,18,1,0.0
471,0,40,0,1,18,1,0.0
472,0,40,0,1,18,1,0.0
473,0,40,0,1,18,1,0.0
474,0,40,0,1,18,1,0.0
475,0,40,0,1,18,1,0.0
476,0,40,0,1,18,1,0.0
477,0,40,0,1,18,1,0.0
478,0,40,0,1,18,1,0.0
479,0,40,0,1,18,1,0.0
480,0,40,0,1,18,1,0.0
481,0,40,0,1,18,1,0.0
482,0,40,0,1,18,1,0.0
483,0,40,0,1,18,1,0.0
484,0,40,0,1,18,1,0.0
485,0,40,0,1,18,1,0.0
486,0,40,0,1,18,1,0.0
487,0,40,0,1,18,1,0.0
488,0,40,0,1,18,1,0.0
489,0,40,0,1,18,1,0.0
490,0,40,0,1,18,1,0.0
491,0,40,0,1,18,1,0.0
492,0,40,0,1,18,1,0.0
493,0,40,0,1,18,1,0.0
494,0,40,0,1,18,1,0.0
495,0,40,0,1,18,1,0.0
496,0,40,0,1,18,1,0.0
497,0,40,0,1,18,1,0.0
498,0,40,0,1,18,1,0.0
499,0,40,0,1,18,1,0.0
500,0,40,0,1,18,1,0.0
501,0,40,0,1,18,1,0.0
502,0,40,0,1,18,1,0.0
503,0,40,0,1,18,1,0.0
504,0,40,0,1,18,1,0.0
505,0,40,0,1,18,1,0.0
506,0,40,0,1,18,1,0.0
507,0,40,0,1,18,1,0.0
508,0,40,0,1,18,1,0.0
509,0,40,0,1,18,1,0.0
510,0,40,0,1,18,1,0.0
511,0,40,0,1,18,1,0.0
512,0,40,0,1,18,1,0.0
513,0,40,0,1,18,1,0.0
514,0,40,0,1,18,1,0.0
515,0,40,0,1,18,1,0.0
516,0,40,0,1,18,1,0.0
517,0,40,0,1,18,1,0.0
518,0,40,0,1,18,1,0.0
519,0,40,0,1,18,1,0.0
520,0,40,0,1,18,1,0.0
521,0,40,0,1,18,1,0.0
522,0,40,0,1,18,1,0.0
523,0,40,0,1,18,1,0.0
524,0,40,0,1,18,1,0.0
525,0,40,0,1,18,1,0.0
526,0,40,0,1,18,1,0.0
527,0,40,0,1,18,1,0.0
528,0,40,0,1,18,1,0.0
529,0,40,0,1,18,1,0.0
530,0,40,0,1,18,1,0.0
531,0,40,0,1,18,1,0.0
532,0,40,0,1,18,1,0.0
533,0,40,0,1,18,1,0.0
534,0,40,0,1,18,1,0.0
535,0,39,1,1,18,1,0.0
536,0,39,1,1,18,1,1.0
537,0,39,1,1,18,1,0.0
538,0,39,1,1,18,1,0.0
539,0,39,1,1,18,1,0.0
540,0,39,1,1,18,1,0.0
541,0,39,1,1,18,1,0.0
542,0,39,1,1,18,1,0.0
543,0,39,1,1,18,1,0.0
544,0,39,1,1,18,1,0.0
545,0,39,1,1,18,1,0.0
546,0,39,1,0,19,1,0.0
547,0,39,1,0,19,1,0
548,0,39,1,0,19,1,0
549,0,39,1,0,19,1,0
550,0,39,1,0,19,1,0
551,0,39,1,0,19,1,0
552,0,39,1,0,19,1,0
553,0,39,1,0,19,1,0
554,0,39,1,0,19,1,0
555,0,39,1,0,19,1,0
556,0,39,1,0,19,1,0
557,0,39,1,0,19,1,0
558,0,39,1,0,19,1,0
559,0,39,1,0,19,1,0
560,0,39,1,0,19,1,0
561,0,39,1,0,19,1,0
562,0,39,1,0,19,1,0
563,0,39,1,0,19,1,0
564,0,39,1,0,19,1,0
565,0,39,1,0,19,1,0
566,0,39,1,0,19,1,0
567,0,39,1,0,19,1,0
568,0,39,1,0,19,1,0
569,0,39,1,0,19,1,0
570,0,39,1,0,19,1,0
571,0,39,1,0,19,1,0
572,0,39,1,0,19,1,0
573,0,39,1,0,19,1,0
574,0,39,1,0,19,1,0
575,0,39,1,0,19,1,0
576,0,39,1,0,19,1,0
577,0,39,1,0,19,1,0
578,0,39,1,0,19,1,0
579,0,39,1,0,19,1,0
580,0,39,1,0,19,1,0
581,0,39,1,0,19,1,0
582,0,39,1,0,19,1,0
583,0,39,1,0,19,1,0
584,0,39,1,0,19,1,0
585,0,39,1,0,19,1,0
586,0,39,1,0,19,1,0
587,0,39,1,0,19,1,0
588,0,39,1,0,19,1,0
589,0,39,1,0,19,1,0
590,0,39,1,0,19,1,0
591,0,39,1,0,19,1,0
592,0,39,1,0,19,1,0
593,0,39,1,0,19,1,0
594,0,39,1,0,19,1,0
595,0,39,1,0,19,1,0
596,0,39,1,0,19,1,0
597,0,39,1,0,19,1,0
598,0,39,1,0,19,1,0
599,0,39,1,0,19,1,0
600,0,39,1,0,19,1,0
601,0,39,1,0,19,1,0
602,0,39,1,0,19,1,0
603,0,39,1,0,19,1,0
604,0,39,1,0,19,1,0
605,0,39,1,0,19,1,0
606,0,39,1,0,19,1,0
607,0,39,1,0,19,1,0
608,0,39,1,0,19,1,0
609,0,39,1,0,19,1,0
610,0,39,1,0,19,1,0
611,0,39,0,1,19,1,0
612,0,38,1,1,19,1,0.0
613,0,37,2,1,19,1,1.0
614,0,37,2,1,19,1,1.0
615,0,36,3,1,19,1,0.0
616,0,36,3,1,19,1,1.0
617,0,36,3,1,19,1,0.0
618,0,36,3,1,19,1,0.0
619,0,36,3,1,19,1,0.0
620,0,36,3,1,19,1,0.0
621,0,36,3,1,19,1,0.0
622,0,36,3,1,19,1,0.0
623,0,36,3,1,19,1,0.0
624,0,36,3,1,19,1,0.0
625,0,36,3,1,19,1,0.0
626,0,36,3,1,19,1,0.0
627,0,36,3,1,19,1,0.0
628,0,36,3,1,19,1,0.0
629,0,36,3,1,19,1,0.0
630,0,36,3,1,19,1,0.0
631,0,36,3,1,19,1,0.0
632,0,36,3,1,19,1,0.0
633,0,36,3,1,19,1,0.0
634,0,36,3,1,19,1,0.0
635,0,36,3,1,19,1,0.0
636,0,36,3,1,19,1,0.0
637,0,35,4,1,19,1,0.0
638,0,35,4,1,19,1,1.0
639,0,35,4,1,19,1,0.0
640,0,35,4,1,19,1,0.0
641,0,35,4,1,19,1,0.0
642,0,35,4,1,19,1,0.0
643,0,35,4,1,19,1,0.0
644,0,35,4,1,19,1,0.0
645,0,35,4,1,19,1,0.0
646,0,35,4,1,19,1,0.0
647,0,35,4,1,19,1,0.0
648,0,35,4,1,19,1,0.0
649,0,35,4,1,19,1,0.0
650,0,35,4,1,19,1,0.0
651,0,35,4,1,19,1,0.0
652,0,35,3,2,19,1,0.0
653,0,35,3,2,19,1,0.0
654,0,35,3,2,19,1,0.0
655,0,35,3,2,19,1,0.0
656,0,35,3,2,19,1,0.0
657,0,35,3,2,19,1,0.0
658,0,35,3,2,19,1,0.0
659,0,35,3,2,19,1,0.0
660,0,35,3,2,19,1,0.0
661,0,35,3,2,19,1,0.0
662,0,35,3,2,19,1,0.0
663,0,35,3,2,19,1,0.0
664,0,35,3,2,19,1,0.0
665,0,35,3,2,19,1,0.0
666,0,35,3,2,19,1,0.0
667,0,35,3,2,19,1,0.0
668,0,35,3,2,19,1,0.0
669,0,35,3,2,19,1,0.0
670,0,35,3,2,19,1,0.0
671,0,35,3,2,19,1,0.0
672,0,35,3,2,19,1,0.0
673,0,35,3,2,19,1,0.0
674,0,35,3,2,19,1,0.0
675,0,35,3,2,19,1,0.0
676,0,35,3,2,19,1,0.0
677,0,35,3,2,19,1,0.0
678,0,35,3,2,19,1,0.0
679,0,35,3,2,19,1,0.0
680,0,35,3,2,19,1,0.0
681,0,35,3,2,19,1,0.0
682,0,35,3,2,19,1,0.0
683,0,35,3,2,19,1,0.0
684,0,35,3,2,19,1,0.0
685,0,35,3,2,19,1,0.0
686,0,35,3,2,19,1,0.0
687,0,35,3,2,19,1,0.0
688,0,35,3,2,19,1,0.0
689,0,35,3,2,19,1,0.0
690,0,35,3,2,19,1,0.0
691,0,35,3,2,19,1,0.0
692,0,35,2,3,19,1,0.0
693,0,34,3,3,19,1,0.0
694,0,34,3,3,19,1,0.3333333333333333
695,0,34,3,3,19,1,0.0
696,0,34,3,3,19,1,0.0
697,0,34,3,3,19,1,0.0
698,0,34,3,3,19,1,0.0
699,0,34,3,3,19,1,0.0
700,0,34,3,3,19,1,0.0
701,0,34,3,3,19,1,0.0
702,0,34,3,3,19,1,0.0
703,0,34,3,3,19,1,0.0
704,0,34,3,3,19,1,0.0
705,0,34,3,3,19,1,0.0
706,0,34,3,3,19,1,0.0
707,0,34,3,3,19,1,0.0
708,0,34,3,3,19,1,0.0
709,0,34,3,3,19,1,0.0
710,0,34,3,3,19,1,0.0
711,0,34,3,3,19,1,0.0
712,0,34,3,2,19,2,0.0
713,0,34,3,2,19,2,0.0
714,0,34,3,2,19,2,0.0
715,0,34,3,2,19,2,0.0
716,0,34,3,2,19,2,0.0
717,0,34,3,2,19,2,0.0
718,0,34,3,2,19,2,0.0
719,0,34,3,2,19,2,0.0
720,0,34,3,2,19,2,0.0
721,0,34,3,2,19,2,0.0
722,0,34,3,2,19,2,0.0
723,0,34,3,2,19,2,0.0
724,0,34,3,2,19,2,0.0
725,0,34,3,2,19,2,0.0
726,0,34,3,2,19,2,0.0
727,0,34,3,2,19,2,0.0
728,0,34,3,2,19,2,0.0
729,0,34,2,3,19,2,0.0
730,0,34,2,3,19,2,0.0
731,0,34,2,3,19,2,0.0
732,0,34,2,3,19,2,0.0
733,0,34,1,4,19,2,0.0
734,0,34,1,4,19,2,0.0
735,0,34,1,4,19,2,0.0
736,0,34,1,4,19,2,0.0
737,0,34,1,4,19,2,0.0
738,0,34,1,4,19,2,0.0
739,0,34,1,4,19,2,0.0
740,0,34,1,4,19,2,0.0
741,0,34,1,4,19,2,0.0
742,0,34,1,4,19,2,0.0
743,0,34,1,4,19,2,0.0
744,0,33,2,4,19,2,0.0
745,0,33,2,4,19,2,0.25
746,0,33,2,4,19,2,0.0
747,0,33,2,4,19,2,0.0
748,0,33,2,4,19,2,0.0
749,0,33,2,4,19,2,0.0
750,0,33,2,4,19,2,0.0
751,0,33,2,4,19,2,0.0
752,0,33,2,4,19,2,0.0
753,0,33,2,4,19,2,0.0
754,0,33,2,4,19,2,0.0
755,0,33,2,4,19,2,0.0
756,0,33,2,4,19,2,0.0
757,0,33,2,3,19,3,0.0
758,0,33,2,3,19,3,0.0
759,0,33,2,3,19,3,0.0
760,0,33,2,3,19,3,0.0
761,0,32,3,3,19,3,0.0
762,0,32,3,3,19,3,0.3333333333333333
763,0,32,3,3,19,3,0.0
764,0,32,3,3,19,3,0.0
765,0,32,3,3,19,3,0.0
766,0,32,3,3,19,3,0.0
767,0,32,3,3,19,3,0.0
768,0,32,3,3,19,3,0.0
769,0,32,3,3,19,3,0.0
770,0,32,3,3,19,3,0.0
771,0,32,3,3,19,3,0.0
772,0,32,3,3,19,3,0.0
773,0,32,3,3,19,3,0.0
774,0,32,2,4,19,3,0.0
775,0,32,2,4,19,3,0.0
776,0,32,2,4,19,3,0.0
777,0,32,2,4,19,3,0.0
778,0,32,2,4,19,3,0.0
779,0,32,2,4,19,3,0.0
780,0,32,2,4,19,3,0.0
781,0,32,2,4,19,3,0.0
782,0,32,2,4,19,3,0.0
783,0,32,2,4,19,3,0.0
784,0,32,2,4,19,3,0.0
785,0,32,2,4,19,3,0.0
786,0,32,2,4,19,3,0.0
787,0,32,2,4,19,3,0.0
788,0,32,2,4,19,3,0.0
789,0,32,2,4,19,3,0.0
790,0,32,2,4,19,3,0.0
791,0,32,2,4,19,3,0.0
792,0,32,2,4,19,3,0.0
793,0,32,2,4,19,3,0.0
794,0,32,2,4,19,3,0.0
795,0,32,2,4,19,3,0.0
796,0,32,2,4,19,3,0.0
797,0,32,2,4,19,3,0.0
798,0,32,2,4,19,3,0.0
799,0,32,2,4,19,3,0.0
800,0,32,2,4,19,3,0.0
801,0,32,2,4,19,3,0.0
802,0,32,2,4,19,3,0.0
803,0,32,2,4,19,3,0.0
804,0,32,2,4,19,3,0.0
805,0,32,2,3,20,3,0.0
806,0,32,2,3,20,3,0.0
807,0,32,2,2,21,3,0.0
808,0,32,2,2,21,3,0.0
809,0,32,2,2,21,3,0.0
810,0,32,2,2,21,3,0.0
811,0,32,2,2,21,3,0.0
812,0,32,2,2,21,3,0.0
813,0,32,2,1,22,3,0.0
814,0,32,2,1,22,3,0.0
815,0,32,2,1,22,3,0.0
816,0,32,2,1,22,3,0.0
817,0,32,2,1,22,3,0.0
818,0,32,1,2,22,3,0.0
819,0,32,1,2,22,3,0.0
820,0,32,1,2,22,3,0.0
821,0,32,1,2,22,3,0.0
822,0,32,1,2,22,3,0.0
823,0,32,1,2,22,3,0.0
824,0,32,1,2,22,3,0.0
825,0,32,1,2,22,3,0.0
826,0,32,1,2,22,3,0.0
827,0,32,1,2,22,3,0.0
828,0,32,1,2,22,3,0.0
829,0,32,1,2,22,3,0.0
830,0,32,1,2,22,3,0.0
831,0,32,1,2,22,3,0.0
832,0,31,2,2,22,3,0.0
833,0,31,2,2,22,3,0.5
834,0,31,2,2,22,3,0.0
835,0,31,2,2,22,3,0.0
836,0,31,2,2,22,3,0.0
837,0,31,2,2,22,3,0.0
838,0,31,2,2,22,3,0.0
839,0,31,2,2,22,3,0.0
840,0,31,2,2,22,3,0.0
841,0,31,2,2,22,3,0.0
842,0,31,2,2,22,3,0.0
843,0,31,2,2,22,3,0.0
844,0,31,2,2,22,3,0.0
845,0,31,2,2,22,3,0.0
846,0,31,2,2,22,3,0.0
847,0,31,2,2,22,3,0.0
848,0,31,2,2,22,3,0.0
849,0,31,2,2,22,3,0.0
850,0,31,2,2,22,3,0.0
851,0,31,2,2,22,3,0.0
852,0,31,2,2,22,3,0.0
853,0,31,2,2,22,3,0.0
854,0,31,2,2,22,3,0.0
855,0,31,2,2,22,3,0.0
856,0,31,2,2,22,3,0.0
857,0,31,2,2,22,3,0.0
858,0,31,2,2,22,3,0.0
859,0,31,1,3,22,3,0.0
860,0,31,1,3,22,3,0.0
861,0,31,1,3,22,3,0.0
862,0,31,1,3,22,3,0.0
863,0,31,1,3,22,3,0.0
864,0,31,0,4,22,3,0.0
865,0,31,0,4,22,3,0.0
866,0,31,0,4,22,3,0.0
867,0,31,0,4,22,3,0.0
868,0,31,0,4,22,3,0.0
869,0,31,0,4,22,3,0.0
870,0,31,0,4,22,3,0.0
871,0,31,0,4,22,3,0.0
872,0,31,0,4,22,3,0.0
873,0,31,0,4,22,3,0.0
874,0,31,0,4,22,3,0.0
875,0,31,0,4,22,3,0.0
876,0,31,0,4,22,3,0.0
877,0,31,0,4,22,3,0.0
878,0,31,0,4,22,3,0.0
879,0,31,0,4,22,3,0.0
880,0,31,0,4,22,3,0.0
881,0,31,0,4,22,3,0.0
882,0,31,0,4,22,3,0.0
883,0,31,0,4,22,3,0.0
884,0,31,0,4,22,3,0.0
885,0,31,0,3,23,3,0.0
886,0,31,0,3,23,3,0.0
887,0,31,0,3,23,3,0.0
888,0,31,0,3,23,3,0.0
889,0,31,0,3,23,3,0.0
890,0,31,0,3,23,3,0.0
891,0,31,0,3,23,3,0.0
892,0,31,0,3,23,3,0.0
893,0,31,0,3,23,3,0.0
894,0,31,0,3,23,3,0.0
895,0,31,0,3,23,3,0.0
896,0,31,0,3,23,3,0.0
897,0,31,0,3,23,3,0.0
898,0,31,0,3,23,3,0.0
899,0,31,0,3,23,3,0.0
900,0,31,0,3,23,3,0.0
901,0,31,0,3,23,3,0.0
902,0,31,0,3,23,3,0.0
903,0,31,0,3,23,3,0.0
904,0,31,0,3,23,3,0.0
905,0,31,0,3,23,3,0.0
906,0,31,0,3,23,3,0.0
907,0,31,0,3,23,3,0.0
908,0,31,0,3,23,3,0.0
909,0,31,0,3,23,3,0.0
910,0,31,0,3,23,3,0.0
911,0,31,0,3,23,3,0.0
912,0,31,0,3,23,3,0.0
913,0,31,0,3,23,3,0.0
914,0,31,0,3,23,3,0.0
915,0,31,0,3,23,3,0.0
916,0,31,0,3,23,3,0.0
917,0,31,0,3,23,3,0.0
918,0,31,0,3,23,3,0.0
919,0,31,0,3,23,3,0.0
920,0,31,0,3,23,3,0.0
921,0,31,0,3,23,3,0.0
922,0,31,0,3,23,3,0.0
923,0,31,0,3,23,3,0.0
924,0,31,0,2,24,3,0.0
925,0,31,0,2,24,3,0.0
926,0,31,0,1,25,3,0.0
927,0,31,0,1,25,3,0.0
928,0,31,0,1,25,3,0.0
929,0,31,0,1,25,3,0.0
930,0,31,0,1,25,3,0.0
931,0,31,0,1,25,3,0.0
932,0,31,0,1,25,3,0.0
933,0,31,0,1,25,3,0.0
934,0,31,0,1,25,3,0.0
935,0,31,0,1,25,3,0.0
936,0,31,0,0,26,3,0.0
937,0,31,0,0,26,3,0
