<?xml version="1.0" encoding="UTF-8" standalone="no"?>
<svg
   xmlns:dc="http://purl.org/dc/elements/1.1/"
   xmlns:cc="http://creativecommons.org/ns#"
   xmlns:rdf="http://www.w3.org/1999/02/22-rdf-syntax-ns#"
   xmlns:svg="http://www.w3.org/2000/svg"
   xmlns="http://www.w3.org/2000/svg"
   xmlns:sodipodi="http://sodipodi.sourceforge.net/DTD/sodipodi-0.dtd"
   xmlns:inkscape="http://www.inkscape.org/namespaces/inkscape"
   width="243.8642mm"
   height="197.92796mm"
   viewBox="0 0 243.8642 197.92796"
   version="1.1"
   id="svg8"
   inkscape:version="1.0.1 (3bc2e813f5, 2020-09-07)"
   sodipodi:docname="recovered-boid.svg">
  <defs
     id="defs2" />
  <sodipodi:namedview
     id="base"
     pagecolor="#ffffff"
     bordercolor="#666666"
     borderopacity="1.0"
     inkscape:pageopacity="0.0"
     inkscape:pageshadow="2"
     inkscape:zoom="0.49497475"
     inkscape:cx="647.06804"
     inkscape:cy="332.06668"
     inkscape:document-units="mm"
     inkscape:current-layer="layer1"
     inkscape:document-rotation="0"
     showgrid="false"
     inkscape:window-width="1920"
     inkscape:window-height="1016"
     inkscape:window-x="0"
     inkscape:window-y="0"
     inkscape:window-maximized="1" />
  <metadata
     id="metadata5">
    <rdf:RDF>
      <cc:Work
         rdf:about="">
        <dc:format>image/svg+xml</dc:format>
        <dc:type
           rdf:resource="http://purl.org/dc/dcmitype/StillImage" />
        <dc:title></dc:title>
      </cc:Work>
    </rdf:RDF>
  </metadata>
  <g
     inkscape:label="Layer 1"
     inkscape:groupmode="layer"
     id="layer1"
     transform="translate(-26.045438,-36.418964)">
    <path
       id="path28"
       style="fill:#000000;fill-opacity:0.25;stroke-width:0.119082"
       inkscape:transform-center-x="-21.785664"
       inkscape:transform-center-y="-2.7563574"
       d="m 98.439453,137.64648 0.578125,71.93946 -0.412109,-71.42188 234.646481,373.99805 -228.80859,371.60547 0.0156,1.95312 915.67194,-377.71289 z"
       transform="scale(0.26458333)" />
    <path
       style="fill:#18a303;fill-opacity:1;stroke-width:0.285714"
       d="m 10.156701,742.83487 c 0,-0.95706 50.81236,-84.19349 112.916359,-184.96989 L 235.98941,374.63515 190.98049,302.87078 C 166.22559,263.40038 114.14716,180.40819 75.250667,118.44369 36.354167,56.479192 5.0082488,5.3024806 5.5930676,4.7176617 6.5703233,3.740406 907.33119,364.84844 914.7489,369.19115 c 1.79926,1.0534 -198.74791,85.1418 -445.6604,186.86314 C -22.215721,758.45847 10.156701,745.28321 10.156701,742.83487 Z"
       id="path103"
       transform="matrix(0.26458333,0,0,0.26458333,26.045438,36.418964)"
       inkscape:export-xdpi="96"
       inkscape:export-ydpi="96" />
  </g>
</svg>
